algorithms_sv/src/shiftadd_serial/shiftadd_tb.vcd
$date
	Sun Jun 22 15:36:18 2025
$end
$version
	Icarus Verilog
$end
$timescale
	1s
$end
$scope module shiftadd_tb $end
$var wire 64 ! outdata_r_o [63:0] $end
$var wire 64 " indata_m_bl_i [63:0] $end
$var wire 1 # finish_o $end
$var reg 1 $ clk_i $end
$var reg 64 % indata_m_i [63:0] $end
$var reg 64 & indata_x_i [63:0] $end
$var reg 64 ' reference_o [63:0] $end
$var reg 1 ( rst_ni $end
$var reg 1 ) start_i $end
$var integer 32 * inp_file [31:0] $end
$scope module uut $end
$var wire 1 + adjust_done $end
$var wire 1 $ clk_i $end
$var wire 64 , inner_mask [63:0] $end
$var wire 1 - is_fermat $end
$var wire 64 . lo [63:0] $end
$var wire 64 / m_bl_i [63:0] $end
$var wire 64 0 m_i [63:0] $end
$var wire 64 1 result_o [63:0] $end
$var wire 1 ( rst_ni $end
$var wire 1 ) start_i $end
$var wire 64 2 x_i [63:0] $end
$var wire 1 # valid_o $end
$var wire 64 3 msb_mask [63:0] $end
$var wire 64 4 mask [63:0] $end
$var wire 1 5 is_mersenne $end
$var wire 1 6 is_kyber $end
$var wire 1 7 is_dilithium $end
$var wire 64 8 bitlength [63:0] $end
$var parameter 32 9 CHUNK_LENGTH $end
$var parameter 32 : DATA_LENGTH $end
$var parameter 32 ; NUM_CHUNKS $end
$var reg 1 < adjust_cycle_done $end
$var reg 1 = ctrl_adjust_result $end
$var reg 1 > ctrl_start_new $end
$var reg 1 ? ctrl_update_fold_sign $end
$var reg 1 @ ctrl_update_mul_counter $end
$var reg 1 A ctrl_update_num_folds $end
$var reg 1 B ctrl_update_operands $end
$var reg 1 C ctrl_update_result $end
$var reg 3 D curr_state [2:0] $end
$var reg 1 E fold_sign_p $end
$var reg 2 F hi_index [1:0] $end
$var reg 3 G next_state [2:0] $end
$var reg 3 H num_folds [2:0] $end
$var reg 64 I result_n [63:0] $end
$var reg 64 J result_p [63:0] $end
$scope function scale_chunk_dilithium $end
$scope begin $ivl_for_loop0 $end
$upscope $end
$upscope $end
$scope function scale_chunk_kyber $end
$scope begin $ivl_for_loop1 $end
$upscope $end
$upscope $end
$scope begin genblk1[0] $end
$var parameter 2 K i $end
$upscope $end
$scope begin genblk1[1] $end
$var parameter 2 L i $end
$upscope $end
$scope begin genblk1[2] $end
$var parameter 3 M i $end
$upscope $end
$upscope $end
$upscope $end
$enddefinitions $end
$comment Show the parameter values. $end
$dumpall
b10 M
b1 L
b0 K
b11 ;
b1000000 :
b100000 9
$end
#0
$dumpvars
bx J
bx I
bx H
b0 G
bx F
xE
b0 D
0C
1B
0A
0@
0?
0>
0=
0<
b11111 8
07
06
05
b1111111111111111111111111111111 4
b10000000000000000000000000000000 3
bx 2
bx 1
b10000000000000000000000000000001 0
b100000 /
b0xxxxxxxxxxxxxxxxxxxxxxxxxxxxxxx .
1-
b1111111111111111111111111111110 ,
0+
b10000000000000000000000000000011 *
0)
0(
bx '
bx &
b10000000000000000000000000000001 %
0$
0#
b100000 "
bx !
$end
#5
b0 !
b0 1
b0 I
b0 F
b0xxxxxxxxxxxxxxxxxxxxxxxxxxxxxxx J
1E
b0 H
1$
#10
0$
#15
1$
#20
0$
#25
1$
#30
0$
#35
1$
#40
0$
#45
1$
#50
0$
1(
#55
1$
#60
0$
#65
1$
#70
b111111010100101111010001011001 .
0$
b1001011010011001111110110111010 '
b1111101000000010111110110101000110111111010100101111010001011001 &
b1111101000000010111110110101000110111111010100101111010001011001 2
#75
b111111010100101111010001011001 J
b1 G
1)
1$
#80
0$
#85
0B
b1 D
b10 G
0)
1$
#90
0$
#95
b1 G
1C
1A
1?
1@
b10 D
1$
#100
0$
#105
0C
0A
0?
0@
b10 G
b1 D
b1 F
b1001011010011001111110110110111 J
0E
b1 H
1$
#110
0$
#115
b1 G
1C
1A
1?
1@
b10 D
1$
#120
0$
#125
0C
0A
0?
0@
b11 G
b1 D
b10 F
b1001011010011001111110110111010 J
1E
b10 H
1$
#130
0$
#135
1=
b11 D
1$
#140
0$
#145
b100 G
1+
1<
b1001011010011001111110110111010 !
b1001011010011001111110110111010 1
b1001011010011001111110110111010 I
1$
#150
0$
#155
1>
b0 G
0=
1#
b100 D
1$
#160
0$
#165
0>
1B
0#
b0 D
0+
0<
b0 !
b0 1
b0 I
b1111111011000110011101101101000 .
b1101110000100110110101001101 '
b111100011010000011001110000111001111111011000110011101101101000 &
b111100011010000011001110000111001111111011000110011101101101000 2
1$
#170
0$
#175
b0 H
b1111111011000110011101101101000 J
b0 F
b1 G
1)
1$
#180
0$
#185
0B
b1 D
b10 G
0)
1$
#190
0$
#195
b1 G
1C
1A
1?
1@
b10 D
1$
#200
0$
#205
0C
0A
0?
0@
b10 G
b1 D
b1 F
b1101110000100110110101001100 J
0E
b1 H
1$
#210
0$
#215
b1 G
1C
1A
1?
1@
b10 D
1$
#220
0$
#225
0C
0A
0?
0@
b11 G
b1 D
b10 F
b1101110000100110110101001101 J
1E
b10 H
1$
#230
0$
#235
1=
b11 D
1$
#240
0$
#245
b100 G
1+
1<
b1101110000100110110101001101 !
b1101110000100110110101001101 1
b1101110000100110110101001101 I
1$
#250
0$
#255
1>
b0 G
0=
1#
b100 D
1$
#260
0$
#265
0>
1B
0#
b0 D
0+
0<
b0 !
b0 1
b0 I
b111011101100110011110001110010 .
b1000110101101101110011100101101 '
b111101001111110001010101010001110111011101100110011110001110010 &
b111101001111110001010101010001110111011101100110011110001110010 2
1$
#270
0$
#275
b0 H
b111011101100110011110001110010 J
b0 F
b1 G
1)
1$
#280
0$
#285
0B
b1 D
b10 G
0)
1$
#290
0$
#295
b1 G
1C
1A
1?
1@
b10 D
1$
#300
0$
#305
0C
0A
0?
0@
b10 G
b1 D
b1 F
b1000110101101101110011100101100 J
0E
b1 H
1$
#310
0$
#315
b1 G
1C
1A
1?
1@
b10 D
1$
#320
0$
#325
0C
0A
0?
0@
b11 G
b1 D
b10 F
b1000110101101101110011100101101 J
1E
b10 H
1$
#330
0$
#335
1=
b11 D
1$
#340
0$
#345
b100 G
1+
1<
b1000110101101101110011100101101 !
b1000110101101101110011100101101 1
b1000110101101101110011100101101 I
1$
#350
0$
#355
1>
b0 G
0=
1#
b100 D
1$
#360
0$
#365
0>
1B
0#
b0 D
0+
0<
b0 !
b0 1
b0 I
b10010111111010001100000111000 .
b1111110111111111010101110010010 '
b100111111110101101100101001110010010111111010001100000111000 &
b100111111110101101100101001110010010111111010001100000111000 2
1$
#370
0$
#375
b0 H
b10010111111010001100000111000 J
b0 F
b1 G
1)
1$
#380
0$
#385
0B
b1 D
b10 G
0)
1$
#390
0$
#395
b1 G
1C
1A
1?
1@
b10 D
1$
#400
0$
#405
0C
0A
0?
0@
b10 G
b1 D
b1 F
b1111110111111111010101110010010 J
0E
b1 H
1$
#410
0$
#415
b1 G
1C
1A
1?
1@
b10 D
1$
#420
0$
#425
0C
0A
0?
0@
b11 G
b1 D
b10 F
1E
b10 H
1$
#430
0$
#435
1=
b11 D
1$
#440
0$
#445
b100 G
1+
1<
b1111110111111111010101110010010 !
b1111110111111111010101110010010 1
b1111110111111111010101110010010 I
1$
#450
0$
#455
1>
b0 G
0=
1#
b100 D
1$
#460
0$
#465
0>
1B
0#
b0 D
0+
0<
b0 !
b0 1
b0 I
b111011111100110101101110111000 .
b10000100110110000001010001 '
b1110011101111111111011011001110111011111100110101101110111000 &
b1110011101111111111011011001110111011111100110101101110111000 2
1$
#470
0$
#475
b0 H
b111011111100110101101110111000 J
b0 F
b1 G
1)
1$
#480
0$
#485
0B
b1 D
b10 G
0)
1$
#490
0$
#495
b1 G
1C
1A
1?
1@
b10 D
1$
#500
0$
#505
0C
0A
0?
0@
b10 G
b1 D
b1 F
b10000100110110000001010001 J
0E
b1 H
1$
#510
0$
#515
b1 G
1C
1A
1?
1@
b10 D
1$
#520
0$
#525
0C
0A
0?
0@
b11 G
b1 D
b10 F
1E
b10 H
1$
#530
0$
#535
1=
b11 D
1$
#540
0$
#545
b100 G
1+
1<
b10000100110110000001010001 !
b10000100110110000001010001 1
b10000100110110000001010001 I
1$
#550
0$
#555
1>
b0 G
0=
1#
b100 D
1$
#560
0$
#565
0>
1B
0#
b0 D
0+
0<
b0 !
b0 1
b0 I
b1000001111111110010101011010000 .
b1010101010010101000011001000101 '
b11011001011010010100100100011001000001111111110010101011010000 &
b11011001011010010100100100011001000001111111110010101011010000 2
1$
#570
0$
#575
b0 H
b1000001111111110010101011010000 J
b0 F
b1 G
1)
1$
#580
0$
#585
0B
b1 D
b10 G
0)
1$
#590
0$
#595
b1 G
1C
1A
1?
1@
b10 D
1$
#600
0$
#605
0C
0A
0?
0@
b10 G
b1 D
b1 F
b1010101010010101000011001000101 J
0E
b1 H
1$
#610
0$
#615
b1 G
1C
1A
1?
1@
b10 D
1$
#620
0$
#625
0C
0A
0?
0@
b11 G
b1 D
b10 F
1E
b10 H
1$
#630
0$
#635
1=
b11 D
1$
#640
0$
#645
b100 G
1+
1<
b1010101010010101000011001000101 !
b1010101010010101000011001000101 1
b1010101010010101000011001000101 I
1$
#650
0$
#655
1>
b0 G
0=
1#
b100 D
1$
#660
0$
#665
0>
1B
0#
b0 D
0+
0<
b0 !
b0 1
b0 I
b110001101100000010001100001100 .
b10010111010000111101001110010 '
b100111101100011110101000100110110110001101100000010001100001100 &
b100111101100011110101000100110110110001101100000010001100001100 2
1$
#670
0$
#675
b0 H
b110001101100000010001100001100 J
b0 F
b1 G
1)
1$
#680
0$
#685
0B
b1 D
b10 G
0)
1$
#690
0$
#695
b1 G
1C
1A
1?
1@
b10 D
1$
#700
0$
#705
0C
0A
0?
0@
b10 G
b1 D
b1 F
b10010111010000111101001110001 J
0E
b1 H
1$
#710
0$
#715
b1 G
1C
1A
1?
1@
b10 D
1$
#720
0$
#725
0C
0A
0?
0@
b11 G
b1 D
b10 F
b10010111010000111101001110010 J
1E
b10 H
1$
#730
0$
#735
1=
b11 D
1$
#740
0$
#745
b100 G
1+
1<
b10010111010000111101001110010 !
b10010111010000111101001110010 1
b10010111010000111101001110010 I
1$
#750
0$
#755
1>
b0 G
0=
1#
b100 D
1$
#760
0$
#765
0>
1B
0#
b0 D
0+
0<
b0 !
b0 1
b0 I
b100010001100110000111000111000 .
b101111100000010110100001100001 '
b111100101011000110100101110110010100010001100110000111000111000 &
b111100101011000110100101110110010100010001100110000111000111000 2
1$
#770
0$
#775
b0 H
b100010001100110000111000111000 J
b0 F
b1 G
1)
1$
#780
0$
#785
0B
b1 D
b10 G
0)
1$
#790
0$
#795
b1 G
1C
1A
1?
1@
b10 D
1$
#800
0$
#805
0C
0A
0?
0@
b10 G
b1 D
b1 F
b101111100000010110100001100000 J
0E
b1 H
1$
#810
0$
#815
b1 G
1C
1A
1?
1@
b10 D
1$
#820
0$
#825
0C
0A
0?
0@
b11 G
b1 D
b10 F
b101111100000010110100001100001 J
1E
b10 H
1$
#830
0$
#835
1=
b11 D
1$
#840
0$
#845
b100 G
1+
1<
b101111100000010110100001100001 !
b101111100000010110100001100001 1
b101111100000010110100001100001 I
1$
#850
0$
#855
1>
b0 G
0=
1#
b100 D
1$
#860
0$
#865
0>
1B
0#
b0 D
0+
0<
b0 !
b0 1
b0 I
b1000110000111101010000100110011 .
b110011010100111110100000100110 '
b1000100101100101010111001000011111000110000111101010000100110011 &
b1000100101100101010111001000011111000110000111101010000100110011 2
1$
#870
0$
#875
b0 H
b1000110000111101010000100110011 J
b0 F
b1 G
1)
1$
#880
0$
#885
0B
b1 D
b10 G
0)
1$
#890
0$
#895
b1 G
1C
1A
1?
1@
b10 D
1$
#900
0$
#905
0C
0A
0?
0@
b10 G
b1 D
b1 F
b110011010100111110100000100100 J
0E
b1 H
1$
#910
0$
#915
b1 G
1C
1A
1?
1@
b10 D
1$
#920
0$
#925
0C
0A
0?
0@
b11 G
b1 D
b10 F
b110011010100111110100000100110 J
1E
b10 H
1$
#930
0$
#935
1=
b11 D
1$
#940
0$
#945
b100 G
1+
1<
b110011010100111110100000100110 !
b110011010100111110100000100110 1
b110011010100111110100000100110 I
1$
#950
0$
#955
1>
b0 G
0=
1#
b100 D
1$
#960
0$
#965
0>
1B
0#
b0 D
0+
0<
b0 !
b0 1
b0 I
b1100110100011111101011100011100 .
b1011011110011111100100001011110 '
b1100010101100000000001110110000011100110100011111101011100011100 &
b1100010101100000000001110110000011100110100011111101011100011100 2
1$
#970
0$
#975
b0 H
b1100110100011111101011100011100 J
b0 F
b1 G
1)
1$
#980
0$
#985
0B
b1 D
b10 G
0)
1$
#990
0$
#995
b1 G
1C
1A
1?
1@
b10 D
1$
#1000
0$
#1005
0C
0A
0?
0@
b10 G
b1 D
b1 F
b1011011110011111100100001011011 J
0E
b1 H
1$
#1010
0$
#1015
b1 G
1C
1A
1?
1@
b10 D
1$
#1020
0$
#1025
0C
0A
0?
0@
b11 G
b1 D
b10 F
b1011011110011111100100001011110 J
1E
b10 H
1$
#1030
0$
#1035
1=
b11 D
1$
#1040
0$
#1045
b100 G
1+
1<
b1011011110011111100100001011110 !
b1011011110011111100100001011110 1
b1011011110011111100100001011110 I
1$
#1050
0$
#1055
1>
b0 G
0=
1#
b100 D
1$
#1060
0$
#1065
0>
1B
0#
b0 D
0+
0<
b0 !
b0 1
b0 I
b1010010011100000001001011000000 .
b111111001110001011110101010010 '
b100110011011101010101011011101010010011100000001001011000000 &
b100110011011101010101011011101010010011100000001001011000000 2
1$
#1070
0$
#1075
b0 H
b1010010011100000001001011000000 J
b0 F
b1 G
1)
1$
#1080
0$
#1085
0B
b1 D
b10 G
0)
1$
#1090
0$
#1095
b1 G
1C
1A
1?
1@
b10 D
1$
#1100
0$
#1105
0C
0A
0?
0@
b10 G
b1 D
b1 F
b111111001110001011110101010010 J
0E
b1 H
1$
#1110
0$
#1115
b1 G
1C
1A
1?
1@
b10 D
1$
#1120
0$
#1125
0C
0A
0?
0@
b11 G
b1 D
b10 F
1E
b10 H
1$
#1130
0$
#1135
1=
b11 D
1$
#1140
0$
#1145
b100 G
1+
1<
b111111001110001011110101010010 !
b111111001110001011110101010010 1
b111111001110001011110101010010 I
1$
#1150
0$
#1155
1>
b0 G
0=
1#
b100 D
1$
#1160
0$
#1165
0>
1B
0#
b0 D
0+
0<
b0 !
b0 1
b0 I
b10110000111100001110010001010 .
b1000101001110101110110011010011 '
b10100001110001100101111101110000010110000111100001110010001010 &
b10100001110001100101111101110000010110000111100001110010001010 2
1$
#1170
0$
#1175
b0 H
b10110000111100001110010001010 J
b0 F
b1 G
1)
1$
#1180
0$
#1185
0B
b1 D
b10 G
0)
1$
#1190
0$
#1195
b1 G
1C
1A
1?
1@
b10 D
1$
#1200
0$
#1205
0C
0A
0?
0@
b10 G
b1 D
b1 F
b1000101001110101110110011010011 J
0E
b1 H
1$
#1210
0$
#1215
b1 G
1C
1A
1?
1@
b10 D
1$
#1220
0$
#1225
0C
0A
0?
0@
b11 G
b1 D
b10 F
1E
b10 H
1$
#1230
0$
#1235
1=
b11 D
1$
#1240
0$
#1245
b100 G
1+
1<
b1000101001110101110110011010011 !
b1000101001110101110110011010011 1
b1000101001110101110110011010011 I
1$
#1250
0$
#1255
1>
b0 G
0=
1#
b100 D
1$
#1260
0$
#1265
0>
1B
0#
b0 D
0+
0<
b0 !
b0 1
b0 I
b11110001011001000100001100011 .
b1010111000011111111101011001 '
b1000100110100101010001001000011000011110001011001000100001100011 &
b1000100110100101010001001000011000011110001011001000100001100011 2
1$
#1270
0$
#1275
b0 H
b11110001011001000100001100011 J
b0 F
b1 G
1)
1$
#1280
0$
#1285
0B
b1 D
b10 G
0)
1$
#1290
0$
#1295
b1 G
1C
1A
1?
1@
b10 D
1$
#1300
0$
#1305
0C
0A
0?
0@
b10 G
b1 D
b1 F
b1010111000011111111101010111 J
0E
b1 H
1$
#1310
0$
#1315
b1 G
1C
1A
1?
1@
b10 D
1$
#1320
0$
#1325
0C
0A
0?
0@
b11 G
b1 D
b10 F
b1010111000011111111101011001 J
1E
b10 H
1$
#1330
0$
#1335
1=
b11 D
1$
#1340
0$
#1345
b100 G
1+
1<
b1010111000011111111101011001 !
b1010111000011111111101011001 1
b1010111000011111111101011001 I
1$
#1350
0$
#1355
1>
b0 G
0=
1#
b100 D
1$
#1360
0$
#1365
0>
1B
0#
b0 D
0+
0<
b0 !
b0 1
b0 I
b101100110101010111110010100100 .
b101001011000011101000101010010 '
b100000110111001110101011010100110101100110101010111110010100100 &
b100000110111001110101011010100110101100110101010111110010100100 2
1$
#1370
0$
#1375
b0 H
b101100110101010111110010100100 J
b0 F
b1 G
1)
1$
#1380
0$
#1385
0B
b1 D
b10 G
0)
1$
#1390
0$
#1395
b1 G
1C
1A
1?
1@
b10 D
1$
#1400
0$
#1405
0C
0A
0?
0@
b10 G
b1 D
b1 F
b101001011000011101000101010001 J
0E
b1 H
1$
#1410
0$
#1415
b1 G
1C
1A
1?
1@
b10 D
1$
#1420
0$
#1425
0C
0A
0?
0@
b11 G
b1 D
b10 F
b101001011000011101000101010010 J
1E
b10 H
1$
#1430
0$
#1435
1=
b11 D
1$
#1440
0$
#1445
b100 G
1+
1<
b101001011000011101000101010010 !
b101001011000011101000101010010 1
b101001011000011101000101010010 I
1$
#1450
0$
#1455
1>
b0 G
0=
1#
b100 D
1$
#1460
0$
#1465
0>
1B
0#
b0 D
0+
0<
b0 !
b0 1
b0 I
b110110011000101011101101110111 .
b1110100011010011000111011100010 '
b1010000011111100100101100100110000110110011000101011101101110111 &
b1010000011111100100101100100110000110110011000101011101101110111 2
1$
#1470
0$
#1475
b0 H
b110110011000101011101101110111 J
b0 F
b1 G
1)
1$
#1480
0$
#1485
0B
b1 D
b10 G
0)
1$
#1490
0$
#1495
b1 G
1C
1A
1?
1@
b10 D
1$
#1500
0$
#1505
0C
0A
0?
0@
b10 G
b1 D
b1 F
b1110100011010011000111011100000 J
0E
b1 H
1$
#1510
0$
#1515
b1 G
1C
1A
1?
1@
b10 D
1$
#1520
0$
#1525
0C
0A
0?
0@
b11 G
b1 D
b10 F
b1110100011010011000111011100010 J
1E
b10 H
1$
#1530
0$
#1535
1=
b11 D
1$
#1540
0$
#1545
b100 G
1+
1<
b1110100011010011000111011100010 !
b1110100011010011000111011100010 1
b1110100011010011000111011100010 I
1$
#1550
0$
#1555
1>
b0 G
0=
1#
b100 D
1$
#1560
0$
#1565
0>
1B
0#
b0 D
0+
0<
b0 !
b0 1
b0 I
b10010111110101111101100000 .
b100110000010000110110010100100 '
b1010111000101011011110010101111110000010010111110101111101100000 &
b1010111000101011011110010101111110000010010111110101111101100000 2
1$
#1570
0$
#1575
b0 H
b10010111110101111101100000 J
b0 F
b1 G
1)
1$
#1580
0$
#1585
0B
b1 D
b10 G
0)
1$
#1590
0$
#1595
b1 G
1C
1A
1?
1@
b10 D
1$
#1600
0$
#1605
0C
0A
0?
0@
b10 G
b1 D
b1 F
b100110000010000110110010100010 J
0E
b1 H
1$
#1610
0$
#1615
b1 G
1C
1A
1?
1@
b10 D
1$
#1620
0$
#1625
0C
0A
0?
0@
b11 G
b1 D
b10 F
b100110000010000110110010100100 J
1E
b10 H
1$
#1630
0$
#1635
1=
b11 D
1$
#1640
0$
#1645
b100 G
1+
1<
b100110000010000110110010100100 !
b100110000010000110110010100100 1
b100110000010000110110010100100 I
1$
#1650
0$
#1655
1>
b0 G
0=
1#
b100 D
1$
#1660
0$
#1665
0>
1B
0#
b0 D
0+
0<
b0 !
b0 1
b0 I
b1000100011000110010011001011101 .
b1100101111010010101011101101 '
b1101111010010111111011011100001000100011000110010011001011101 &
b1101111010010111111011011100001000100011000110010011001011101 2
1$
#1670
0$
#1675
b0 H
b1000100011000110010011001011101 J
b0 F
b1 G
1)
1$
#1680
0$
#1685
0B
b1 D
b10 G
0)
1$
#1690
0$
#1695
b1 G
1C
1A
1?
1@
b10 D
1$
#1700
0$
#1705
0C
0A
0?
0@
b10 G
b1 D
b1 F
b1100101111010010101011101101 J
0E
b1 H
1$
#1710
0$
#1715
b1 G
1C
1A
1?
1@
b10 D
1$
#1720
0$
#1725
0C
0A
0?
0@
b11 G
b1 D
b10 F
1E
b10 H
1$
#1730
0$
#1735
1=
b11 D
1$
#1740
0$
#1745
b100 G
1+
1<
b1100101111010010101011101101 !
b1100101111010010101011101101 1
b1100101111010010101011101101 I
1$
#1750
0$
#1755
1>
b0 G
0=
1#
b100 D
1$
#1760
0$
#1765
0>
1B
0#
b0 D
0+
0<
b0 !
b0 1
b0 I
b11000101111111110111010010011 .
b1111101000101011010110011 '
b101101100101110010111111000000011000101111111110111010010011 &
b101101100101110010111111000000011000101111111110111010010011 2
1$
#1770
0$
#1775
b0 H
b11000101111111110111010010011 J
b0 F
b1 G
1)
1$
#1780
0$
#1785
0B
b1 D
b10 G
0)
1$
#1790
0$
#1795
b1 G
1C
1A
1?
1@
b10 D
1$
#1800
0$
#1805
0C
0A
0?
0@
b10 G
b1 D
b1 F
b1111101000101011010110011 J
0E
b1 H
1$
#1810
0$
#1815
b1 G
1C
1A
1?
1@
b10 D
1$
#1820
0$
#1825
0C
0A
0?
0@
b11 G
b1 D
b10 F
1E
b10 H
1$
#1830
0$
#1835
1=
b11 D
1$
#1840
0$
#1845
b100 G
1+
1<
b1111101000101011010110011 !
b1111101000101011010110011 1
b1111101000101011010110011 I
1$
#1850
0$
#1855
1>
b0 G
0=
1#
b100 D
1$
#1860
0$
#1865
0>
1B
0#
b0 D
0+
0<
b0 !
b0 1
b0 I
b1001100111011010010001010000000 .
b1011111110000110110011100010101 '
b11011010010100110111011011011001001100111011010010001010000000 &
b11011010010100110111011011011001001100111011010010001010000000 2
1$
#1870
0$
#1875
b0 H
b1001100111011010010001010000000 J
b0 F
b1 G
1)
1$
#1880
0$
#1885
0B
b1 D
b10 G
0)
1$
#1890
0$
#1895
b1 G
1C
1A
1?
1@
b10 D
1$
#1900
0$
#1905
0C
0A
0?
0@
b10 G
b1 D
b1 F
b1011111110000110110011100010101 J
0E
b1 H
1$
#1910
0$
#1915
b1 G
1C
1A
1?
1@
b10 D
1$
#1920
0$
#1925
0C
0A
0?
0@
b11 G
b1 D
b10 F
1E
b10 H
1$
#1930
0$
#1935
1=
b11 D
1$
#1940
0$
#1945
b100 G
1+
1<
b1011111110000110110011100010101 !
b1011111110000110110011100010101 1
b1011111110000110110011100010101 I
1$
#1950
0$
#1955
1>
b0 G
0=
1#
b100 D
1$
#1960
0$
#1965
0>
1B
0#
b0 D
0+
0<
b0 !
b0 1
b0 I
b1101111001010000001001101111000 .
b1010010111000011011101111000101 '
b1100111000100011001010111101101101101111001010000001001101111000 &
b1100111000100011001010111101101101101111001010000001001101111000 2
1$
#1970
0$
#1975
b0 H
b1101111001010000001001101111000 J
b0 F
b1 G
1)
1$
#1980
0$
#1985
0B
b1 D
b10 G
0)
1$
#1990
0$
#1995
b1 G
1C
1A
1?
1@
b10 D
1$
#2000
0$
#2005
0C
0A
0?
0@
b10 G
b1 D
b1 F
b1010010111000011011101111000010 J
0E
b1 H
1$
#2010
0$
#2015
b1 G
1C
1A
1?
1@
b10 D
1$
#2020
0$
#2025
0C
0A
0?
0@
b11 G
b1 D
b10 F
b1010010111000011011101111000101 J
1E
b10 H
1$
#2030
0$
#2035
1=
b11 D
1$
#2040
0$
#2045
b100 G
1+
1<
b1010010111000011011101111000101 !
b1010010111000011011101111000101 1
b1010010111000011011101111000101 I
1$
#2050
0$
#2055
1>
b0 G
0=
1#
b100 D
1$
#2060
0$
#2065
0>
1B
0#
b0 D
0+
0<
b0 !
b0 1
b0 I
b110101010100001111111000101110 .
b1100100111001100001100000110011 '
b10100000110101011100101111111000110101010100001111111000101110 &
b10100000110101011100101111111000110101010100001111111000101110 2
1$
#2070
0$
#2075
b0 H
b110101010100001111111000101110 J
b0 F
b1 G
1)
1$
#2080
0$
#2085
0B
b1 D
b10 G
0)
1$
#2090
0$
#2095
b1 G
1C
1A
1?
1@
b10 D
1$
#2100
0$
#2105
0C
0A
0?
0@
b10 G
b1 D
b1 F
b1100100111001100001100000110011 J
0E
b1 H
1$
#2110
0$
#2115
b1 G
1C
1A
1?
1@
b10 D
1$
#2120
0$
#2125
0C
0A
0?
0@
b11 G
b1 D
b10 F
1E
b10 H
1$
#2130
0$
#2135
1=
b11 D
1$
#2140
0$
#2145
b100 G
1+
1<
b1100100111001100001100000110011 !
b1100100111001100001100000110011 1
b1100100111001100001100000110011 I
1$
#2150
0$
#2155
1>
b0 G
0=
1#
b100 D
1$
#2160
0$
#2165
0>
1B
0#
b0 D
0+
0<
b0 !
b0 1
b0 I
b100110010110010110011010111100 .
b1101110101011011011111010011101 '
b1101111010101110101000001000000100110010110010110011010111100 &
b1101111010101110101000001000000100110010110010110011010111100 2
1$
#2170
0$
#2175
b0 H
b100110010110010110011010111100 J
b0 F
b1 G
1)
1$
#2180
0$
#2185
0B
b1 D
b10 G
0)
1$
#2190
0$
#2195
b1 G
1C
1A
1?
1@
b10 D
1$
#2200
0$
#2205
0C
0A
0?
0@
b10 G
b1 D
b1 F
b1101110101011011011111010011101 J
0E
b1 H
1$
#2210
0$
#2215
b1 G
1C
1A
1?
1@
b10 D
1$
#2220
0$
#2225
0C
0A
0?
0@
b11 G
b1 D
b10 F
1E
b10 H
1$
#2230
0$
#2235
1=
b11 D
1$
#2240
0$
#2245
b100 G
1+
1<
b1101110101011011011111010011101 !
b1101110101011011011111010011101 1
b1101110101011011011111010011101 I
1$
#2250
0$
#2255
1>
b0 G
0=
1#
b100 D
1$
#2260
0$
#2265
0>
1B
0#
b0 D
0+
0<
b0 !
b0 1
b0 I
b11010011001010101011011010110 .
b1001100101011001100011001000001 '
b1010011011011100010010000100110000011010011001010101011011010110 &
b1010011011011100010010000100110000011010011001010101011011010110 2
1$
#2270
0$
#2275
b0 H
b11010011001010101011011010110 J
b0 F
b1 G
1)
1$
#2280
0$
#2285
0B
b1 D
b10 G
0)
1$
#2290
0$
#2295
b1 G
1C
1A
1?
1@
b10 D
1$
#2300
0$
#2305
0C
0A
0?
0@
b10 G
b1 D
b1 F
b1001100101011001100011000111111 J
0E
b1 H
1$
#2310
0$
#2315
b1 G
1C
1A
1?
1@
b10 D
1$
#2320
0$
#2325
0C
0A
0?
0@
b11 G
b1 D
b10 F
b1001100101011001100011001000001 J
1E
b10 H
1$
#2330
0$
#2335
1=
b11 D
1$
#2340
0$
#2345
b100 G
1+
1<
b1001100101011001100011001000001 !
b1001100101011001100011001000001 1
b1001100101011001100011001000001 I
1$
#2350
0$
#2355
1>
b0 G
0=
1#
b100 D
1$
#2360
0$
#2365
0>
1B
0#
b0 D
0+
0<
b0 !
b0 1
b0 I
b1000010001101011001011001010110 .
b1101111111011111101000100110011 '
b1110100100100010111000101001001111000010001101011001011001010110 &
b1110100100100010111000101001001111000010001101011001011001010110 2
1$
#2370
0$
#2375
b0 H
b1000010001101011001011001010110 J
b0 F
b1 G
1)
1$
#2380
0$
#2385
0B
b1 D
b10 G
0)
1$
#2390
0$
#2395
b1 G
1C
1A
1?
1@
b10 D
1$
#2400
0$
#2405
0C
0A
0?
0@
b10 G
b1 D
b1 F
b1101111111011111101000100110000 J
0E
b1 H
1$
#2410
0$
#2415
b1 G
1C
1A
1?
1@
b10 D
1$
#2420
0$
#2425
0C
0A
0?
0@
b11 G
b1 D
b10 F
b1101111111011111101000100110011 J
1E
b10 H
1$
#2430
0$
#2435
1=
b11 D
1$
#2440
0$
#2445
b100 G
1+
1<
b1101111111011111101000100110011 !
b1101111111011111101000100110011 1
b1101111111011111101000100110011 I
1$
#2450
0$
#2455
1>
b0 G
0=
1#
b100 D
1$
#2460
0$
#2465
0>
1B
0#
b0 D
0+
0<
b0 !
b0 1
b0 I
b1111110110111000101010100110000 .
b101100010000101101110110100110 '
b1010100101001100101110111100011001111110110111000101010100110000 &
b1010100101001100101110111100011001111110110111000101010100110000 2
1$
#2470
0$
#2475
b0 H
b1111110110111000101010100110000 J
b0 F
b1 G
1)
1$
#2480
0$
#2485
0B
b1 D
b10 G
0)
1$
#2490
0$
#2495
b1 G
1C
1A
1?
1@
b10 D
1$
#2500
0$
#2505
0C
0A
0?
0@
b10 G
b1 D
b1 F
b101100010000101101110110100100 J
0E
b1 H
1$
#2510
0$
#2515
b1 G
1C
1A
1?
1@
b10 D
1$
#2520
0$
#2525
0C
0A
0?
0@
b11 G
b1 D
b10 F
b101100010000101101110110100110 J
1E
b10 H
1$
#2530
0$
#2535
1=
b11 D
1$
#2540
0$
#2545
b100 G
1+
1<
b101100010000101101110110100110 !
b101100010000101101110110100110 1
b101100010000101101110110100110 I
1$
#2550
0$
#2555
1>
b0 G
0=
1#
b100 D
1$
#2560
0$
#2565
0>
1B
0#
b0 D
0+
0<
b0 !
b0 1
b0 I
b1111100011000000001001010110000 .
b1101100001111000001110101011100 '
b1000100000010001111110101010101101111100011000000001001010110000 &
b1000100000010001111110101010101101111100011000000001001010110000 2
1$
#2570
0$
#2575
b0 H
b1111100011000000001001010110000 J
b0 F
b1 G
1)
1$
#2580
0$
#2585
0B
b1 D
b10 G
0)
1$
#2590
0$
#2595
b1 G
1C
1A
1?
1@
b10 D
1$
#2600
0$
#2605
0C
0A
0?
0@
b10 G
b1 D
b1 F
b1101100001111000001110101011010 J
0E
b1 H
1$
#2610
0$
#2615
b1 G
1C
1A
1?
1@
b10 D
1$
#2620
0$
#2625
0C
0A
0?
0@
b11 G
b1 D
b10 F
b1101100001111000001110101011100 J
1E
b10 H
1$
#2630
0$
#2635
1=
b11 D
1$
#2640
0$
#2645
b100 G
1+
1<
b1101100001111000001110101011100 !
b1101100001111000001110101011100 1
b1101100001111000001110101011100 I
1$
#2650
0$
