algorithms_sv/src/montgomery_serial/montgomery_tb.vcd
$date
	Sat Jun 21 13:58:50 2025
$end
$version
	Icarus Verilog
$end
$timescale
	1ps
$end
$scope module montgomery_tb $end
$var wire 64 ! indata_m_bl_i [63:0] $end
$var wire 64 " indata_m_i [63:0] $end
$var wire 64 # outdata_r_o [63:0] $end
$var wire 1 $ finish_o $end
$var reg 1 % clk_i $end
$var reg 64 & indata_x_i [63:0] $end
$var reg 64 ' indata_y_i [63:0] $end
$var reg 64 ( indata_y_mont_i [63:0] $end
$var reg 64 ) reference_o [63:0] $end
$var reg 1 * rst_ni $end
$var reg 1 + start_i $end
$var integer 32 , inp_file [31:0] $end
$scope module uut $end
$var wire 1 % clk_i $end
$var wire 64 - m_bl_i [63:0] $end
$var wire 64 . m_i [63:0] $end
$var wire 64 / result_o [63:0] $end
$var wire 1 * rst_ni $end
$var wire 1 + start_i $end
$var wire 64 0 x_i [63:0] $end
$var wire 64 1 y_i [63:0] $end
$var wire 1 $ valid_o $end
$var wire 64 2 mask [63:0] $end
$var parameter 32 3 DATA_LENGTH $end
$var reg 64 4 S [63:0] $end
$var reg 1 5 ctrl_reset_operands $end
$var reg 1 6 ctrl_start_new $end
$var reg 1 7 ctrl_update_result $end
$var reg 1 8 ctrl_update_x_counter $end
$var reg 3 9 curr_state [2:0] $end
$var reg 9 : idx [8:0] $end
$var reg 3 ; next_state [2:0] $end
$scope function montgomery_step $end
$upscope $end
$upscope $end
$upscope $end
$enddefinitions $end
$comment Show the parameter values. $end
$dumpall
b1000000 3
$end
#0
$dumpvars
b0 ;
bx :
bx 9
x8
x7
x6
x5
b0 4
b0 2
bx 1
bx 0
b0 /
b11111111110000000000001 .
b10111 -
b10000000000000000000000000000011 ,
0+
0*
bx )
bx (
bx '
bx &
0%
x$
b0 #
b11111111110000000000001 "
b10111 !
$end
#5000
06
07
08
15
b0 :
0$
b0 9
1%
#10000
0%
#15000
1%
#20000
0%
#25000
1%
#30000
0%
#35000
1%
#40000
0%
#45000
1%
#50000
0%
1*
#55000
1%
#60000
0%
#65000
1%
#70000
b1 ;
0%
1+
b10000111111000101010101 )
b10010000001001000110000 (
b10010000001001000110000 1
b11100011101000101010110 '
b1100101110010011000100 &
b1100101110010011000100 0
#75000
17
18
05
b1 9
1%
#80000
0%
#85000
b1 :
0+
1%
#90000
0%
#95000
b10 :
1%
#100000
0%
#105000
b1001000000100100011000 #
b1001000000100100011000 /
b11 :
b1001000000100100011000 4
1%
#110000
0%
#115000
b100100000010010001100 #
b100100000010010001100 /
b100 :
b100100000010010001100 4
1%
#120000
0%
#125000
b10010000001001000110 #
b10010000001001000110 /
b101 :
b10010000001001000110 4
1%
#130000
0%
#135000
b1001000000100100011 #
b1001000000100100011 /
b110 :
b1001000000100100011 4
1%
#140000
0%
#145000
b11001100011100110101010 #
b11001100011100110101010 /
b111 :
b11001100011100110101010 4
1%
#150000
0%
#155000
b10101110010010111101101 #
b10101110010010111101101 /
b1000 :
b10101110010010111101101 4
1%
#160000
0%
#165000
b11010111000001011110111 #
b11010111000001011110111 /
b1001 :
b11010111000001011110111 4
1%
#170000
0%
#175000
b11101011011000101111100 #
b11101011011000101111100 /
b1010 :
b11101011011000101111100 4
1%
#180000
0%
#185000
b10111101110000111010110 #
b10111101110000111010110 /
b1011 :
b10111101110000111010110 4
1%
#190000
0%
#195000
b1011110111000011101011 #
b1011110111000011101011 /
b1100 :
b1011110111000011101011 4
1%
#200000
0%
#205000
b10101111010100001110110 #
b10101111010100001110110 /
b1101 :
b10101111010100001110110 4
1%
#210000
0%
#215000
b10011111101110101010011 #
b10011111101110101010011 /
b1110 :
b10011111101110101010011 4
1%
#220000
0%
#225000
b11000000011111000001 #
b11000000011111000001 /
b1111 :
b1111111111111111111111111111111111111111111111111111111111111111 2
b100010111110011111000010 4
1%
#230000
0%
#235000
b11010011111110011111001 #
b11010011111110011111001 /
b10000 :
b0 2
b11010011111110011111001 4
1%
#240000
0%
#245000
b11101001110111001111101 #
b11101001110111001111101 /
b10001 :
b11101001110111001111101 4
1%
#250000
0%
#255000
b111101001000001010110 #
b111101001000001010110 /
b10010 :
b1111111111111111111111111111111111111111111111111111111111111111 2
b100111100111000001010111 4
1%
#260000
0%
#265000
b11110100100000101011 #
b11110100100000101011 /
b10011 :
b100011110010100000101100 4
1%
#270000
0%
#275000
b10001111001010000010110 #
b10001111001010000010110 /
b10100 :
b0 2
b10001111001010000010110 4
1%
#280000
0%
#285000
b10001111101001100100011 #
b10001111101001100100011 /
b10101 :
b10001111101001100100011 4
1%
#290000
0%
#295000
b10000000001010101001 #
b10000000001010101001 /
b10 ;
b10110 :
b1111111111111111111111111111111111111111111111111111111111111111 2
b100001111110001010101010 4
1%
#300000
0%
#305000
16
b10000111111000101010101 #
b10000111111000101010101 /
b0 ;
07
08
b10111 :
1$
b10 9
b0 2
b10000111111000101010101 4
1%
#310000
0%
#315000
06
15
0$
b0 9
b1 ;
1+
b10010001100100011110111 )
b1000101001101011100110 (
b1000101001101011100110 1
b1010010011110001 '
b1010001100001000011001 &
b1010001100001000011001 0
1%
#320000
0%
#325000
b0 #
b0 /
17
18
05
b0 :
b1 9
b0 4
1%
#330000
0%
#335000
b100010100110101110011 #
b100010100110101110011 /
b1 :
b100010100110101110011 4
0+
1%
#340000
0%
#345000
b10010001001011010111010 #
b10010001001011010111010 /
b10 :
b10010001001011010111010 4
1%
#350000
0%
#355000
b1001000100101101011101 #
b1001000100101101011101 /
b11 :
b1001000100101101011101 4
1%
#360000
0%
#365000
b11000110110001100100010 #
b11000110110001100100010 /
b100 :
b11000110110001100100010 4
1%
#370000
0%
#375000
b10000101111111100000100 #
b10000101111111100000100 /
b101 :
b10000101111111100000100 4
1%
#380000
0%
#385000
b1000010111111110000010 #
b1000010111111110000010 /
b110 :
b1000010111111110000010 4
1%
#390000
0%
#395000
b100001011111111000001 #
b100001011111111000001 /
b111 :
b100001011111111000001 4
1%
#400000
0%
#405000
b10010000100111111100001 #
b10010000100111111100001 /
b1000 :
b10010000100111111100001 4
1%
#410000
0%
#415000
b11001000001011111110001 #
b11001000001011111110001 /
b1001 :
b11001000001011111110001 4
1%
#420000
0%
#425000
b110110100101101011 #
b110110100101101011 /
b1010 :
b1111111111111111111111111111111111111111111111111111111111111111 2
b100000110100100101101100 4
1%
#430000
0%
#435000
b10000011010010010110110 #
b10000011010010010110110 /
b1011 :
b0 2
b10000011010010010110110 4
1%
#440000
0%
#445000
b1000001101001001011011 #
b1000001101001001011011 /
b1100 :
b1000001101001001011011 4
1%
#450000
0%
#455000
b10100000101100100101110 #
b10100000101100100101110 /
b1101 :
b10100000101100100101110 4
1%
#460000
0%
#465000
b1010000010110010010111 #
b1010000010110010010111 /
b1110 :
b1010000010110010010111 4
1%
#470000
0%
#475000
b11001010101001110111111 #
b11001010101001110111111 /
b1111 :
b11001010101001110111111 4
1%
#480000
0%
#485000
b1000000011101010010 #
b1000000011101010010 /
b10000 :
b1111111111111111111111111111111111111111111111111111111111111111 2
b100000111110011101010011 4
1%
#490000
0%
#495000
b100000001110101001 #
b100000001110101001 /
b10001 :
b100000011110001110101010 4
1%
#500000
0%
#505000
b10000001111000111010101 #
b10000001111000111010101 /
b10010 :
b0 2
b10000001111000111010101 4
1%
#510000
0%
#515000
b11000000110100011101011 #
b11000000110100011101011 /
b10011 :
b11000000110100011101011 4
1%
#520000
0%
#525000
b11001000111101000 #
b11001000111101000 /
b10100 :
b1111111111111111111111111111111111111111111111111111111111111111 2
b100000010111000111101001 4
1%
#530000
0%
#535000
b1100100011110100 #
b1100100011110100 /
b10101 :
b100000001010100011110101 4
1%
#540000
0%
#545000
b100011011000111101101 #
b100011011000111101101 /
b10 ;
b10110 :
b100100011001000111101110 4
1%
#550000
0%
#555000
b10010001100100011110111 #
b10010001100100011110111 /
16
07
08
b0 ;
1$
b10 9
b10111 :
b0 2
b10010001100100011110111 4
1%
#560000
0%
#565000
06
15
0$
b0 9
b1 ;
1+
b11111011010010100010110 )
b10000110101011100110001 (
b10000110101011100110001 1
b10101100111001100101110 '
b1010000010100111110110 &
b1010000010100111110110 0
1%
#570000
0%
#575000
b0 #
b0 /
17
18
05
b1 9
b0 :
b0 4
1%
#580000
0%
#585000
b1 :
0+
1%
#590000
0%
#595000
b11000011001101110011001 #
b11000011001101110011001 /
b10 :
b11000011001101110011001 4
1%
#600000
0%
#605000
b10100100111100101100101 #
b10100100111100101100101 /
b11 :
b10100100111100101100101 4
1%
#610000
0%
#615000
b11010010010110010110011 #
b11010010010110010110011 /
b100 :
b11010010010110010110011 4
1%
#620000
0%
#625000
b10101100100000111110010 #
b10101100100000111110010 /
b101 :
b10101100100000111110010 4
1%
#630000
0%
#635000
b11001101110010010001 #
b11001101110010010001 /
b110 :
b1111111111111111111111111111111111111111111111111111111111111111 2
b100011001011110010010010 4
1%
#640000
0%
#645000
b1010000001100111100001 #
b1010000001100111100001 /
b111 :
b101001111111100111100010 4
1%
#650000
0%
#655000
b1101011011100010001001 #
b1101011011100010001001 /
b1000 :
b101101011001100010001010 4
1%
#660000
0%
#665000
b1111001000011111011101 #
b1111001000011111011101 /
b1001 :
b101111000110011111011110 4
1%
#670000
0%
#675000
b10111100011001111101111 #
b10111100011001111101111 /
b1010 :
b0 2
b10111100011001111101111 4
1%
#680000
0%
#685000
b11011110000100111111000 #
b11011110000100111111000 /
b1011 :
b11011110000100111111000 4
1%
#690000
0%
#695000
b110010100000010010100 #
b110010100000010010100 /
b1100 :
b1111111111111111111111111111111111111111111111111111111111111111 2
b100110010010000010010101 4
1%
#700000
0%
#705000
b11001010000001001010 #
b11001010000001001010 /
b1101 :
b100011001000000001001011 4
1%
#710000
0%
#715000
b11001111110101110111110 #
b11001111110101110111110 /
b1110 :
b0 2
b11001111110101110111110 4
1%
#720000
0%
#725000
b1100111111010111011111 #
b1100111111010111011111 /
b1111 :
b1100111111010111011111 4
1%
#730000
0%
#735000
b10110011110101011110000 #
b10110011110101011110000 /
b10000 :
b10110011110101011110000 4
1%
#740000
0%
#745000
b1011001111010101111000 #
b1011001111010101111000 /
b10001 :
b1011001111010101111000 4
1%
#750000
0%
#755000
b101100111101010111100 #
b101100111101010111100 /
b10010 :
b101100111101010111100 4
1%
#760000
0%
#765000
b10110011110101011110 #
b10110011110101011110 /
b10011 :
b10110011110101011110 4
1%
#770000
0%
#775000
b11001110011101001001000 #
b11001110011101001001000 /
b10100 :
b11001110011101001001000 4
1%
#780000
0%
#785000
b1100111001110100100100 #
b1100111001110100100100 /
b10101 :
b1100111001110100100100 4
1%
#790000
0%
#795000
b11110110110101000101011 #
b11110110110101000101011 /
b10 ;
b10110 :
b11110110110101000101011 4
1%
#800000
0%
#805000
16
b11111011010010100010110 #
b11111011010010100010110 /
b0 ;
07
08
b10111 :
1$
b10 9
b11111011010010100010110 4
1%
#810000
0%
#815000
06
15
0$
b0 9
b1 ;
1+
b11111011000010000001101 )
b11101101101010110011110 (
b11101101101010110011110 1
b10101010101010100001001 '
b1110111001011001000011 &
b1110111001011001000011 0
1%
#820000
0%
#825000
b0 #
b0 /
17
18
05
b0 :
b1 9
b0 4
1%
#830000
0%
#835000
b1110110110101011001111 #
b1110110110101011001111 /
b1 :
b1110110110101011001111 4
0+
1%
#840000
0%
#845000
b110010011000000110110 #
b110010011000000110110 /
b10 :
b1111111111111111111111111111111111111111111111111111111111111111 2
b100110010001000000110111 4
1%
#850000
0%
#855000
b11001001100000011011 #
b11001001100000011011 /
b11 :
b100011000111100000011100 4
1%
#860000
0%
#865000
b10001100011110000001110 #
b10001100011110000001110 /
b100 :
b0 2
b10001100011110000001110 4
1%
#870000
0%
#875000
b1000110001111000000111 #
b1000110001111000000111 /
b101 :
b1000110001111000000111 4
1%
#880000
0%
#885000
b10100010111111100000100 #
b10100010111111100000100 /
b110 :
b10100010111111100000100 4
1%
#890000
0%
#895000
b11001000010101001010001 #
b11001000010101001010001 /
b111 :
b11001000010101001010001 4
1%
#900000
0%
#905000
b11100100000010100101001 #
b11100100000010100101001 /
b1000 :
b11100100000010100101001 4
1%
#910000
0%
#915000
b11110001111001010010101 #
b11110001111001010010101 /
b1001 :
b11110001111001010010101 4
1%
#920000
0%
#925000
b1101111111010000011001 #
b1101111111010000011001 /
b1010 :
b1111111111111111111111111111111111111111111111111111111111111111 2
b101101111101010000011010 4
1%
#930000
0%
#935000
b101110111010011011011 #
b101110111010011011011 /
b1011 :
b100101110101010011011100 4
1%
#940000
0%
#945000
b10010111010101001101110 #
b10010111010101001101110 /
b1100 :
b0 2
b10010111010101001101110 4
1%
#950000
0%
#955000
b11000010100000000000110 #
b11000010100000000000110 /
b1101 :
b11000010100000000000110 4
1%
#960000
0%
#965000
b1100001010000000000011 #
b1100001010000000000011 /
b1110 :
b1100001010000000000011 4
1%
#970000
0%
#975000
b10110000100000000000010 #
b10110000100000000000010 /
b1111 :
b10110000100000000000010 4
1%
#980000
0%
#985000
b11001111000101011010000 #
b11001111000101011010000 /
b10000 :
b11001111000101011010000 4
1%
#990000
0%
#995000
b11011110011000000110111 #
b11011110011000000110111 /
b10001 :
b11011110011000000110111 4
1%
#1000000
0%
#1005000
b1100110001001011101010 #
b1100110001001011101010 /
b10010 :
b1111111111111111111111111111111111111111111111111111111111111111 2
b101100101111001011101011 4
1%
#1010000
0%
#1015000
b110011000100101110101 #
b110011000100101110101 /
b10011 :
b100110010110100101110110 4
1%
#1020000
0%
#1025000
b10000011111110001001 #
b10000011111110001001 /
b10100 :
b100010000001111110001010 4
1%
#1030000
0%
#1035000
b11111110111101010010100 #
b11111110111101010010100 /
b10101 :
b0 2
b11111110111101010010100 4
1%
#1040000
0%
#1045000
b11110110010100000011001 #
b11110110010100000011001 /
b10 ;
b10110 :
b11110110010100000011001 4
1%
#1050000
0%
#1055000
b11111011000010000001101 #
b11111011000010000001101 /
16
07
08
b0 ;
1$
b10 9
b10111 :
b11111011000010000001101 4
1%
#1060000
0%
#1065000
06
15
0$
b0 9
b1 ;
1+
b110110101011011010100 )
b10001111001110010101101 (
b10001111001110010101101 1
b1000101011101010100011 '
b11011001101000011010011 &
b11011001101000011010011 0
1%
#1070000
0%
#1075000
b0 #
b0 /
17
18
05
b1 9
b0 :
b0 4
1%
#1080000
0%
#1085000
b11000111011111001010111 #
b11000111011111001010111 /
b1 :
b11000111011111001010111 4
0+
1%
#1090000
0%
#1095000
b10101011010110110000010 #
b10101011010110110000010 /
b10 :
b10101011010110110000010 4
1%
#1100000
0%
#1105000
b1010101101011011000001 #
b1010101101011011000001 /
b11 :
b1010101101011011000001 4
1%
#1110000
0%
#1115000
b10101010101101101100001 #
b10101010101101101100001 /
b100 :
b10101010101101101100001 4
1%
#1120000
0%
#1125000
b10011100111110000000111 #
b10011100111110000000111 /
b101 :
b10011100111110000000111 4
1%
#1130000
0%
#1135000
b11001110010111000000100 #
b11001110010111000000100 /
b110 :
b11001110010111000000100 4
1%
#1140000
0%
#1145000
b101110111010101011000 #
b101110111010101011000 /
b111 :
b1111111111111111111111111111111111111111111111111111111111111111 2
b100101110101010101011001 4
1%
#1150000
0%
#1155000
b11011110111100100000011 #
b11011110111100100000011 /
b1000 :
b0 2
b11011110111100100000011 4
1%
#1160000
0%
#1165000
b11101111010110010000010 #
b11101111010110010000010 /
b1001 :
b11101111010110010000010 4
1%
#1170000
0%
#1175000
b1110111101011001000001 #
b1110111101011001000001 /
b1010 :
b1110111101011001000001 4
1%
#1180000
0%
#1185000
b10111011101101100100001 #
b10111011101101100100001 /
b1011 :
b10111011101101100100001 4
1%
#1190000
0%
#1195000
b11011101101110110010001 #
b11011101101110110010001 /
b1100 :
b11011101101110110010001 4
1%
#1200000
0%
#1205000
b10110110011110100011111 #
b10110110011110100011111 /
b1101 :
b10110110011110100011111 4
1%
#1210000
0%
#1215000
b11011011000111010010000 #
b11011011000111010010000 /
b1110 :
b11011011000111010010000 4
1%
#1220000
0%
#1225000
b110101010010110011110 #
b110101010010110011110 /
b1111 :
b1111111111111111111111111111111111111111111111111111111111111111 2
b100110101000010110011111 4
1%
#1230000
0%
#1235000
b11100010001000100100110 #
b11100010001000100100110 /
b10000 :
b0 2
b11100010001000100100110 4
1%
#1240000
0%
#1245000
b1110001000100010010011 #
b1110001000100010010011 /
b10001 :
b1110001000100010010011 4
1%
#1250000
0%
#1255000
b10111000011010001001010 #
b10111000011010001001010 /
b10010 :
b10111000011010001001010 4
1%
#1260000
0%
#1265000
b100011111100001111011 #
b100011111100001111011 /
b10011 :
b1111111111111111111111111111111111111111111111111111111111111111 2
b100100011101100001111100 4
1%
#1270000
0%
#1275000
b1011001100101010010100 #
b1011001100101010010100 /
b10100 :
b101011001010101010010101 4
1%
#1280000
0%
#1285000
b101100110010101001010 #
b101100110010101001010 /
b10101 :
b100101100100010101001011 4
1%
#1290000
0%
#1295000
b11011101111000011111100 #
b11011101111000011111100 /
b10 ;
b10110 :
b0 2
b11011101111000011111100 4
1%
#1300000
0%
#1305000
16
b110110101011011010100 #
b110110101011011010100 /
b0 ;
07
08
b10111 :
1$
b10 9
b1111111111111111111111111111111111111111111111111111111111111111 2
b100110110011011011010101 4
1%
#1310000
0%
#1315000
06
15
0$
b0 9
b1 ;
1+
b1111110010111111010000 )
b11010110101010100001000 (
b11010110101010100001000 1
b11100111000111000001111 '
b1101010000001110010111 &
b1101010000001110010111 0
1%
#1320000
0%
#1325000
b0 #
b0 /
17
18
05
b0 :
b1 9
b0 2
b0 4
1%
#1330000
0%
#1335000
b1101011010101010000100 #
b1101011010101010000100 /
b1 :
b1101011010101010000100 4
0+
1%
#1340000
0%
#1345000
b10100000111111111000110 #
b10100000111111111000110 /
b10 :
b10100000111111111000110 4
1%
#1350000
0%
#1355000
b10111011110101001100111 #
b10111011110101001100111 /
b11 :
b10111011110101001100111 4
1%
#1360000
0%
#1365000
b11011101110010100110100 #
b11011101110010100110100 /
b100 :
b11011101110010100110100 4
1%
#1370000
0%
#1375000
b11011010001110100011110 #
b11011010001110100011110 /
b101 :
b11011010001110100011110 4
1%
#1380000
0%
#1385000
b1101101000111010001111 #
b1101101000111010001111 /
b110 :
b1101101000111010001111 4
1%
#1390000
0%
#1395000
b10110110011011101001000 #
b10110110011011101001000 /
b111 :
b10110110011011101001000 4
1%
#1400000
0%
#1405000
b11000110100011000101000 #
b11000110100011000101000 /
b1000 :
b11000110100011000101000 4
1%
#1410000
0%
#1415000
b11001110100110110011000 #
b11001110100110110011000 /
b1001 :
b11001110100110110011000 4
1%
#1420000
0%
#1425000
b11010010101000101010000 #
b11010010101000101010000 /
b1010 :
b11010010101000101010000 4
1%
#1430000
0%
#1435000
b1101001010100010101000 #
b1101001010100010101000 /
b1011 :
b1101001010100010101000 4
1%
#1440000
0%
#1445000
b110100101010001010100 #
b110100101010001010100 /
b1100 :
b110100101010001010100 4
1%
#1450000
0%
#1455000
b11010010101000101010 #
b11010010101000101010 /
b1101 :
b11010010101000101010 4
1%
#1460000
0%
#1465000
b1101001010100010101 #
b1101001010100010101 /
b1110 :
b1101001010100010101 4
1%
#1470000
0%
#1475000
b10000110011101010001011 #
b10000110011101010001011 /
b1111 :
b10000110011101010001011 4
1%
#1480000
0%
#1485000
b11000011000110101000110 #
b11000011000110101000110 /
b10000 :
b11000011000110101000110 4
1%
#1490000
0%
#1495000
b11001100111000100100111 #
b11001100111000100100111 /
b10001 :
b11001100111000100100111 4
1%
#1500000
0%
#1505000
b11100110010100010010100 #
b11100110010100010010100 /
b10010 :
b11100110010100010010100 4
1%
#1510000
0%
#1515000
b11011110011111011001110 #
b11011110011111011001110 /
b10011 :
b11011110011111011001110 4
1%
#1520000
0%
#1525000
b1101111001111101100111 #
b1101111001111101100111 /
b10100 :
b1101111001111101100111 4
1%
#1530000
0%
#1535000
b100011000101000110111 #
b100011000101000110111 /
b10101 :
b1111111111111111111111111111111111111111111111111111111111111111 2
b100100010110101000111000 4
1%
#1540000
0%
#1545000
b11111100101111110100000 #
b11111100101111110100000 /
b10 ;
b10110 :
b0 2
b11111100101111110100000 4
1%
#1550000
0%
#1555000
b1111110010111111010000 #
b1111110010111111010000 /
16
07
08
b0 ;
1$
b10 9
b10111 :
b1111110010111111010000 4
1%
#1560000
0%
#1565000
06
15
0$
b0 9
b1 ;
1+
b11010111011011000110010 )
b10000111111101111001100 (
b10000111111101111001100 1
b10000100111001110010100 '
b1000010011011001100111 &
b1000010011011001100111 0
1%
#1570000
0%
#1575000
b0 #
b0 /
17
18
05
b1 9
b0 :
b0 4
1%
#1580000
0%
#1585000
b1000011111110111100110 #
b1000011111110111100110 /
b1 :
b1000011111110111100110 4
0+
1%
#1590000
0%
#1595000
b1100101111110011011001 #
b1100101111110011011001 /
b10 :
b1100101111110011011001 4
1%
#1600000
0%
#1605000
b11110110110110001010011 #
b11110110110110001010011 /
b11 :
b11110110110110001010011 4
1%
#1610000
0%
#1615000
b11111011010011000101010 #
b11111011010011000101010 /
b100 :
b11111011010011000101010 4
1%
#1620000
0%
#1625000
b1111101101001100010101 #
b1111101101001100010101 /
b101 :
b1111101101001100010101 4
1%
#1630000
0%
#1635000
b10111011101110000 #
b10111011101110000 /
b110 :
b1111111111111111111111111111111111111111111111111111111111111111 2
b100000010101011101110001 4
1%
#1640000
0%
#1645000
b1000101011100110011110 #
b1000101011100110011110 /
b111 :
b101000101001100110011111 4
1%
#1650000
0%
#1655000
b100010101110011001111 #
b100010101110011001111 /
b1000 :
b100100010011110011010000 4
1%
#1660000
0%
#1665000
b10010001001111001101000 #
b10010001001111001101000 /
b1001 :
b0 2
b10010001001111001101000 4
1%
#1670000
0%
#1675000
b10001100100110100011010 #
b10001100100110100011010 /
b1010 :
b10001100100110100011010 4
1%
#1680000
0%
#1685000
b10001010010010001110011 #
b10001010010010001110011 /
b1011 :
b10001010010010001110011 4
1%
#1690000
0%
#1695000
b11000101000001000111010 #
b11000101000001000111010 /
b1100 :
b11000101000001000111010 4
1%
#1700000
0%
#1705000
b10100110011111100000011 #
b10100110011111100000011 /
b1101 :
b10100110011111100000011 4
1%
#1710000
0%
#1715000
b10111010110101100111 #
b10111010110101100111 /
b1110 :
b1111111111111111111111111111111111111111111111111111111111111111 2
b100010111000110101101000 4
1%
#1720000
0%
#1725000
b10001011100011010110100 #
b10001011100011010110100 /
b1111 :
b0 2
b10001011100011010110100 4
1%
#1730000
0%
#1735000
b1000101110001101011010 #
b1000101110001101011010 /
b10000 :
b1000101110001101011010 4
1%
#1740000
0%
#1745000
b1100110110111110010011 #
b1100110110111110010011 /
b10001 :
b1100110110111110010011 4
1%
#1750000
0%
#1755000
b10110011010011111001010 #
b10110011010011111001010 /
b10010 :
b10110011010011111001010 4
1%
#1760000
0%
#1765000
b1011001101001111100101 #
b1011001101001111100101 /
b10011 :
b1011001101001111100101 4
1%
#1770000
0%
#1775000
b10101100101100111110011 #
b10101100101100111110011 /
b10100 :
b10101100101100111110011 4
1%
#1780000
0%
#1785000
b11010110001110011111010 #
b11010110001110011111010 /
b10101 :
b11010110001110011111010 4
1%
#1790000
0%
#1795000
b10101111000110001100011 #
b10101111000110001100011 /
b10 ;
b10110 :
b10101111000110001100011 4
1%
#1800000
0%
#1805000
16
b11010111011011000110010 #
b11010111011011000110010 /
b0 ;
07
08
b10111 :
1$
b10 9
b11010111011011000110010 4
1%
#1810000
0%
#1815000
06
15
0$
b0 9
b1 ;
1+
b10000011011011111011 )
b11101100100110111011101 (
b11101100100110111011101 1
b10011011111111010100000 '
b10111011000010101011100 &
b10111011000010101011100 0
1%
#1820000
0%
#1825000
b0 #
b0 /
17
18
05
b0 :
b1 9
b0 4
1%
#1830000
0%
#1835000
b1 :
0+
1%
#1840000
0%
#1845000
b10 :
1%
#1850000
0%
#1855000
b11110110001011011101111 #
b11110110001011011101111 /
b11 :
b11110110001011011101111 4
1%
#1860000
0%
#1865000
b11110001011001001100110 #
b11110001011001001100110 /
b100 :
b11110001011001001100110 4
1%
#1870000
0%
#1875000
b1101111001000000100001 #
b1101111001000000100001 /
b101 :
b1111111111111111111111111111111111111111111111111111111111111111 2
b101101110111000000100010 4
1%
#1880000
0%
#1885000
b10110111011100000010001 #
b10110111011100000010001 /
b110 :
b0 2
b10110111011100000010001 4
1%
#1890000
0%
#1895000
b11010010000001011110111 #
b11010010000001011110111 /
b111 :
b11010010000001011110111 4
1%
#1900000
0%
#1905000
b11101000111000101111100 #
b11101000111000101111100 /
b1000 :
b11101000111000101111100 4
1%
#1910000
0%
#1915000
b1101010110111110101100 #
b1101010110111110101100 /
b1001 :
b1111111111111111111111111111111111111111111111111111111111111111 2
b101101010100111110101101 4
1%
#1920000
0%
#1925000
b110101011011111010110 #
b110101011011111010110 /
b1010 :
b100110101001011111010111 4
1%
#1930000
0%
#1935000
b10001001001011011001 #
b10001001001011011001 /
b1011 :
b100010000111001011011010 4
1%
#1940000
0%
#1945000
b10001000011100101101101 #
b10001000011100101101101 /
b1100 :
b0 2
b10001000011100101101101 4
1%
#1950000
0%
#1955000
b11000100000110010110111 #
b11000100000110010110111 /
b1101 :
b11000100000110010110111 4
1%
#1960000
0%
#1965000
b11100001111011001011100 #
b11100001111011001011100 /
b1110 :
b11100001111011001011100 4
1%
#1970000
0%
#1975000
b1110000111101100101110 #
b1110000111101100101110 /
b1111 :
b1110000111101100101110 4
1%
#1980000
0%
#1985000
b101110111010010000101 #
b101110111010010000101 /
b10000 :
b1111111111111111111111111111111111111111111111111111111111111111 2
b100101110101010010000110 4
1%
#1990000
0%
#1995000
b10001101110000100110001 #
b10001101110000100110001 /
b10001 :
b110001101100000100110010 4
1%
#2000000
0%
#2005000
b11000110110000010011001 #
b11000110110000010011001 /
b10010 :
b0 2
b11000110110000010011001 4
1%
#2010000
0%
#2015000
b11011001101011100111011 #
b11011001101011100111011 /
b10011 :
b11011001101011100111011 4
1%
#2020000
0%
#2025000
b11100011001001010001100 #
b11100011001001010001100 /
b10100 :
b11100011001001010001100 4
1%
#2030000
0%
#2035000
b1101000000000000110100 #
b1101000000000000110100 /
b10101 :
b1111111111111111111111111111111111111111111111111111111111111111 2
b101100111110000000110101 4
1%
#2040000
0%
#2045000
b110100000000000011010 #
b110100000000000011010 /
b10 ;
b10110 :
b100110011110000000011011 4
1%
#2050000
0%
#2055000
b10000011011011111011 #
b10000011011011111011 /
16
07
08
b0 ;
1$
b10 9
b10111 :
b100010000001011011111100 4
1%
#2060000
0%
#2065000
06
15
0$
b0 9
b1 ;
1+
b1001100110100001011011 )
b11101011111001110110011 (
b11101011111001110110011 1
b100111010011101100011 '
b10110011110110010111001 &
b10110011110110010111001 0
1%
#2070000
0%
#2075000
b0 #
b0 /
17
18
05
b1 9
b0 :
b0 2
b0 4
1%
#2080000
0%
#2085000
b11110101110100111011010 #
b11110101110100111011010 /
b1 :
b11110101110100111011010 4
0+
1%
#2090000
0%
#2095000
b1111010111010011101101 #
b1111010111010011101101 /
b10 :
b1111010111010011101101 4
1%
#2100000
0%
#2105000
b10111101010101001110111 #
b10111101010101001110111 /
b11 :
b10111101010101001110111 4
1%
#2110000
0%
#2115000
b11010100100111100010101 #
b11010100100111100010101 /
b100 :
b11010100100111100010101 4
1%
#2120000
0%
#2125000
b11100000010000101100100 #
b11100000010000101100100 /
b101 :
b11100000010000101100100 4
1%
#2130000
0%
#2135000
b1100110001101010001011 #
b1100110001101010001011 /
b110 :
b1111111111111111111111111111111111111111111111111111111111111111 2
b101100101111101010001100 4
1%
#2140000
0%
#2145000
b10110010111110101000110 #
b10110010111110101000110 /
b111 :
b0 2
b10110010111110101000110 4
1%
#2150000
0%
#2155000
b1001111100100001111100 #
b1001111100100001111100 /
b1000 :
b1111111111111111111111111111111111111111111111111111111111111111 2
b101001111010100001111101 4
1%
#2160000
0%
#2165000
b100111110010000111110 #
b100111110010000111110 /
b1001 :
b100100111100010000111111 4
1%
#2170000
0%
#2175000
b10011111001000011111 #
b10011111001000011111 /
b1010 :
b100010011101001000100000 4
1%
#2180000
0%
#2185000
b1111111111001011101001 #
b1111111111001011101001 /
b1011 :
b101111111101001011101010 4
1%
#2190000
0%
#2195000
b10110101111001101001110 #
b10110101111001101001110 /
b1100 :
b110110101101001101001111 4
1%
#2200000
0%
#2205000
b1011010111100110100111 #
b1011010111100110100111 /
b1101 :
b101011010101100110101000 4
1%
#2210000
0%
#2215000
b10100011011011010101101 #
b10100011011011010101101 /
b1110 :
b110100011001011010101110 4
1%
#2220000
0%
#2225000
b11000111101010100110000 #
b11000111101010100110000 /
b1111 :
b111000111011010100110001 4
1%
#2230000
0%
#2235000
b1011001111010001110001 #
b1011001111010001110001 /
b10000 :
b101011001101010001110010 4
1%
#2240000
0%
#2245000
b10100010111010000010010 #
b10100010111010000010010 /
b10001 :
b110100010101010000010011 4
1%
#2250000
0%
#2255000
b1010001011101000001001 #
b1010001011101000001001 /
b10010 :
b101010001001101000001010 4
1%
#2260000
0%
#2265000
b10101000100110100000101 #
b10101000100110100000101 /
b10011 :
b0 2
b10101000100110100000101 4
1%
#2270000
0%
#2275000
b11001010010000001011100 #
b11001010010000001011100 /
b10100 :
b11001010010000001011100 4
1%
#2280000
0%
#2285000
b1011011001101000000111 #
b1011011001101000000111 /
b10101 :
b1111111111111111111111111111111111111111111111111111111111111111 2
b101011010111101000001000 4
1%
#2290000
0%
#2295000
b10101101011110100000100 #
b10101101011110100000100 /
b10 ;
b10110 :
b0 2
b10101101011110100000100 4
1%
#2300000
0%
#2305000
16
b1001100110100001011011 #
b1001100110100001011011 /
b0 ;
07
08
b10111 :
1$
b10 9
b1111111111111111111111111111111111111111111111111111111111111111 2
b101001100100100001011100 4
1%
#2310000
0%
