algorithms_sv/src/kyber_reduction/kyber_tb.vcd
$date
	Sat Jun 21 13:30:09 2025
$end
$version
	Icarus Verilog
$end
$timescale
	1s
$end
$scope module kyber_tb $end
$var wire 1 ! indata_m_bl_i $end
$var wire 64 " indata_m_i [63:0] $end
$var wire 64 # outdata_r_o [63:0] $end
$var wire 1 $ finish_o $end
$var reg 1 % clk_i $end
$var reg 64 & indata_x [63:0] $end
$var reg 1 ' rst_ni $end
$var reg 1 ( start_i $end
$var integer 32 ) NUM_DATA [31:0] $end
$scope module uut $end
$var wire 1 % clk_i $end
$var wire 12 * m_i [11:0] $end
$var wire 1 ' rst_ni $end
$var wire 1 ( start_i $end
$var wire 1 $ valid_o $end
$var wire 24 + x_delayed1 [23:0] $end
$var wire 24 , x_delayed2 [23:0] $end
$var wire 24 - x_delayed3 [23:0] $end
$var wire 24 . x_i [23:0] $end
$var wire 24 / result_o [23:0] $end
$var parameter 32 0 NUM_RED $end
$scope begin genblk1[0] $end
$var parameter 2 1 i $end
$scope module uut $end
$var wire 64 2 m_i [63:0] $end
$var wire 64 3 x_i [63:0] $end
$var wire 64 4 tmp [63:0] $end
$var wire 64 5 result_o [63:0] $end
$upscope $end
$upscope $end
$scope begin genblk1[1] $end
$var parameter 2 6 i $end
$scope module uut $end
$var wire 64 7 m_i [63:0] $end
$var wire 64 8 x_i [63:0] $end
$var wire 64 9 tmp [63:0] $end
$var wire 64 : result_o [63:0] $end
$upscope $end
$upscope $end
$scope begin genblk1[2] $end
$var parameter 3 ; i $end
$scope module uut $end
$var wire 64 < m_i [63:0] $end
$var wire 64 = x_i [63:0] $end
$var wire 64 > tmp [63:0] $end
$var wire 64 ? result_o [63:0] $end
$upscope $end
$upscope $end
$upscope $end
$scope begin $ivl_for_loop0 $end
$var integer 32 @ i [31:0] $end
$upscope $end
$scope begin $ivl_for_loop1 $end
$var integer 32 A i [31:0] $end
$upscope $end
$scope begin $unm_blk_8 $end
$var integer 32 B fp [31:0] $end
$upscope $end
$upscope $end
$enddefinitions $end
$comment Show the parameter values. $end
$dumpall
b10 ;
b1 6
b0 1
b11 0
$end
#0
$dumpvars
b10000000000000000000000000000011 B
bx A
bx @
bx ?
bx >
b0xxxxxxxxxxxxxxxxxxxxxxxx =
b110100000001 <
bx :
bx 9
b0xxxxxxxxxxxxxxxxxxxxxxxx 8
b110100000001 7
bx 5
bx 4
b0xxxxxxxxxxxxxxxxxxxxxxxx 3
b110100000001 2
bx /
bx .
bx -
bx ,
bx +
b110100000001 *
b1000000 )
0(
1'
bx &
0%
x$
b0xxxxxxxxxxxxxxxxxxxxxxxx #
b110100000001 "
0!
$end
#5
1%
#10
0%
#15
1%
#20
0%
b0 @
#25
0$
1%
#30
b100101101011011010000 .
0%
b1 @
1(
b100101101011011010000 &
#35
b1011010001101011 5
b1100000101101100 4
b100101101011011010000 +
b100101101011011010000 3
1%
#40
b101000100101111100101 .
0%
b10 @
b101000100101111100101 &
#45
b101101011110 :
b1100001011111 9
b1011110101100100 5
b1100101001100101 4
b1011010001101011 ,
b1011010001101011 8
b101000100101111100101 +
b101000100101111100101 3
1%
#50
b1111111011110000000100 .
0%
b11 @
b1111111011110000000100 &
#55
b101101011110 #
b101101011110 /
b101101011110 ?
b101101011110 >
b1010001010111 :
b100100010101001010 5
b10000101011000 9
b100101001001001011 4
1$
b101101011110 -
b101101011110 =
b1011110101100100 ,
b1011110101100100 8
b1111111011110000000100 +
b1111111011110000000100 3
1%
#56
b0 A
#60
b1110100010010000011011 .
0%
b100 @
b1110100010010000011011 &
#65
b11101010110 #
b11101010110 /
b11101010110 ?
b1011000011111 :
b100000001011001010 5
b11101010110 >
b10001100100000 9
b100000111111001011 4
b1010001010111 -
b1010001010111 =
b100100010101001010 ,
b100100010101001010 8
b1110100010010000011011 +
b1110100010010000011011 3
1%
#66
b1 A
#70
b10010110011110001011 .
0%
b101 @
b10010110011110001011 &
#75
b100100011110 #
b100100011110 /
b100100011110 ?
b11110100011 :
b101110011011001 5
b100100011110 >
b1010010100100 9
b110100111011010 4
b1011000011111 -
b1011000011111 =
b100000001011001010 ,
b100000001011001010 8
b10010110011110001011 +
b10010110011110001011 3
1%
#76
b10 A
#80
b11101110111100101111 .
0%
b110 @
b11101110111100101111 &
#85
b11110100011 #
b11110100011 /
b11110100011 ?
b111011010011 :
b1001110000010101 5
b11110100011 >
b1101111010100 9
b1010100100010110 4
b11110100011 -
b11110100011 =
b101110011011001 ,
b101110011011001 8
b11101110111100101111 +
b11101110111100101111 3
1%
#86
b11 A
#90
b1110100110101111100 .
0%
b111 @
b1110100110101111100 &
#95
b111010010 #
b111010010 /
b111010010 ?
b110100001010 :
b100101011110010 5
b111011010011 >
b1101000001011 9
b101011111110011 4
b111011010011 -
b111011010011 =
b1001110000010101 ,
b1001110000010101 8
b1110100110101111100 +
b1110100110101111100 3
1%
#96
b100 A
#100
b10001110000001100000 .
0%
b1000 @
b10001110000001100000 &
#105
b1001 #
b1001 /
b1001 ?
b100111101101 :
b101011110111000 5
b110100001010 >
b1011011101110 9
b110010010111001 4
b110100001010 -
b110100001010 =
b100101011110010 ,
b100101011110010 8
b10001110000001100000 +
b10001110000001100000 3
1%
#106
b101 A
#110
b100011001000101110101100 .
0%
b1001 @
b100011001000101110101100 &
#115
b100111101101 #
b100111101101 /
b100111101101 ?
b100110110010 :
b1001110101100111110 5
b100111101101 >
b1011010110011 9
b1001111100000111111 4
b100111101101 -
b100111101101 =
b101011110111000 ,
b101011110111000 8
b100011001000101110101100 +
b100011001000101110101100 3
1%
#116
b110 A
#120
b1101100100111111001110 .
0%
b1010 @
b1101100100111111001110 &
#125
b100110110010 #
b100110110010 /
b100110110010 ?
b11111011100010 :
b11111000011000111 5
b100110110010 >
b100101111100011 9
b11111110111001000 4
b100110110010 -
b100110110010 =
b1001110101100111110 ,
b1001110101100111110 8
b1101100100111111001110 +
b1101100100111111001110 3
1%
#126
b111 A
#130
b11100101011100000100 .
0%
b1011 @
b11100101011100000100 &
#135
b101011011110 #
b101011011110 /
b101011011110 ?
b1110010100011 :
b1000010111110100 5
b1011111011111 >
b10100110100100 9
b1001001011110101 4
b11111011100010 -
b11111011100010 =
b11111000011000111 ,
b11111000011000111 8
b11100101011100000100 +
b11100101011100000100 3
1%
#136
b1000 A
#140
b10100111110011110100 .
0%
b1100 @
b10100111110011110100 &
#145
b1010100001 #
b1010100001 /
b1010100001 ?
b1111101010 :
b110111000101110 5
b111110100010 >
b1000011101011 9
b111101100101111 4
b1110010100011 -
b1110010100011 =
b1000010111110100 ,
b1000010111110100 8
b10100111110011110100 +
b10100111110011110100 3
1%
#146
b1001 A
#150
b111000010011001010010 .
0%
b1101 @
b111000010011001010010 &
#155
b1111101010 #
b1111101010 /
b1111101010 ?
b1001100100111 :
b1111100100111011 5
b1111101010 >
b10000000101000 9
b10000011000111100 4
b1111101010 -
b1111101010 =
b110111000101110 ,
b110111000101110 8
b111000010011001010010 +
b111000010011001010010 3
1%
#156
b1010 A
#160
b10110010101000000111110 .
0%
b1110 @
b10110010101000000111110 &
#165
b11000100110 #
b11000100110 /
b11000100110 ?
b1110000101010 :
b110001110010011101 5
b11000100110 >
b10100100101011 9
b110010100110011110 4
b1001100100111 -
b1001100100111 =
b1111100100111011 ,
b1111100100111011 8
b10110010101000000111110 +
b10110010101000000111110 3
1%
#166
b1011 A
#170
b100101011111011111000 .
0%
b1111 @
b100101011111011111000 &
#175
b1000101000 #
b1000101000 /
b1000101000 ?
b1110101100010 :
b1011011010010101 5
b111100101001 >
b10101001100011 9
b1100001110010110 4
b1110000101010 -
b1110000101010 =
b110001110010011101 ,
b110001110010011101 8
b100101011111011111000 +
b100101011111011111000 3
1%
#176
b1100 A
#180
b100111100100110101110101 .
0%
b10000 @
b100111100100110101110101 &
#185
b1101100000 #
b1101100000 /
b1101100000 ?
b110110001000 :
b1011000111010110110 5
b1000001100001 >
b1101010001001 9
b1011001101110110111 4
b1110101100010 -
b1110101100010 =
b1011011010010101 ,
b1011011010010101 8
b100111100100110101110101 +
b100111100100110101110101 3
1%
#186
b1101 A
#190
b10001000100011100111110 .
0%
b10001 @
b10001000100011100111110 &
#195
b10000111 #
b10000111 /
b10000111 ?
b11100101001101 :
b100110010100101101 5
b110110001000 >
b100011001001110 9
b100111001000101110 4
b110110001000 -
b110110001000 =
b1011000111010110110 ,
b1011000111010110110 8
b10001000100011100111110 +
b10001000100011100111110 3
1%
#196
b1110 A
#200
b100100111111011011000 .
0%
b10010 @
b100100111111011011000 &
#205
b10101001001 #
b10101001001 /
b10101001001 ?
b1110000000000 :
b1011011101111010 5
b1001001001010 >
b10100100000001 9
b1100010001111011 4
b11100101001101 -
b11100101001101 =
b100110010100101101 ,
b100110010100101101 8
b100100111111011011000 +
b100100111111011011000 3
1%
#206
b1111 A
#210
b1011011100111110100000 .
0%
b10011 @
b1011011100111110100000 &
#215
b111111110 #
b111111110 /
b111111110 ?
b111001101101 :
b11010101100111011 5
b111011111111 >
b1101101101110 9
b11011100000111100 4
b1110000000000 -
b1110000000000 =
b1011011101111010 ,
b1011011101111010 8
b1011011100111110100000 +
b1011011100111110100000 3
1%
#216
b10000 A
#220
b111010010101000011100 .
0%
b10100 @
b111010010101000011100 &
#225
b101101100 #
b101101100 /
b101101100 ?
b1100000011100 :
b10000010111110010 5
b111001101101 >
b10010100011101 9
b10001001011110011 4
b111001101101 -
b111001101101 =
b11010101100111011 ,
b11010101100111011 8
b111010010101000011100 +
b111010010101000011100 3
1%
#226
b10001 A
#230
b100000010011010000101 .
0%
b10101 @
b100000010011010000101 &
#235
b101100011011 #
b101100011011 /
b101100011011 ?
b111011110 :
b1000111001010010 5
b101100011011 >
b111011011111 9
b1001101101010011 4
b1100000011100 -
b1100000011100 =
b10000010111110010 ,
b10000010111110010 8
b100000010011010000101 +
b100000010011010000101 3
1%
#236
b10010 A
#240
b11001010111110110011000 .
0%
b10110 @
b11001010111110110011000 &
#245
b111011110 #
b111011110 /
b111011110 ?
b110001001000 :
b111001101100010001 5
b111011110 >
b1100101001001 9
b111010100000010010 4
b111011110 -
b111011110 =
b1000111001010010 ,
b1000111001010010 8
b11001010111110110011000 +
b11001010111110110011000 3
1%
#246
b10011 A
#250
b1010000111001010100100 .
0%
b10111 @
b1010000111001010100100 &
#255
b110001001000 #
b110001001000 /
b110001001000 ?
b10011011001101 :
b10110111110100100 5
b110001001000 >
b11001111001110 9
b10111110010100101 4
b110001001000 -
b110001001000 =
b111001101100010001 ,
b111001101100010001 8
b1010000111001010100100 +
b1010000111001010100100 3
1%
#256
b10100 A
#260
b11001101000110111110011 .
0%
b11000 @
b11001101000110111110011 &
#265
b110011001011 #
b110011001011 /
b110011001011 ?
b1110110001010 :
b111001101001010111 5
b110011001011 >
b10101010001011 9
b111010011101011000 4
b10011011001101 -
b10011011001101 =
b10110111110100100 ,
b10110111110100100 8
b11001101000110111110011 +
b11001101000110111110011 3
1%
#266
b10101 A
#270
b10110010010001001101100 .
0%
b11001 @
b10110010010001001101100 &
#275
b1110001000 #
b1110001000 /
b1110001000 ?
b10011000010011 :
b110001010111001110 5
b1000010001001 >
b11001100010100 9
b110010001011001111 4
b1110110001010 -
b1110110001010 =
b111001101001010111 ,
b111001101001010111 8
b10110010010001001101100 +
b10110010010001001101100 3
1%
#276
b10110 A
#280
b100000001110000001010 .
0%
b11010 @
b100000001110000001010 &
#285
b110000010001 #
b110000010001 /
b110000010001 ?
b1011010010011 :
b1001000011011000 5
b110000010001 >
b10001110010100 9
b1001110111011001 4
b10011000010011 -
b10011000010011 =
b110001010111001110 ,
b110001010111001110 8
b100000001110000001010 +
b100000001110000001010 3
1%
#286
b10111 A
#290
b10011000100111111011100 .
0%
b11011 @
b10011000100111111011100 &
#295
b100110010010 #
b100110010010 /
b100110010010 ?
b111001101 :
b101011010100110011 5
b100110010010 >
b111011001110 9
b101100001000110100 4
b1011010010011 -
b1011010010011 =
b1001000011011000 ,
b1001000011011000 8
b10011000100111111011100 +
b10011000100111111011100 3
1%
#296
b11000 A
#300
b1001000001000000111000 .
0%
b11100 @
b1001000001000000111000 &
#305
b111001101 #
b111001101 /
b111001101 ?
b1111000000000 :
b10011011110001010 5
b111001101 >
b10101100000001 9
b10100010010001011 4
b111001101 -
b111001101 =
b101011010100110011 ,
b101011010100110011 8
b1001000001000000111000 +
b1001000001000000111000 3
1%
#306
b11001 A
#310
b111000000011101110000 .
0%
b11101 @
b111000000011101110000 &
#315
b1111111110 #
b1111111110 /
b1111111110 ?
b110001110011 :
b1111010001011011 5
b1000011111111 >
b1100101110100 9
b10000000101011100 4
b1111000000000 -
b1111000000000 =
b10011011110001010 ,
b10011011110001010 8
b111000000011101110000 +
b111000000011101110000 3
1%
#316
b11010 A
#320
b1000100001000100011 .
0%
b11110 @
b1000100001000100011 &
#325
b110001110011 #
b110001110011 /
b110001110011 ?
b1011101001010 :
b10010011010010 5
b110001110011 >
b10010001001011 9
b11000111010011 4
b110001110011 -
b110001110011 =
b1111010001011011 ,
b1111010001011011 8
b1000100001000100011 +
b1000100001000100011 3
1%
#326
b11011 A
#330
b1111000001011100001010 .
0%
b11111 @
b1111000001011100001010 &
#335
b101001001001 #
b101001001001 /
b101001001001 ?
b101011010000 :
b100001010010010100 5
b101001001001 >
b101011010000 9
b100010000110010101 4
b1011101001010 -
b1011101001010 =
b10010011010010 ,
b10010011010010 8
b1111000001011100001010 +
b1111000001011100001010 3
1%
#336
b11100 A
#340
b100000000100001100000000 .
0%
b100000 @
b100000000100001100000000 &
#345
b101011010000 #
b101011010000 /
b101011010000 ?
b110001101100 :
b1000111100001111011 5
b101011010000 >
b1100101101101 9
b1001000010101111100 4
b101011010000 -
b101011010000 =
b100001010010010100 ,
b100001010010010100 8
b100000000100001100000000 +
b100000000100001100000000 3
1%
#346
b11101 A
#350
b101010101011100110011 .
0%
b100001 @
b101010101011100110011 &
#355
b110001101100 #
b110001101100 /
b110001101100 ?
b11010000100111 :
b1100010010011110 5
b110001101100 >
b100000100101000 9
b1101000110011111 4
b110001101100 -
b110001101100 =
b1000111100001111011 ,
b1000111100001111011 8
b101010101011100110011 +
b101010101011100110011 3
1%
#356
b11110 A
#360
b10110101101110000011010 .
0%
b100010 @
b10110101101110000011010 &
#365
b100011 #
b100011 /
b100011 ?
b111010010000 :
b110011110001011101 5
b110100100100 >
b1101110010001 9
b110100100101011110 4
b11010000100111 -
b11010000100111 =
b1100010010011110 ,
b1100010010011110 8
b10110101101110000011010 +
b10110101101110000011010 3
1%
#366
b11111 A
#370
b11010100111001011110 .
0%
b100011 @
b11010100111001011110 &
#375
b110001111 #
b110001111 /
b110001111 ?
b10001100100000 :
b1000000101100010 5
b111010010000 >
b11000000100001 9
b1000111001100011 4
b111010010000 -
b111010010000 =
b110011110001011101 ,
b110011110001011101 8
b11010100111001011110 +
b11010100111001011110 3
1%
#376
b100000 A
#380
b10011010111011110000 .
0%
b100100 @
b10011010111011110000 &
#385
b100100011110 #
b100100011110 /
b100100011110 ?
b110001011001 :
b110001100111001 5
b100100011110 >
b110001011001 9
b111000000111010 4
b10001100100000 -
b10001100100000 =
b1000000101100010 ,
b1000000101100010 8
b10011010111011110000 +
b10011010111011110000 3
1%
#386
b100001 A
#390
b11000110010110100011010 .
0%
b100101 @
b11000110010110100011010 &
#395
b110001011001 #
b110001011001 /
b110001011001 ?
b100000110010 :
b110111100110111110 5
b110001011001 >
b1010100110011 9
b111000011010111111 4
b110001011001 -
b110001011001 =
b110001100111001 ,
b110001100111001 8
b11000110010110100011010 +
b11000110010110100011010 3
1%
#396
b100010 A
#400
b10000010110010010111000 .
0%
b100110 @
b10000010110010010111000 &
#405
b100000110010 #
b100000110010 /
b100000110010 ?
b10110001111101 :
b100100110111011110 5
b100000110010 >
b11100101111110 9
b100101101011011111 4
b100000110010 -
b100000110010 =
b110111100110111110 ,
b110111100110111110 8
b10000010110010010111000 +
b10000010110010010111000 3
1%
#406
b100011 A
#410
b100000011000001011110010 .
0%
b100111 @
b100000011000001011110010 &
#415
b10101111010 #
b10101111010 /
b10101111010 ?
b1111010110011 :
b1001000000001010101 5
b1001001111011 >
b10101110110100 9
b1001000110101010110 4
b10110001111101 -
b10110001111101 =
b100100110111011110 ,
b100100110111011110 8
b100000011000001011110010 +
b100000011000001011110010 3
1%
#416
b100100 A
#420
b111110110000110100000 .
0%
b101000 @
b111110110000110100000 &
#425
b10010110001 #
b10010110001 /
b10010110001 ?
b10000111111111 :
b10001101101001100 5
b1000110110010 >
b10111100000000 9
b10010100001001101 4
b1111010110011 -
b1111010110011 =
b1001000000001010101 ,
b1001000000001010101 8
b111110110000110100000 +
b111110110000110100000 3
1%
#426
b100101 A
#430
b10101001010110010000010 .
0%
b101001 @
b10101001010110010000010 &
#435
b11111111101 #
b11111111101 /
b11111111101 ?
b101000110111 :
b101111111000111010 5
b11111111101 >
b1011100111000 9
b110000101100111011 4
b10000111111111 -
b10000111111111 =
b10001101101001100 ,
b10001101101001100 8
b10101001010110010000010 +
b10101001010110010000010 3
1%
#436
b100110 A
#440
b1000010010100111010 .
0%
b101010 @
b1000010010100111010 &
#445
b101000110111 #
b101000110111 /
b101000110111 ?
b11001100000011 :
b10000111101011 5
b101000110111 >
b100000000000100 9
b10111011101100 4
b101000110111 -
b101000110111 =
b101111111000111010 ,
b101111111000111010 8
b1000010010100111010 +
b1000010010100111010 3
1%
#446
b100111 A
#450
b1101010111010100101110 .
0%
b101011 @
b1101010111010100101110 &
#455
b110000000000 #
b110000000000 /
b110000000000 ?
b11111101001 :
b11110011000110111 5
b110000000000 >
b11111101001 9
b11111001100111000 4
b11001100000011 -
b11001100000011 =
b10000111101011 ,
b10000111101011 8
b1101010111010100101110 +
b1101010111010100101110 3
1%
#456
b101000 A
#460
b111011110111110000000 .
0%
b101100 @
b111011110111110000000 &
#465
b11111101001 #
b11111101001 /
b11111101001 ?
b1111100010100 :
b10010001001001001 5
b11111101001 >
b10110000010101 9
b10010111101001010 4
b11111101001 -
b11111101001 =
b11110011000110111 ,
b11110011000110111 8
b111011110111110000000 +
b111011110111110000000 3
1%
#466
b101001 A
#470
b1000010011011101100000 .
0%
b101101 @
b1000010011011101100000 &
#475
b10100010010 #
b10100010010 /
b10100010010 ?
b10000110011 :
b10010100111101001 5
b1001000010011 >
b1000100110100 9
b10011011011101010 4
b1111100010100 -
b1111100010100 =
b10010001001001001 ,
b10010001001001001 8
b1000010011011101100000 +
b1000010011011101100000 3
1%
#476
b101010 A
#480
b10110011001000100111 .
0%
b101110 @
b10110011001000100111 &
#485
b10000110011 #
b10000110011 /
b10000110011 ?
b101111010011 :
b110000001010010 5
b10000110011 >
b1100011010100 9
b110110101010011 4
b10000110011 -
b10000110011 =
b10010100111101001 ,
b10010100111101001 8
b10110011001000100111 +
b10110011001000100111 3
1%
#486
b101011 A
#490
b110010001101000000000 .
0%
b101111 @
b110010001101000000000 &
#495
b101111010011 #
b101111010011 /
b101111010011 ?
b10101001011 :
b1101111100100011 5
b101111010011 >
b1001001001100 9
b1110110000100100 4
b101111010011 -
b101111010011 =
b110000001010010 ,
b110000001010010 8
b110010001101000000000 +
b110010001101000000000 3
1%
#496
b101100 A
#500
b10001011011001110100000 .
0%
b110000 @
b10001011011001110100000 &
#505
b10101001011 #
b10101001011 /
b10101001011 ?
b1110000010100 :
b100111001001110100 5
b10101001011 >
b10100100010101 9
b100111111101110101 4
b10101001011 -
b10101001011 =
b1101111100100011 ,
b1101111100100011 8
b10001011011001110100000 +
b10001011011001110100000 3
1%
#506
b101101 A
#510
b10111011001100010111000 .
0%
b110001 @
b10111011001100010111000 &
#515
b1000010010 #
b1000010010 /
b1000010010 ?
b1110001000110 :
b110100011111000110 5
b111100010011 >
b10100101000111 9
b110101010011000111 4
b1110000010100 -
b1110000010100 =
b100111001001110100 ,
b100111001001110100 8
b10111011001100010111000 +
b10111011001100010111000 3
1%
#516
b101110 A
#520
b1001110111110111001001 .
0%
b110010 @
b1001110111110111001001 &
#525
b1001000100 #
b1001000100 /
b1001000100 ?
b10000110001000 :
b10111000111011100 5
b111101000101 >
b10111010001001 9
b10111111011011101 4
b1110001000110 -
b1110001000110 =
b110100011111000110 ,
b110100011111000110 8
b1001110111110111001001 +
b1001110111110111001001 3
1%
#526
b101111 A
#530
b111000111111011101100 .
0%
b110011 @
b111000111111011101100 &
#535
b11110000110 #
b11110000110 /
b11110000110 ?
b1001011000001 :
b10001000011010000 5
b11110000110 >
b1111111000010 9
b10001110111010001 4
b10000110001000 -
b10000110001000 =
b10111000111011100 ,
b10111000111011100 8
b111000111111011101100 +
b111000111111011101100 3
1%
#536
b110000 A
#540
b10100010011011101000100 .
0%
b110100 @
b10100010011011101000100 &
#545
b10111000000 #
b10111000000 /
b10111000000 ?
b110010111100 :
b101101011000111101 5
b10111000000 >
b110010111100 9
b101110001100111110 4
b1001011000001 -
b1001011000001 =
b10001000011010000 ,
b10001000011010000 8
b10100010011011101000100 +
b10100010011011101000100 3
1%
#546
b110001 A
#550
b100100010001110110000 .
0%
b110101 @
b100100010001110110000 &
#555
b110010111100 #
b110010111100 /
b110010111100 ?
b10010100001000 :
b1001110101010111 5
b110010111100 >
b11001000001001 9
b1010101001011000 4
b110010111100 -
b110010111100 =
b101101011000111101 ,
b101101011000111101 8
b100100010001110110000 +
b100100010001110110000 3
1%
#556
b110010 A
#560
b1010001011010001100100 .
0%
b110110 @
b1010001011010001100100 &
#565
b101100000110 #
b101100000110 /
b101100000110 ?
b111001001100 :
b10111000001011111 5
b101100000110 >
b1101101001101 9
b10111110101100000 4
b10010100001000 -
b10010100001000 =
b1001110101010111 ,
b1001110101010111 8
b1010001011010001100100 +
b1010001011010001100100 3
1%
#566
b110011 A
#570
b1101010100101111011011 .
0%
b110111 @
b1101010100101111011011 &
#575
b101001011 #
b101001011 /
b101001011 ?
b1000101000100 :
b11110001111100111 5
b111001001100 >
b1111001000101 9
b11111000011101000 4
b111001001100 -
b111001001100 =
b10111000001011111 ,
b10111000001011111 8
b1101010100101111011011 +
b1101010100101111011011 3
1%
#576
b110100 A
#580
b11111010010101100100001 .
0%
b111000 @
b11111010010101100100001 &
#585
b10001000011 #
b10001000011 /
b10001000011 ?
b1110011000100 :
b1000101111111010111 5
b10001000011 >
b10100111000101 9
b1000110110011011000 4
b1000101000100 -
b1000101000100 =
b11110001111100111 ,
b11110001111100111 8
b11111010010101100100001 +
b11111010010101100100001 3
1%
#586
b110101 A
#590
b10001000010101100111101 .
0%
b111001 @
b10001000010101100111101 &
#595
b1011000010 #
b1011000010 /
b1011000010 ?
b11010110000101 :
b100110001100101110 5
b111111000011 >
b100001010000110 9
b100111000000101111 4
b1110011000100 -
b1110011000100 =
b1000101111111010111 ,
b1000101111111010111 8
b10001000010101100111101 +
b10001000010101100111101 3
1%
#596
b110110 A
#600
b1000111001100111000000 .
0%
b111010 @
b1000111001100111000000 &
#605
b110000001 #
b110000001 /
b110000001 ?
b1101000000001 :
b10100001100011100 5
b111010000010 >
b10011100000010 9
b10101000000011101 4
b11010110000101 -
b11010110000101 =
b100110001100101110 ,
b100110001100101110 8
b1000111001100111000000 +
b1000111001100111000000 3
1%
#606
b110111 A
#610
b1001100100111000010 .
0%
b111011 @
b1001100100111000010 &
#615
b110100000000 #
b110100000000 /
b110100000000 ?
b101100000100 :
b11011101101000 5
b110100000000 >
b1100000000101 9
b100010001101001 4
b1101000000001 -
b1101000000001 =
b10100001100011100 ,
b10100001100011100 8
b1001100100111000010 +
b1001100100111000010 3
1%
#616
b111000 A
#620
b10001011001000100011010 .
0%
b111100 @
b10001011001000100011010 &
#625
b101100000100 #
b101100000100 /
b101100000100 ?
b1101100100 :
b100110100111110000 5
b101100000100 >
b1000001100101 9
b100111011011110001 4
b101100000100 -
b101100000100 =
b11011101101000 ,
b11011101101000 8
b10001011001000100011010 +
b10001011001000100011010 3
1%
#626
b111001 A
#630
b1100001011101100110010 .
0%
b111101 @
b1100001011101100110010 &
#635
b1101100100 #
b1101100100 /
b1101100100 ?
b10000011000011 :
b11011111010010101 5
b1101100100 >
b10110111000100 9
b11100101110010110 4
b1101100100 -
b1101100100 =
b100110100111110000 ,
b100110100111110000 8
b1100001011101100110010 +
b1100001011101100110010 3
1%
#636
b111010 A
#640
b10100011111000 .
0%
b111110 @
b10100011111000 &
#645
b11011000001 #
b11011000001 /
b11011000001 ?
b1111001110101 :
b111110101 5
b11011000001 >
b10101101110110 9
b111011110110 4
b10000011000011 -
b10000011000011 =
b11011111010010101 ,
b11011111010010101 8
b10100011111000 +
b10100011111000 3
1%
#646
b111011 A
#650
b101010111111011000000 .
0%
b111111 @
b101010111111011000000 &
#655
b10001110011 #
b10001110011 /
b10001110011 ?
b111110101 :
b1101001000101001 5
b1000101110100 >
b111110101 9
b1101111100101010 4
b1111001110101 -
b1111001110101 =
b111110101 ,
b111110101 8
b101010111111011000000 +
b101010111111011000000 3
1%
#656
b111100 A
#660
b1010100001010111000000 .
0%
b1000000 @
b1010100001010111000000 &
#665
b111110101 #
b111110101 /
b111110101 ?
b111100011010 :
b10111001010100000 5
b111110101 >
b1110000011011 9
b10111111110100001 4
b111110101 -
b111110101 =
b1101001000101001 ,
b1101001000101001 8
b1010100001010111000000 +
b1010100001010111000000 3
1%
#666
b111101 A
#670
0%
0(
#675
b1000011001 #
b1000011001 /
b1000011001 ?
b1001110000101 :
b111100011010 >
b10000010000110 9
b111100011010 -
b111100011010 =
b10111001010100000 ,
b10111001010100000 8
1%
#676
b111110 A
#680
0%
#685
b11010000100 #
b11010000100 /
b11010000100 ?
b11010000100 >
b1001110000101 -
b1001110000101 =
1%
#686
b111111 A
#690
0%
#695
0$
1%
#696
b1000000 A
