algorithms_sv/src/dilithium_reduction/dilithium_tb.vcd
$date
	Sat Jun 21 13:02:30 2025
$end
$version
	Icarus Verilog
$end
$timescale
	1s
$end
$scope module dilithium_tb $end
$var wire 64 ! outdata_r_o [63:0] $end
$var wire 1 " indata_m_bl_i $end
$var wire 1 # finish_o $end
$var reg 1 $ clk_i $end
$var reg 64 % indata_m_i [63:0] $end
$var reg 64 & indata_x [63:0] $end
$var reg 1 ' rst_ni $end
$var reg 1 ( start_i $end
$var integer 32 ) NUM_DATA [31:0] $end
$scope module uut $end
$var wire 1 $ clk_i $end
$var wire 64 * m_i [63:0] $end
$var wire 1 ' rst_ni $end
$var wire 1 ( start_i $end
$var wire 1 # valid_o $end
$var wire 64 + x_i [63:0] $end
$var wire 64 , tmp [63:0] $end
$var wire 64 - result_o [63:0] $end
$var parameter 32 . NUM_RED $end
$var reg 1 / finish_delayed $end
$upscope $end
$scope begin $ivl_for_loop0 $end
$var integer 32 0 i [31:0] $end
$upscope $end
$scope begin $ivl_for_loop1 $end
$var integer 32 1 i [31:0] $end
$upscope $end
$scope begin $unm_blk_5 $end
$var integer 32 2 fp [31:0] $end
$upscope $end
$upscope $end
$enddefinitions $end
$comment Show the parameter values. $end
$dumpall
b1 .
$end
#0
$dumpvars
b10000000000000000000000000000011 2
bx 1
bx 0
x/
bx -
bx ,
bx +
b11111111110000000000001 *
b1000000 )
0(
1'
bx &
b11111111110000000000001 %
0$
x#
1"
bx !
$end
#5
0#
0/
1$
#10
0$
#15
1$
#20
0$
b0 0
#25
1$
#30
b10000111111000101010101 !
b10000111111000101010101 -
b110000111101000101010110 ,
0$
b1 0
1(
b101101010000010011000011000001101110111011000 &
b101101010000010011000011000001101110111011000 +
#35
1#
1/
1$
#36
b0 1
#40
b10010001100100011110111 !
b10010001100100011110111 -
b10010001100100011110111 ,
0$
b10 0
b1101001000010101101101011110110001001 &
b1101001000010101101101011110110001001 +
#45
1$
#46
b1 1
#50
b11111011010010100010110 !
b11111011010010100010110 -
b11111011010010100010110 ,
0$
b11 0
b11011001000000101010101101010000110000110100 &
b11011001000000101010101101010000110000110100 +
#55
1$
#56
b10 1
#60
b11111011000010000001101 !
b11111011000010000001101 -
b11111011000010000001101 ,
0$
b100 0
b100111101110010101111001110111000011101011011 &
b100111101110010101111001110111000011101011011 +
#65
1$
#66
b11 1
#70
b110110101011011010100 !
b110110101011011010100 -
b100110110011011011010101 ,
0$
b101 0
b11101100001100010001000010000100010001011001 &
b11101100001100010001000010000100010001011001 +
#75
1$
#76
b100 1
#80
b1111110010111111010000 !
b1111110010111111010000 -
b101111110000111111010001 ,
0$
b110 0
b101111110111000000111111011011111011111011001 &
b101111110111000000111111011011111011111011001 +
#85
1$
#86
b101 1
#90
b11010111011011000110010 !
b11010111011011000110010 -
b11010111011011000110010 ,
0$
b111 0
b10001001111100000101001100011011100010001100 &
b10001001111100000101001100011011100010001100 +
#95
1$
#96
b110 1
#100
b10000011011011111011 !
b10000011011011111011 -
b100010000001011011111100 ,
0$
b1000 0
b111000111111000100001011100001010000110000000 &
b111000111111000100001011100001010000110000000 +
#105
1$
#106
b111 1
#110
b101001100100100001011100 !
b101001100100100001011100 -
b1001001100010100001011101 ,
0$
b1001 0
b1101110011101011101111011100011101010001011 &
b1101110011101011101111011100011101010001011 +
#115
1$
#116
b1000 1
#120
b1001000100100011010110 !
b1001000100100011010110 -
b101001000010100011010111 ,
0$
b1010 0
b100011100000111110110101011011101010110100110 &
b100011100000111110110101011011101010110100110 +
#125
1$
#126
b1001 1
#130
b10100100001000111100001 !
b10100100001000111100001 -
b110100011111000111100010 ,
0$
b1011 0
b10010011110101010110101110100000111001010 &
b10010011110101010110101110100000111001010 +
#135
1$
#136
b1010 1
#140
b10001001110010100010000 !
b10001001110010100010000 -
b10001001110010100010000 ,
0$
b1100 0
b1000110000001010000101101110001111101110100000 &
b1000110000001010000101101110001111101110100000 +
#145
1$
#146
b1011 1
#150
b11001010111101101000111 !
b11001010111101101000111 -
b111001010101101101001000 ,
0$
b1101 0
b10111010110111111011000010100011110000000 &
b10111010110111111011000010100011110000000 +
#155
1$
#156
b1100 1
#160
b10101010011001001101000 !
b10101010011001001101000 -
b110101010001001001101001 ,
0$
b1110 0
b10110000101110010100110101010100111100011000 &
b10110000101110010100110101010100111100011000 +
#165
1$
#166
b1101 1
#170
b10001100001100111100110 !
b10001100001100111100110 -
b10001100001100111100110 ,
0$
b1111 0
b110010110011001100111010010000111001101101010 &
b110010110011001100111010010000111001101101010 +
#175
1$
#176
b1110 1
#180
b10100110011011011010101 !
b10100110011011011010101 -
b110100110001011011010110 ,
0$
b10000 0
b11100101000011110001110011100011111111100010 &
b11100101000011110001110011100011111111100010 +
#185
1$
#186
b1111 1
#190
b10100111100110100001111 !
b10100111100110100001111 -
b110100111010110100010000 ,
0$
b10001 0
b1100110100001100110011000001000000100010000 &
b1100110100001100110011000001000000100010000 +
#195
1$
#196
b10000 1
#200
b1001000001000001011011 !
b1001000001000001011011 -
b101000111111000001011100 ,
0$
b10010 0
b1101000000011111100100010100011111101000101101 &
b1101000000011111100100010100011111101000101101 +
#205
1$
#206
b10001 1
#210
b1011101110110100000111 !
b1011101110110100000111 -
b101011101100110100001000 ,
0$
b10011 0
b10100100001110001000001111010001100100111010 &
b10100100001110001000001111010001100100111010 +
#215
1$
#216
b10010 1
#220
b10010010101000010111101 !
b10010010101000010111101 -
b110010010011000010111110 ,
0$
b10100 0
b100100000001110010101111001111000000011101100 &
b100100000001110010101111001111000000011101100 +
#225
1$
#226
b10011 1
#230
b1111111111111111111111111111111111111111011001000011101111110000 !
b1111111111111111111111111111111111111111011001000011101111110000 -
b1111111111111111111111111111111111111111111001000001101111110001 ,
0$
b10101 0
b1000000110000001001101100010110000110011000000 &
b1000000110000001001101100010110000110011000000 +
#235
1$
#236
b10100 1
#240
b10001001100011101000000 !
b10001001100011101000000 -
b10001001100011101000000 ,
0$
b10110 0
b111011000111000010111001000001111001000111000 &
b111011000111000010111001000001111001000111000 +
#245
1$
#246
b10101 1
#250
b10100101001110011111001 !
b10100101001110011111001 -
b10100101001110011111001 ,
0$
b10111 0
b100001011101101010001100100111101101111111011 &
b100001011101101010001100100111101101111111011 +
#255
1$
#256
b10110 1
#260
b11001101001110011010110 !
b11001101001110011010110 -
b11001101001110011010110 ,
0$
b11000 0
b110001101101110100001011010001111100100 &
b110001101101110100001011010001111100100 +
#265
1$
#266
b10111 1
#270
b10011100100111010110001 !
b10011100100111010110001 -
b110011100010111010110010 ,
0$
b11001 0
b101111101011101000111010100110011000000000 &
b101111101011101000111010100110011000000000 +
#275
1$
#276
b11000 1
#280
b100110010110110011011 !
b100110010110110011011 -
b100110010110110011011 ,
0$
b11010 0
b1100000100111101000010100111011010010001001101 &
b1100000100111101000010100111011010010001001101 +
#285
1$
#286
b11001 1
#290
b10010011100101001010011 !
b10010011100101001010011 -
b110010011010101001010100 ,
0$
b11011 0
b1010110110100101100101100101010011101100011 &
b1010110110100101100101100101010011101100011 +
#295
1$
#296
b11010 1
#300
b1111011111110110110 !
b1111011111110110110 -
b1111011111110110110 ,
0$
b11100 0
b1000000100011001111100101001000101110011010110 &
b1000000100011001111100101001000101110011010110 +
#305
1$
#306
b11011 1
#310
b10001101010010101000011 !
b10001101010010101000011 -
b110001101000010101000100 ,
0$
b11101 0
b11010100010011001011110110011101010101111110 &
b11010100010011001011110110011101010101111110 +
#315
1$
#316
b11100 1
#320
b11100101001101110111001 !
b11100101001101110111001 -
b11100101001101110111001 ,
0$
b11110 0
b10011110100101010110000100100101001101011010 &
b10011110100101010110000100100101001101011010 +
#325
1$
#326
b11101 1
#330
b10111010111100001011100 !
b10111010111100001011100 -
b110111010101100001011101 ,
0$
b11111 0
b101111101110001101010100000111000011110100 &
b101111101110001101010100000111000011110100 +
#335
1$
#336
b11110 1
#340
b100001110011100110001 !
b100001110011100110001 -
b100100001100011100110010 ,
0$
b100000 0
b11111011000001010100100111111110111110110100 &
b11111011000001010100100111111110111110110100 +
#345
1$
#346
b11111 1
#350
b10100111110110101101101 !
b10100111110110101101101 -
b110100111100110101101110 ,
0$
b100001 0
b1010011001010010001111001101011010100101010 &
b1010011001010010001111001101011010100101010 +
#355
1$
#356
b100000 1
#360
b1101111101100010101011 !
b1101111101100010101011 -
b1101111101100010101011 ,
0$
b100010 0
b10011001000001010110100111000011111000100001 &
b10011001000001010110100111000011111000100001 +
#365
1$
#366
b100001 1
#370
b10111001010001000000101 !
b10111001010001000000101 -
b10111001010001000000101 ,
0$
b100011 0
b1000010011110100100100110000011100110011110000 &
b1000010011110100100100110000011100110011110000 +
#375
1$
#376
b100010 1
#380
b1111000111100010110011 !
b1111000111100010110011 -
b1111000111100010110011 ,
0$
b100100 0
b110111011011000011011101100010101001011001000 &
b110111011011000011011101100010101001011001000 +
#385
1$
#386
b100011 1
#390
b11100011010110110111101 !
b11100011010110110111101 -
b11100011010110110111101 ,
0$
b100101 0
b10010001101001100011110110010100011100010010 &
b10010001101001100011110110010100011100010010 +
#395
1$
#396
b100100 1
#400
b11101001101000101101000 !
b11101001101000101101000 -
b11101001101000101101000 ,
0$
b100110 0
b10110011001000100001110011111001101101000101 &
b10110011001000100001110011111001101101000101 +
#405
1$
#406
b100101 1
#410
b10110010011011101100000 !
b10110010011011101100000 -
b110110010001011101100001 ,
0$
b100111 0
b111111100010001001111111110010101001110000 &
b111111100010001001111111110010101001110000 +
#415
1$
#416
b100110 1
#420
b1001110111000100100 !
b1001110111000100100 -
b100001001100111000100101 ,
0$
b101000 0
b10010001011100010011110000001010000011011000 &
b10010001011100010011110000001010000011011000 +
#425
1$
#426
b100111 1
#430
b1100011110111011110000 !
b1100011110111011110000 -
b1100011110111011110000 ,
0$
b101001 0
b110010100010010000111101011100000010010100100 &
b110010100010010000111101011100000010010100100 +
#435
1$
#436
b101000 1
#440
b110111110111111110110 !
b110111110111111110110 -
b100110111100111111110111 ,
0$
b101010 0
b11011111001010100111101011101001110001000000 &
b11011111001010100111101011101001110001000000 +
#445
1$
#446
b101001 1
#450
b11101101010000011010011 !
b11101101010000011010011 -
b11101101010000011010011 ,
0$
b101011 0
b1101011010101110010011001000011111001011010100 &
b1101011010101110010011001000011111001011010100 +
#455
1$
#456
b101010 1
#460
b1110111011001011000 !
b1110111011001011000 -
b100001110101011001011001 ,
0$
b101100 0
b100011010111101011111001101111101110111110000 &
b100011010111101011111001101111101110111110000 +
#465
1$
#466
b101011 1
#470
b100011010101101000101110 !
b100011010101101000101110 -
b1000011010011101000101111 ,
0$
b101101 0
b101110110110100111011110101001011011110011 &
b101110110110100111011110101001011011110011 +
#475
1$
#476
b101100 1
#480
b10111100011001010011001 !
b10111100011001010011001 -
b10111100011001010011001 ,
0$
b101110 0
b1001011010001100000110000011010110101101111010 &
b1001011010001100000110000011010110101101111010 +
#485
1$
#486
b101101 1
#490
b1010010111100011001001 !
b1010010111100011001001 -
b1010010111100011001001 ,
0$
b101111 0
b1000100101100000000110110001101001101000000110 &
b1000100101100000000110110001101001101000000110 +
#495
1$
#496
b101110 1
#500
b101011110100111001110 !
b101011110100111001110 -
b100101011100100111001111 ,
0$
b110000 0
b101110000100010100101010000110110101101000 &
b101110000100010100101010000110110101101000 +
#505
1$
#506
b101111 1
#510
b1100111101010110100101 !
b1100111101010110100101 -
b101100111011010110100110 ,
0$
b110001 0
b101110001111010101100101011111111011000010 &
b101110001111010101100101011111111011000010 +
#515
1$
#516
b110000 1
#520
b11110101101001011001110 !
b11110101101001011001110 -
b11110101101001011001110 ,
0$
b110010 0
b111110000111010011001011000101110000000 &
b111110000111010011001011000101110000000 +
#525
1$
#526
b110001 1
#530
b10111101100101000010000 !
b10111101100101000010000 -
b10111101100101000010000 ,
0$
b110011 0
b1011001101001011111101001010111000011001111000 &
b1011001101001011111101001010111000011001111000 +
#535
1$
#536
b110010 1
#540
b101101010000101111100 !
b101101010000101111100 -
b101101010000101111100 ,
0$
b110100 0
b1000000101111010101100001001100000111100000111 &
b1000000101111010101100001001100000111100000111 +
#545
1$
#546
b110011 1
#550
b1111111000110000000100 !
b1111111000110000000100 -
b1111111000110000000100 ,
0$
b110101 0
b1011011011111001110000001000101001111111001000 &
b1011011011111001110000001000101001111111001000 +
#555
1$
#556
b110100 1
#560
b101101111011100010110000 !
b101101111011100010110000 -
b1001101111001100010110001 ,
0$
b110110 0
b1011101111111100000011011010111101101100000 &
b1011101111111100000011011010111101101100000 +
#565
1$
#566
b110101 1
#570
b101100001001011000 !
b101100001001011000 -
b100000101010001001011001 ,
0$
b110111 0
b11000001110100100100001000110101001100011 &
b11000001110100100100001000110101001100011 +
#575
1$
#576
b110110 1
#580
b11101000000111101110011 !
b11101000000111101110011 -
b11101000000111101110011 ,
0$
b111000 0
b100111100001011000101110110110000101100000 &
b100111100001011000101110110110000101100000 +
#585
1$
#586
b110111 1
#590
b1111111111111111111111111111111111111111011001001011111001011110 !
b1111111111111111111111111111111111111111011001001011111001011110 -
b1111111111111111111111111111111111111111111001001001111001011111 ,
0$
b111001 0
b1110000101100010011000101010001110101111000011 &
b1110000101100010011000101010001110101111000011 +
#595
1$
#596
b111000 1
#600
b11100101100110111110001 !
b11100101100110111110001 -
b11100101100110111110001 ,
0$
b111010 0
b110010110010100101101010000111100010100000000 &
b110010110010100101101010000111100010100000000 +
#605
1$
#606
b111001 1
#610
b10101111110001100100101 !
b10101111110001100100101 -
b10101111110001100100101 ,
0$
b111011 0
b110111001001010000111101100111011011000000000 &
b110111001001010000111101100111011011000000000 +
#615
1$
#616
b111010 1
#620
b101010101011111101101 !
b101010101011111101101 -
b100101010011011111101110 ,
0$
b111100 0
b1101100010011110111010101011111110001001111100 &
b1101100010011110111010101011111110001001111100 +
#625
1$
#626
b111011 1
#630
b10111000100100010100000 !
b10111000100100010100000 -
b110111000010100010100001 ,
0$
b111101 0
b1000011110110101111001110111100001001111 &
b1000011110110101111001110111100001001111 +
#635
1$
#636
b111100 1
#640
b101111011011001111100000 !
b101111011011001111100000 -
b1001111011001001111100001 ,
0$
b111110 0
b11011100100111111100111111010110111010111111 &
b11011100100111111100111111010110111010111111 +
#645
1$
#646
b111101 1
#650
b10101000111011011011100 !
b10101000111011011011100 -
b10101000111011011011100 ,
0$
b111111 0
b10110111001010001011000100010110000110101100 &
b10110111001010001011000100010110000110101100 +
#655
1$
#656
b111110 1
#660
b1011110110111100011110 !
b1011110110111100011110 -
b1011110110111100011110 ,
0$
b1000000 0
b10000101000000000010101110100101001101001100 &
b10000101000000000010101110100101001101001100 +
#665
1$
#666
b111111 1
#670
0$
0(
#675
0#
0/
1$
#676
b1000000 1
