algorithms_sv/src/barrett_digit_serial/barrett_ds_p_tb.vcd
$date
	Tue Jun 17 19:50:12 2025
$end
$version
	Icarus Verilog
$end
$timescale
	1s
$end
$scope module barrett_ds_p_tb $end
$var wire 64 ! outdata_r_o [63:0] $end
$var wire 64 " indata_m_bl_i [63:0] $end
$var wire 1 # finish_o $end
$var reg 1 $ clk_i $end
$var reg 64 % indata_m_i [63:0] $end
$var reg 64 & indata_mu_i [63:0] $end
$var reg 64 ' indata_x_i [63:0] $end
$var reg 64 ( reference_o [63:0] $end
$var reg 1 ) rst_ni $end
$var reg 1 * start_i $end
$var integer 32 + inp_file [31:0] $end
$scope module uut $end
$var wire 1 , adjust_done $end
$var wire 1 $ clk_i $end
$var wire 64 - m_bl_i [63:0] $end
$var wire 64 . m_i [63:0] $end
$var wire 64 / mu_i [63:0] $end
$var wire 64 0 result_o [63:0] $end
$var wire 1 ) rst_ni $end
$var wire 1 * start_i $end
$var wire 64 1 x_i [63:0] $end
$var wire 128 2 xmu_precomp [127:0] $end
$var wire 1 # valid_o $end
$var wire 128 3 qm_result [127:0] $end
$var wire 1 4 m_finish $end
$var wire 1 5 busy_p_o $end
$var wire 1 6 busy_a_o $end
$var wire 1 7 a_finish $end
$var reg 1 8 adjust_cycle_done $end
$var reg 1 9 ctrl_adjust_result $end
$var reg 1 : ctrl_update_operands $end
$var reg 1 ; ctrl_update_res_with_qm $end
$var reg 1 < ctrl_update_res_with_xmu $end
$var reg 1 = ctrl_update_result $end
$var reg 3 > curr_state [2:0] $end
$var reg 64 ? mul_i [63:0] $end
$var reg 3 @ next_state [2:0] $end
$var reg 64 A result_n [63:0] $end
$var reg 64 B result_p [63:0] $end
$scope module multiplier_approx $end
$var wire 1 6 busy_o $end
$var wire 1 $ clk_i $end
$var wire 64 C indata_a_i [63:0] $end
$var wire 64 D indata_b_i [63:0] $end
$var wire 128 E outdata_r_o [127:0] $end
$var wire 1 ) rst_ni $end
$var wire 1 4 start_i $end
$var wire 32 F mul16_outdata_r_o [31:0] $end
$var wire 1 7 finish_o $end
$var reg 16 G a_counter [15:0] $end
$var reg 16 H b_counter [15:0] $end
$var reg 1 I ctrl_update_a_counter $end
$var reg 1 J ctrl_update_b_counter $end
$var reg 1 K ctrl_update_operands $end
$var reg 1 L ctrl_update_r_counter $end
$var reg 1 M ctrl_update_result $end
$var reg 16 N mul16_indata_a_i [15:0] $end
$var reg 16 O mul16_indata_b_i [15:0] $end
$var reg 64 P operand_a [63:0] $end
$var reg 64 Q operand_b [63:0] $end
$var reg 16 R r_counter [15:0] $end
$var reg 128 S result [127:0] $end
$var integer 32 T curr_state [31:0] $end
$var integer 32 U next_state [31:0] $end
$scope begin genblk1[0] $end
$var parameter 2 V i $end
$upscope $end
$scope begin genblk1[1] $end
$var parameter 2 W i $end
$upscope $end
$scope begin genblk1[2] $end
$var parameter 3 X i $end
$upscope $end
$scope begin genblk1[3] $end
$var parameter 3 Y i $end
$upscope $end
$scope module multipler_16x16_i $end
$var wire 1 $ clk_i $end
$var wire 16 Z indata_a_i [15:0] $end
$var wire 16 [ indata_b_i [15:0] $end
$var wire 32 \ outdata_r_o [31:0] $end
$var reg 32 ] result_buffer [31:0] $end
$upscope $end
$upscope $end
$scope module multiplier_precomp $end
$var wire 1 5 busy_o $end
$var wire 1 $ clk_i $end
$var wire 64 ^ indata_a_i [63:0] $end
$var wire 64 _ indata_b_i [63:0] $end
$var wire 128 ` outdata_r_o [127:0] $end
$var wire 1 ) rst_ni $end
$var wire 1 * start_i $end
$var wire 32 a mul16_outdata_r_o [31:0] $end
$var wire 1 4 finish_o $end
$var reg 16 b a_counter [15:0] $end
$var reg 16 c b_counter [15:0] $end
$var reg 1 d ctrl_update_a_counter $end
$var reg 1 e ctrl_update_b_counter $end
$var reg 1 f ctrl_update_operands $end
$var reg 1 g ctrl_update_r_counter $end
$var reg 1 h ctrl_update_result $end
$var reg 16 i mul16_indata_a_i [15:0] $end
$var reg 16 j mul16_indata_b_i [15:0] $end
$var reg 64 k operand_a [63:0] $end
$var reg 64 l operand_b [63:0] $end
$var reg 16 m r_counter [15:0] $end
$var reg 128 n result [127:0] $end
$var integer 32 o curr_state [31:0] $end
$var integer 32 p next_state [31:0] $end
$scope begin genblk1[0] $end
$var parameter 2 q i $end
$upscope $end
$scope begin genblk1[1] $end
$var parameter 2 r i $end
$upscope $end
$scope begin genblk1[2] $end
$var parameter 3 s i $end
$upscope $end
$scope begin genblk1[3] $end
$var parameter 3 t i $end
$upscope $end
$scope module multipler_16x16_i $end
$var wire 1 $ clk_i $end
$var wire 16 u indata_a_i [15:0] $end
$var wire 16 v indata_b_i [15:0] $end
$var wire 32 w outdata_r_o [31:0] $end
$var reg 32 x result_buffer [31:0] $end
$upscope $end
$upscope $end
$upscope $end
$upscope $end
$enddefinitions $end
$comment Show the parameter values. $end
$dumpall
b11 t
b10 s
b1 r
b0 q
b11 Y
b10 X
b1 W
b0 V
$end
#0
$dumpvars
bx x
bx w
bx v
bx u
b0 p
b0 o
bx n
bx m
bx l
bx k
bx j
bx i
0h
0g
0f
0e
0d
bx c
bx b
bx a
bx `
b100000000010000000000111 _
bx ^
bx ]
bx \
bx [
bx Z
b0 U
b0 T
bx S
bx R
bx Q
bx P
bx O
bx N
0M
0L
0K
0J
0I
bx H
bx G
bx F
bx E
b11111111110000000000001 D
bx C
bx B
bx A
b0 @
bx ?
bx >
x=
0<
0;
x:
x9
08
07
06
05
04
bx 3
bx 2
bx 1
bx 0
b100000000010000000000111 /
b11111111110000000000001 .
b10111 -
0,
b10000000000000000000000000000011 +
0*
0)
bx (
bx '
b100000000010000000000111 &
b11111111110000000000001 %
0$
x#
b10111 "
bx !
$end
#5
b0 j
b0 v
b0 i
b0 u
b0 O
b0 [
b0 N
b0 Z
09
0=
1:
b0 k
b0 l
b0 b
b0 c
b0 m
b0 2
b0 `
b0 n
b0 P
b0 Q
b0 G
b0 H
b0 R
b0 3
b0 E
b0 S
b0 ?
b0 ^
0#
b0 >
b0 !
b0 0
b0 A
1$
#10
0$
#15
b0 B
b0 C
b0 F
b0 \
b0 ]
b0 a
b0 w
b0 x
1$
#20
0$
#25
1$
#30
0$
#35
1$
#40
0$
#45
1$
#50
0$
1)
#55
bx ?
bx ^
1$
#60
0$
#65
1$
#70
0$
b10000111111000101010101 (
b101101010000010011000011000001101110111011000 '
b101101010000010011000011000001101110111011000 1
#75
b101101010000010011000011000001101110111011000 ?
b101101010000010011000011000001101110111011000 ^
b1 p
b1 @
1*
1$
#80
0$
#85
1f
15
0:
b1 o
b1 >
b10 p
b1 @
0*
1$
#90
0$
#95
b10000000000111 j
b10000000000111 v
b1101110111011000 i
b1101110111011000 u
b11 p
0f
b100000000010000000000111 l
b101101010000010011000011000001101110111011000 k
b10 o
1$
#100
0$
#105
b100 p
1h
b11011110000010001000011101000 a
b11011110000010001000011101000 w
b11011110000010001000011101000 x
b11 o
1$
#110
0$
#115
b10 p
0h
1g
1e
1d
b11011110000010001000011101000 2
b11011110000010001000011101000 `
b11011110000010001000011101000 n
b100 o
1$
#120
0$
#125
0g
0e
0d
b1001100001100000 i
b1001100001100000 u
b11 p
b10 o
b1 b
b1 m
1$
#130
0$
#135
b100 p
1h
b11 o
b10011000100000010101010100000 a
b10011000100000010101010100000 w
b10011000100000010101010100000 x
1$
#140
0$
#145
b10 p
0h
1g
1e
1d
b100 o
b100110001000001000110011000010001000011101000 2
b100110001000001000110011000010001000011101000 `
b100110001000001000110011000010001000011101000 n
1$
#150
0$
#155
b1011010100000 i
b1011010100000 u
b11 p
0g
0e
0d
b10 m
b10 b
b10 o
1$
#160
0$
#165
b100 p
1h
b10110101001001111001100000 a
b10110101001001111001100000 w
b10110101001001111001100000 x
b11 o
1$
#170
0$
#175
b10 p
0h
1g
1e
1d
b1011010100101100010111000001000110011000010001000011101000 2
b1011010100101100010111000001000110011000010001000011101000 `
b1011010100101100010111000001000110011000010001000011101000 n
b100 o
1$
#180
0$
#185
0g
0e
0d
b0 i
b0 u
b11 p
b10 o
b11 b
b11 m
1$
#190
0$
#195
b100 p
1h
b11 o
b0 a
b0 w
b0 x
1$
#200
0$
#205
b10 p
0h
1g
1e
1d
b100 o
1$
#210
0$
#215
b10000000 j
b10000000 v
b1101110111011000 i
b1101110111011000 u
b11 p
0g
0e
0d
b100 m
b1 c
b0 b
b10 o
1$
#220
0$
#225
b100 p
1h
b11011101110110000000000 a
b11011101110110000000000 w
b11011101110110000000000 x
b11 o
1$
#230
0$
#235
b10 p
0h
1g
1e
1d
b1011010100101100011101111100110010011000010001000011101000 2
b1011010100101100011101111100110010011000010001000011101000 `
b1011010100101100011101111100110010011000010001000011101000 n
b100 o
1$
#240
0$
#245
0g
0e
0d
b1001100001100000 i
b1001100001100000 u
b11 p
b10 o
b1 b
b101 m
1$
#250
0$
#255
b100 p
1h
b11 o
b10011000011000000000000 a
b10011000011000000000000 w
b10011000011000000000000 x
1$
#260
0$
#265
b10 p
0h
1g
1e
1d
b100 o
b1100100000111000011101111100110010011000010001000011101000 2
b1100100000111000011101111100110010011000010001000011101000 `
b1100100000111000011101111100110010011000010001000011101000 n
1$
#270
0$
#275
b1011010100000 i
b1011010100000 u
b11 p
0g
0e
0d
b110 m
b10 b
b10 o
1$
#280
0$
#285
b100 p
1h
b10110101000000000000 a
b10110101000000000000 w
b10110101000000000000 x
b11 o
1$
#290
0$
#295
b10 p
0h
1g
1e
1d
b10110101001100100000111000011101111100110010011000010001000011101000 2
b10110101001100100000111000011101111100110010011000010001000011101000 `
b10110101001100100000111000011101111100110010011000010001000011101000 n
b100 o
1$
#300
0$
#305
0g
0e
0d
b0 i
b0 u
b11 p
b10 o
b11 b
b111 m
1$
#310
0$
#315
b100 p
1h
b11 o
b0 a
b0 w
b0 x
1$
#320
0$
#325
b10 p
0h
1g
1e
1d
b100 o
1$
#330
0$
#335
b0 j
b0 v
b1101110111011000 i
b1101110111011000 u
b11 p
0g
0e
0d
b1000 m
b10 c
b0 b
b10 o
1$
#340
0$
#345
b100 p
1h
b11 o
1$
#350
0$
#355
b10 p
0h
1g
1e
1d
b100 o
1$
#360
0$
#365
0g
0e
0d
b1001100001100000 i
b1001100001100000 u
b11 p
b10 o
b1 b
b1001 m
1$
#370
0$
#375
b100 p
1h
b11 o
1$
#380
0$
#385
b10 p
0h
1g
1e
1d
b100 o
1$
#390
0$
#395
b1011010100000 i
b1011010100000 u
b11 p
0g
0e
0d
b1010 m
b10 b
b10 o
1$
#400
0$
#405
b100 p
1h
b11 o
1$
#410
0$
#415
b10 p
0h
1g
1e
1d
b100 o
1$
#420
0$
#425
0g
0e
0d
b0 i
b0 u
b11 p
b10 o
b11 b
b1011 m
1$
#430
0$
#435
b100 p
1h
b11 o
1$
#440
0$
#445
b10 p
0h
1g
1e
1d
b100 o
1$
#450
0$
#455
b1101110111011000 i
b1101110111011000 u
b11 p
0g
0e
0d
b1100 m
b11 c
b0 b
b10 o
1$
#460
0$
#465
b100 p
1h
b11 o
1$
#470
0$
#475
b10 p
0h
1g
1e
1d
b100 o
1$
#480
0$
#485
0g
0e
0d
b1001100001100000 i
b1001100001100000 u
b11 p
b10 o
b1 b
b1101 m
1$
#490
0$
#495
b100 p
1h
b11 o
1$
#500
0$
#505
b10 p
0h
1g
1e
1d
b100 o
1$
#510
0$
#515
b1011010100000 i
b1011010100000 u
b11 p
0g
0e
0d
b1110 m
b10 b
b10 o
1$
#520
0$
#525
b100 p
1h
b11 o
1$
#530
0$
#535
b10 p
0h
1g
1e
1d
b100 o
1$
#540
0$
#545
0g
0e
0d
b0 i
b0 u
b11 p
b10 o
b11 b
b1111 m
1$
#550
0$
#555
b100 p
1h
b11 o
1$
#560
0$
#565
b101 p
0h
1g
1e
1d
b100 o
1$
#570
0$
#575
bx j
bx v
b1101110111011000 i
b1101110111011000 u
b0 p
0g
0e
0d
05
1<
b10 @
b1 U
b10000 m
b100 c
b0 b
14
b101 o
1$
#580
0$
#585
b10 U
1K
16
0<
bx a
bx w
bx x
04
b0 o
b1 T
b10 >
b1011010100110010000011 B
b1011010100110010000011 C
1$
#590
0$
#595
b1110000000000001 O
b1110000000000001 [
b100110010000011 N
b100110010000011 Z
b11 U
0K
b11111111110000000000001 Q
b1011010100110010000011 P
b10 T
1$
#600
0$
#605
b100 U
1M
b1000010111100101110110010000011 F
b1000010111100101110110010000011 \
b1000010111100101110110010000011 ]
b11 T
1$
#610
0$
#615
b10 U
0M
1L
1J
1I
b1000010111100101110110010000011 3
b1000010111100101110110010000011 E
b1000010111100101110110010000011 S
b100 T
1$
#620
0$
#625
0L
0J
0I
b101101 N
b101101 Z
b11 U
b10 T
b1 G
b1 R
1$
#630
0$
#635
b100 U
1M
b11 T
b1001110110000000101101 F
b1001110110000000101101 \
b1001110110000000101101 ]
1$
#640
0$
#645
b10 U
0M
1L
1J
1I
b100 T
b10011110100011000111111110110010000011 3
b10011110100011000111111110110010000011 E
b10011110100011000111111110110010000011 S
1$
#650
0$
#655
b0 N
b0 Z
b11 U
0L
0J
0I
b10 R
b10 G
b10 T
1$
#660
0$
#665
b100 U
1M
b0 F
b0 \
b0 ]
b11 T
1$
#670
0$
#675
b10 U
0M
1L
1J
1I
b100 T
1$
#680
0$
#685
0L
0J
0I
b11 U
b10 T
b11 G
b11 R
1$
#690
0$
#695
b100 U
1M
b11 T
1$
#700
0$
#705
b10 U
0M
1L
1J
1I
b100 T
1$
#710
0$
#715
b1111111 O
b1111111 [
b100110010000011 N
b100110010000011 Z
b11 U
0L
0J
0I
b100 R
b1 H
b0 G
b10 T
1$
#720
0$
#725
b100 U
1M
b1001011111010011111101 F
b1001011111010011111101 \
b1001011111010011111101 ]
b11 T
1$
#730
0$
#735
b10 U
0M
1L
1J
1I
b100110110011000000111001110110010000011 3
b100110110011000000111001110110010000011 E
b100110110011000000111001110110010000011 S
b100 T
1$
#740
0$
#745
0L
0J
0I
b101101 N
b101101 Z
b11 U
b10 T
b1 G
b101 R
1$
#750
0$
#755
b100 U
1M
b11 T
b1011001010011 F
b1011001010011 \
b1011001010011 ]
1$
#760
0$
#765
b10 U
0M
1L
1J
1I
b100 T
b101101010000010011000000111001110110010000011 3
b101101010000010011000000111001110110010000011 E
b101101010000010011000000111001110110010000011 S
1$
#770
0$
#775
b0 N
b0 Z
b11 U
0L
0J
0I
b110 R
b10 G
b10 T
1$
#780
0$
#785
b100 U
1M
b0 F
b0 \
b0 ]
b11 T
1$
#790
0$
#795
b10 U
0M
1L
1J
1I
b100 T
1$
#800
0$
#805
0L
0J
0I
b11 U
b10 T
b11 G
b111 R
1$
#810
0$
#815
b100 U
1M
b11 T
1$
#820
0$
#825
b10 U
0M
1L
1J
1I
b100 T
1$
#830
0$
#835
b0 O
b0 [
b100110010000011 N
b100110010000011 Z
b11 U
0L
0J
0I
b1000 R
b10 H
b0 G
b10 T
1$
#840
0$
#845
b100 U
1M
b11 T
1$
#850
0$
#855
b10 U
0M
1L
1J
1I
b100 T
1$
#860
0$
#865
0L
0J
0I
b101101 N
b101101 Z
b11 U
b10 T
b1 G
b1001 R
1$
#870
0$
#875
b100 U
1M
b11 T
1$
#880
0$
#885
b10 U
0M
1L
1J
1I
b100 T
1$
#890
0$
#895
b0 N
b0 Z
b11 U
0L
0J
0I
b1010 R
b10 G
b10 T
1$
#900
0$
#905
b100 U
1M
b11 T
1$
#910
0$
#915
b10 U
0M
1L
1J
1I
b100 T
1$
#920
0$
#925
0L
0J
0I
b11 U
b10 T
b11 G
b1011 R
1$
#930
0$
#935
b100 U
1M
b11 T
1$
#940
0$
#945
b10 U
0M
1L
1J
1I
b100 T
1$
#950
0$
#955
b100110010000011 N
b100110010000011 Z
b11 U
0L
0J
0I
b1100 R
b11 H
b0 G
b10 T
1$
#960
0$
#965
b100 U
1M
b11 T
1$
#970
0$
#975
b10 U
0M
1L
1J
1I
b100 T
1$
#980
0$
#985
0L
0J
0I
b101101 N
b101101 Z
b11 U
b10 T
b1 G
b1101 R
1$
#990
0$
#995
b100 U
1M
b11 T
1$
#1000
0$
#1005
b10 U
0M
1L
1J
1I
b100 T
1$
#1010
0$
#1015
b0 N
b0 Z
b11 U
0L
0J
0I
b1110 R
b10 G
b10 T
1$
#1020
0$
#1025
b100 U
1M
b11 T
1$
#1030
0$
#1035
b10 U
0M
1L
1J
1I
b100 T
1$
#1040
0$
#1045
0L
0J
0I
b11 U
b10 T
b11 G
b1111 R
1$
#1050
0$
#1055
b100 U
1M
b11 T
1$
#1060
0$
#1065
b101 U
0M
1L
1J
1I
b100 T
1$
#1070
0$
#1075
bx O
bx [
b100110010000011 N
b100110010000011 Z
b0 U
0L
0J
0I
06
1;
b11 @
b10000 R
b100 H
b0 G
17
b101 T
1$
#1080
0$
#1085
19
0;
bx F
bx \
bx ]
07
b0 T
b11 >
b10000111111000101010101 B
b10000111111000101010101 C
1$
#1090
0$
#1095
b100 @
b10000111111000101010101 !
b10000111111000101010101 0
b10000111111000101010101 A
1,
18
1$
#1100
0$
#1105
b0 @
09
1=
1#
b100 >
1$
#1110
0$
#1115
0=
1:
b0 !
b0 0
b0 A
0#
b0 >
0,
08
b10010001100100011110111 (
b1101001000010101101101011110110001001 '
b1101001000010101101101011110110001001 1
1$
#1120
0$
#1125
b1101001000010101101101011110110001001 ?
b1101001000010101101101011110110001001 ^
b0 B
b0 C
b1 p
b1 @
1*
1$
#1130
0$
#1135
0:
1f
15
b1 >
b1 o
b10 p
b1 @
0*
1$
#1140
0$
#1145
b1011110110001001 i
b1011110110001001 u
0f
b10000000000111 j
b10000000000111 v
b11 p
b10 o
b1101001000010101101101011110110001001 k
b0 c
b0 m
b0 2
b0 `
b0 n
1$
#1150
0$
#1155
b100 p
1h
b11 o
b10111101101100100111010111111 a
b10111101101100100111010111111 w
b10111101101100100111010111111 x
1$
#1160
0$
#1165
b10 p
0h
1g
1e
1d
b100 o
b10111101101100100111010111111 2
b10111101101100100111010111111 `
b10111101101100100111010111111 n
1$
#1170
0$
#1175
b100001010110110 i
b100001010110110 u
b11 p
0g
0e
0d
b1 m
b1 b
b10 o
1$
#1180
0$
#1185
b100 p
1h
b1000010110001001001011111010 a
b1000010110001001001011111010 w
b1000010110001001001011111010 x
b11 o
1$
#1190
0$
#1195
b10 p
0h
1g
1e
1d
b10000101100010101010101100000100111010111111 2
b10000101100010101010101100000100111010111111 `
b10000101100010101010101100000100111010111111 n
b100 o
1$
#1200
0$
#1205
0g
0e
0d
b11010 i
b11010 u
b11 p
b10 o
b10 b
b10 m
1$
#1210
0$
#1215
b100 p
1h
b11 o
b110100000010110110 a
b110100000010110110 w
b110100000010110110 x
1$
#1220
0$
#1225
b10 p
0h
1g
1e
1d
b100 o
b11010010010000111010101010101100000100111010111111 2
b11010010010000111010101010101100000100111010111111 `
b11010010010000111010101010101100000100111010111111 n
1$
#1230
0$
#1235
b0 i
b0 u
b11 p
0g
0e
0d
b11 m
b11 b
b10 o
1$
#1240
0$
#1245
b100 p
1h
b0 a
b0 w
b0 x
b11 o
1$
#1250
0$
#1255
b10 p
0h
1g
1e
1d
b100 o
1$
#1260
0$
#1265
0g
0e
0d
b10000000 j
b10000000 v
b1011110110001001 i
b1011110110001001 u
b11 p
b10 o
b0 b
b1 c
b100 m
1$
#1270
0$
#1275
b100 p
1h
b11 o
b10111101100010010000000 a
b10111101100010010000000 w
b10111101100010010000000 x
1$
#1280
0$
#1285
b10 p
0h
1g
1e
1d
b100 o
b11010010010110110101101111001100000100111010111111 2
b11010010010110110101101111001100000100111010111111 `
b11010010010110110101101111001100000100111010111111 n
1$
#1290
0$
#1295
b100001010110110 i
b100001010110110 u
b11 p
0g
0e
0d
b101 m
b1 b
b10 o
1$
#1300
0$
#1305
b100 p
1h
b1000010101101100000000 a
b1000010101101100000000 w
b1000010101101100000000 x
b11 o
1$
#1310
0$
#1315
b10 p
0h
1g
1e
1d
b100100101001000110110101101111001100000100111010111111 2
b100100101001000110110101101111001100000100111010111111 `
b100100101001000110110101101111001100000100111010111111 n
b100 o
1$
#1320
0$
#1325
0g
0e
0d
b11010 i
b11010 u
b11 p
b10 o
b10 b
b110 m
1$
#1330
0$
#1335
b100 p
1h
b11 o
b110100000000 a
b110100000000 w
b110100000000 x
1$
#1340
0$
#1345
b10 p
0h
1g
1e
1d
b100 o
b110100100100101001000110110101101111001100000100111010111111 2
b110100100100101001000110110101101111001100000100111010111111 `
b110100100100101001000110110101101111001100000100111010111111 n
1$
#1350
0$
#1355
b0 i
b0 u
b11 p
0g
0e
0d
b111 m
b11 b
b10 o
1$
#1360
0$
#1365
b100 p
1h
b0 a
b0 w
b0 x
b11 o
1$
#1370
0$
#1375
b10 p
0h
1g
1e
1d
b100 o
1$
#1380
0$
#1385
0g
0e
0d
b0 j
b0 v
b1011110110001001 i
b1011110110001001 u
b11 p
b10 o
b0 b
b10 c
b1000 m
1$
#1390
0$
#1395
b100 p
1h
b11 o
1$
#1400
0$
#1405
b10 p
0h
1g
1e
1d
b100 o
1$
#1410
0$
#1415
b100001010110110 i
b100001010110110 u
b11 p
0g
0e
0d
b1001 m
b1 b
b10 o
1$
#1420
0$
#1425
b100 p
1h
b11 o
1$
#1430
0$
#1435
b10 p
0h
1g
1e
1d
b100 o
1$
#1440
0$
#1445
0g
0e
0d
b11010 i
b11010 u
b11 p
b10 o
b10 b
b1010 m
1$
#1450
0$
#1455
b100 p
1h
b11 o
1$
#1460
0$
#1465
b10 p
0h
1g
1e
1d
b100 o
1$
#1470
0$
#1475
b0 i
b0 u
b11 p
0g
0e
0d
b1011 m
b11 b
b10 o
1$
#1480
0$
#1485
b100 p
1h
b11 o
1$
#1490
0$
#1495
b10 p
0h
1g
1e
1d
b100 o
1$
#1500
0$
#1505
0g
0e
0d
b1011110110001001 i
b1011110110001001 u
b11 p
b10 o
b0 b
b11 c
b1100 m
1$
#1510
0$
#1515
b100 p
1h
b11 o
1$
#1520
0$
#1525
b10 p
0h
1g
1e
1d
b100 o
1$
#1530
0$
#1535
b100001010110110 i
b100001010110110 u
b11 p
0g
0e
0d
b1101 m
b1 b
b10 o
1$
#1540
0$
#1545
b100 p
1h
b11 o
1$
#1550
0$
#1555
b10 p
0h
1g
1e
1d
b100 o
1$
#1560
0$
#1565
0g
0e
0d
b11010 i
b11010 u
b11 p
b10 o
b10 b
b1110 m
1$
#1570
0$
#1575
b100 p
1h
b11 o
1$
#1580
0$
#1585
b10 p
0h
1g
1e
1d
b100 o
1$
#1590
0$
#1595
b0 i
b0 u
b11 p
0g
0e
0d
b1111 m
b11 b
b10 o
1$
#1600
0$
#1605
b100 p
1h
b11 o
1$
#1610
0$
#1615
b101 p
0h
1g
1e
1d
b100 o
1$
#1620
0$
#1625
0g
0e
0d
05
1<
b10 @
b1 U
bx j
bx v
b1011110110001001 i
b1011110110001001 u
b0 p
14
b101 o
b0 b
b100 c
b10000 m
1$
#1630
0$
#1635
1K
16
0<
b10 U
b11010010010010 B
b11010010010010 C
b10 >
b1 T
04
b0 o
bx a
bx w
bx x
1$
#1640
0$
#1645
b11010010010010 N
b11010010010010 Z
0K
b1110000000000001 O
b1110000000000001 [
b11 U
b10 T
b11010010010010 P
b0 H
b0 R
b0 3
b0 E
b0 S
1$
#1650
0$
#1655
b100 U
1M
b11 T
b101101111111111111010010010010 F
b101101111111111111010010010010 \
b101101111111111111010010010010 ]
1$
#1660
0$
#1665
b10 U
0M
1L
1J
1I
b100 T
b101101111111111111010010010010 3
b101101111111111111010010010010 E
b101101111111111111010010010010 S
1$
#1670
0$
#1675
b0 N
b0 Z
b11 U
0L
0J
0I
b1 R
b1 G
b10 T
1$
#1680
0$
#1685
b100 U
1M
b0 F
b0 \
b0 ]
b11 T
1$
#1690
0$
#1695
b10 U
0M
1L
1J
1I
b100 T
1$
#1700
0$
#1705
0L
0J
0I
b11 U
b10 T
b10 G
b10 R
1$
#1710
0$
#1715
b100 U
1M
b11 T
1$
#1720
0$
#1725
b10 U
0M
1L
1J
1I
b100 T
1$
#1730
0$
#1735
b11 U
0L
0J
0I
b11 R
b11 G
b10 T
1$
#1740
0$
#1745
b100 U
1M
b11 T
1$
#1750
0$
#1755
b10 U
0M
1L
1J
1I
b100 T
1$
#1760
0$
#1765
0L
0J
0I
b1111111 O
b1111111 [
b11010010010010 N
b11010010010010 Z
b11 U
b10 T
b0 G
b1 H
b100 R
1$
#1770
0$
#1775
b100 U
1M
b11 T
b110100001010001101110 F
b110100001010001101110 \
b110100001010001101110 ]
1$
#1780
0$
#1785
b10 U
0M
1L
1J
1I
b100 T
b1101001000010011011011111010010010010 3
b1101001000010011011011111010010010010 E
b1101001000010011011011111010010010010 S
1$
#1790
0$
#1795
b0 N
b0 Z
b11 U
0L
0J
0I
b101 R
b1 G
b10 T
1$
#1800
0$
#1805
b100 U
1M
b0 F
b0 \
b0 ]
b11 T
1$
#1810
0$
#1815
b10 U
0M
1L
1J
1I
b100 T
1$
#1820
0$
#1825
0L
0J
0I
b11 U
b10 T
b10 G
b110 R
1$
#1830
0$
#1835
b100 U
1M
b11 T
1$
#1840
0$
#1845
b10 U
0M
1L
1J
1I
b100 T
1$
#1850
0$
#1855
b11 U
0L
0J
0I
b111 R
b11 G
b10 T
1$
#1860
0$
#1865
b100 U
1M
b11 T
1$
#1870
0$
#1875
b10 U
0M
1L
1J
1I
b100 T
1$
#1880
0$
#1885
0L
0J
0I
b0 O
b0 [
b11010010010010 N
b11010010010010 Z
b11 U
b10 T
b0 G
b10 H
b1000 R
1$
#1890
0$
#1895
b100 U
1M
b11 T
1$
#1900
0$
#1905
b10 U
0M
1L
1J
1I
b100 T
1$
#1910
0$
#1915
b0 N
b0 Z
b11 U
0L
0J
0I
b1001 R
b1 G
b10 T
1$
#1920
0$
#1925
b100 U
1M
b11 T
1$
#1930
0$
#1935
b10 U
0M
1L
1J
1I
b100 T
1$
#1940
0$
#1945
0L
0J
0I
b11 U
b10 T
b10 G
b1010 R
1$
#1950
0$
#1955
b100 U
1M
b11 T
1$
#1960
0$
#1965
b10 U
0M
1L
1J
1I
b100 T
1$
#1970
0$
#1975
b11 U
0L
0J
0I
b1011 R
b11 G
b10 T
1$
#1980
0$
#1985
b100 U
1M
b11 T
1$
#1990
0$
#1995
b10 U
0M
1L
1J
1I
b100 T
1$
#2000
0$
#2005
0L
0J
0I
b11010010010010 N
b11010010010010 Z
b11 U
b10 T
b0 G
b11 H
b1100 R
1$
#2010
0$
#2015
b100 U
1M
b11 T
1$
#2020
0$
#2025
b10 U
0M
1L
1J
1I
b100 T
1$
#2030
0$
#2035
b0 N
b0 Z
b11 U
0L
0J
0I
b1101 R
b1 G
b10 T
1$
#2040
0$
#2045
b100 U
1M
b11 T
1$
#2050
0$
#2055
b10 U
0M
1L
1J
1I
b100 T
1$
#2060
0$
#2065
0L
0J
0I
b11 U
b10 T
b10 G
b1110 R
1$
#2070
0$
#2075
b100 U
1M
b11 T
1$
#2080
0$
#2085
b10 U
0M
1L
1J
1I
b100 T
1$
#2090
0$
#2095
b11 U
0L
0J
0I
b1111 R
b11 G
b10 T
1$
#2100
0$
#2105
b100 U
1M
b11 T
1$
#2110
0$
#2115
b101 U
0M
1L
1J
1I
b100 T
1$
#2120
0$
#2125
0L
0J
0I
06
1;
b11 @
bx O
bx [
b11010010010010 N
b11010010010010 Z
b0 U
17
b101 T
b0 G
b100 H
b10000 R
1$
#2130
0$
#2135
19
0;
b10010001100100011110111 B
b10010001100100011110111 C
b11 >
07
b0 T
bx F
bx \
bx ]
1$
#2140
0$
#2145
b100 @
b10010001100100011110111 !
b10010001100100011110111 0
b10010001100100011110111 A
1,
18
1$
#2150
0$
#2155
b0 @
09
1=
1#
b100 >
1$
#2160
0$
#2165
0=
1:
0#
b0 >
b0 !
b0 0
b0 A
0,
08
b11111011010010100010110 (
b11011001000000101010101101010000110000110100 '
b11011001000000101010101101010000110000110100 1
1$
#2170
0$
#2175
b0 B
b0 C
b11011001000000101010101101010000110000110100 ?
b11011001000000101010101101010000110000110100 ^
b1 p
b1 @
1*
1$
#2180
0$
#2185
1f
15
0:
b1 o
b1 >
b10 p
b1 @
0*
1$
#2190
0$
#2195
b10000000000111 j
b10000000000111 v
b110000110100 i
b110000110100 u
b11 p
0f
b0 2
b0 `
b0 n
b0 m
b0 c
b11011001000000101010101101010000110000110100 k
b10 o
1$
#2200
0$
#2205
b100 p
1h
b1100001101101010101101100 a
b1100001101101010101101100 w
b1100001101101010101101100 x
b11 o
1$
#2210
0$
#2215
b10 p
0h
1g
1e
1d
b1100001101101010101101100 2
b1100001101101010101101100 `
b1100001101101010101101100 n
b100 o
1$
#2220
0$
#2225
0g
0e
0d
b10101010110101 i
b10101010110101 u
b11 p
b10 o
b1 b
b1 m
1$
#2230
0$
#2235
b100 p
1h
b11 o
b101010101111100101011110011 a
b101010101111100101011110011 w
b101010101111100101011110011 x
1$
#2240
0$
#2245
b10 p
0h
1g
1e
1d
b100 o
b1010101011111001100011110011101010101101100 2
b1010101011111001100011110011101010101101100 `
b1010101011111001100011110011101010101101100 n
1$
#2250
0$
#2255
b110110010000 i
b110110010000 u
b11 p
0g
0e
0d
b10 m
b10 b
b10 o
1$
#2260
0$
#2265
b100 p
1h
b1101100100101111011110000 a
b1101100100101111011110000 w
b1101100100101111011110000 x
b11 o
1$
#2270
0$
#2275
b10 p
0h
1g
1e
1d
b110110010011001000100011111001100011110011101010101101100 2
b110110010011001000100011111001100011110011101010101101100 `
b110110010011001000100011111001100011110011101010101101100 n
b100 o
1$
#2280
0$
#2285
0g
0e
0d
b0 i
b0 u
b11 p
b10 o
b11 b
b11 m
1$
#2290
0$
#2295
b100 p
1h
b11 o
b0 a
b0 w
b0 x
1$
#2300
0$
