algorithms_sv/src/barrett_bit_parallel/barrett_bp_tb.vcd
$date
	Sun Jun 22 15:45:28 2025
$end
$version
	Icarus Verilog
$end
$timescale
	1s
$end
$scope module barrett_bp_tb $end
$var wire 64 ! indata_m_bl_i [63:0] $end
$var wire 64 " indata_m_i [63:0] $end
$var wire 64 # indata_mu_i [63:0] $end
$var wire 64 $ outdata_r_o [63:0] $end
$var reg 1 % clk_i $end
$var reg 64 & indata_x_i [63:0] $end
$var reg 64 ' reference_o [63:0] $end
$var reg 1 ( rst_ni $end
$var reg 1 ) start_i $end
$var integer 32 * inp_file [31:0] $end
$scope module uut $end
$var wire 64 + m_bl_i [63:0] $end
$var wire 64 , m_i [63:0] $end
$var wire 64 - mu_i [63:0] $end
$var wire 64 . x_i [63:0] $end
$var wire 128 / xmu_precomp [127:0] $end
$var wire 64 0 result_o [63:0] $end
$var wire 65 1 res [64:0] $end
$var wire 128 2 qm_result [127:0] $end
$var wire 64 3 q_approx [63:0] $end
$scope module multiplier_approx $end
$var wire 64 4 indata_a_i [63:0] $end
$var wire 64 5 indata_b_i [63:0] $end
$var reg 128 6 outdata_r_o [127:0] $end
$scope begin genblk1[0] $end
$var parameter 2 7 i $end
$scope module multiplier_16x16_i $end
$var wire 16 8 indata_a_i [15:0] $end
$var wire 16 9 indata_b_i [15:0] $end
$var wire 32 : outdata_r_o [31:0] $end
$upscope $end
$upscope $end
$scope begin genblk1[1] $end
$var parameter 2 ; i $end
$scope module multiplier_16x16_i $end
$var wire 16 < indata_a_i [15:0] $end
$var wire 16 = indata_b_i [15:0] $end
$var wire 32 > outdata_r_o [31:0] $end
$upscope $end
$upscope $end
$scope begin genblk1[2] $end
$var parameter 3 ? i $end
$scope module multiplier_16x16_i $end
$var wire 16 @ indata_a_i [15:0] $end
$var wire 16 A indata_b_i [15:0] $end
$var wire 32 B outdata_r_o [31:0] $end
$upscope $end
$upscope $end
$scope begin genblk1[3] $end
$var parameter 3 C i $end
$scope module multiplier_16x16_i $end
$var wire 16 D indata_a_i [15:0] $end
$var wire 16 E indata_b_i [15:0] $end
$var wire 32 F outdata_r_o [31:0] $end
$upscope $end
$upscope $end
$scope begin genblk1[4] $end
$var parameter 4 G i $end
$scope module multiplier_16x16_i $end
$var wire 16 H indata_a_i [15:0] $end
$var wire 16 I indata_b_i [15:0] $end
$var wire 32 J outdata_r_o [31:0] $end
$upscope $end
$upscope $end
$scope begin genblk1[5] $end
$var parameter 4 K i $end
$scope module multiplier_16x16_i $end
$var wire 16 L indata_a_i [15:0] $end
$var wire 16 M indata_b_i [15:0] $end
$var wire 32 N outdata_r_o [31:0] $end
$upscope $end
$upscope $end
$scope begin genblk1[6] $end
$var parameter 4 O i $end
$scope module multiplier_16x16_i $end
$var wire 16 P indata_a_i [15:0] $end
$var wire 16 Q indata_b_i [15:0] $end
$var wire 32 R outdata_r_o [31:0] $end
$upscope $end
$upscope $end
$scope begin genblk1[7] $end
$var parameter 4 S i $end
$scope module multiplier_16x16_i $end
$var wire 16 T indata_a_i [15:0] $end
$var wire 16 U indata_b_i [15:0] $end
$var wire 32 V outdata_r_o [31:0] $end
$upscope $end
$upscope $end
$scope begin genblk1[8] $end
$var parameter 5 W i $end
$scope module multiplier_16x16_i $end
$var wire 16 X indata_a_i [15:0] $end
$var wire 16 Y indata_b_i [15:0] $end
$var wire 32 Z outdata_r_o [31:0] $end
$upscope $end
$upscope $end
$scope begin genblk1[9] $end
$var parameter 5 [ i $end
$scope module multiplier_16x16_i $end
$var wire 16 \ indata_a_i [15:0] $end
$var wire 16 ] indata_b_i [15:0] $end
$var wire 32 ^ outdata_r_o [31:0] $end
$upscope $end
$upscope $end
$scope begin genblk1[10] $end
$var parameter 5 _ i $end
$scope module multiplier_16x16_i $end
$var wire 16 ` indata_a_i [15:0] $end
$var wire 16 a indata_b_i [15:0] $end
$var wire 32 b outdata_r_o [31:0] $end
$upscope $end
$upscope $end
$scope begin genblk1[11] $end
$var parameter 5 c i $end
$scope module multiplier_16x16_i $end
$var wire 16 d indata_a_i [15:0] $end
$var wire 16 e indata_b_i [15:0] $end
$var wire 32 f outdata_r_o [31:0] $end
$upscope $end
$upscope $end
$scope begin genblk1[12] $end
$var parameter 5 g i $end
$scope module multiplier_16x16_i $end
$var wire 16 h indata_a_i [15:0] $end
$var wire 16 i indata_b_i [15:0] $end
$var wire 32 j outdata_r_o [31:0] $end
$upscope $end
$upscope $end
$scope begin genblk1[13] $end
$var parameter 5 k i $end
$scope module multiplier_16x16_i $end
$var wire 16 l indata_a_i [15:0] $end
$var wire 16 m indata_b_i [15:0] $end
$var wire 32 n outdata_r_o [31:0] $end
$upscope $end
$upscope $end
$scope begin genblk1[14] $end
$var parameter 5 o i $end
$scope module multiplier_16x16_i $end
$var wire 16 p indata_a_i [15:0] $end
$var wire 16 q indata_b_i [15:0] $end
$var wire 32 r outdata_r_o [31:0] $end
$upscope $end
$upscope $end
$scope begin genblk1[15] $end
$var parameter 5 s i $end
$scope module multiplier_16x16_i $end
$var wire 16 t indata_a_i [15:0] $end
$var wire 16 u indata_b_i [15:0] $end
$var wire 32 v outdata_r_o [31:0] $end
$upscope $end
$upscope $end
$scope begin $ivl_for_loop0 $end
$var integer 32 w i [31:0] $end
$upscope $end
$upscope $end
$scope module multiplier_precomp $end
$var wire 64 x indata_a_i [63:0] $end
$var wire 64 y indata_b_i [63:0] $end
$var reg 128 z outdata_r_o [127:0] $end
$scope begin genblk1[0] $end
$var parameter 2 { i $end
$scope module multiplier_16x16_i $end
$var wire 16 | indata_a_i [15:0] $end
$var wire 16 } indata_b_i [15:0] $end
$var wire 32 ~ outdata_r_o [31:0] $end
$upscope $end
$upscope $end
$scope begin genblk1[1] $end
$var parameter 2 !" i $end
$scope module multiplier_16x16_i $end
$var wire 16 "" indata_a_i [15:0] $end
$var wire 16 #" indata_b_i [15:0] $end
$var wire 32 $" outdata_r_o [31:0] $end
$upscope $end
$upscope $end
$scope begin genblk1[2] $end
$var parameter 3 %" i $end
$scope module multiplier_16x16_i $end
$var wire 16 &" indata_a_i [15:0] $end
$var wire 16 '" indata_b_i [15:0] $end
$var wire 32 (" outdata_r_o [31:0] $end
$upscope $end
$upscope $end
$scope begin genblk1[3] $end
$var parameter 3 )" i $end
$scope module multiplier_16x16_i $end
$var wire 16 *" indata_a_i [15:0] $end
$var wire 16 +" indata_b_i [15:0] $end
$var wire 32 ," outdata_r_o [31:0] $end
$upscope $end
$upscope $end
$scope begin genblk1[4] $end
$var parameter 4 -" i $end
$scope module multiplier_16x16_i $end
$var wire 16 ." indata_a_i [15:0] $end
$var wire 16 /" indata_b_i [15:0] $end
$var wire 32 0" outdata_r_o [31:0] $end
$upscope $end
$upscope $end
$scope begin genblk1[5] $end
$var parameter 4 1" i $end
$scope module multiplier_16x16_i $end
$var wire 16 2" indata_a_i [15:0] $end
$var wire 16 3" indata_b_i [15:0] $end
$var wire 32 4" outdata_r_o [31:0] $end
$upscope $end
$upscope $end
$scope begin genblk1[6] $end
$var parameter 4 5" i $end
$scope module multiplier_16x16_i $end
$var wire 16 6" indata_a_i [15:0] $end
$var wire 16 7" indata_b_i [15:0] $end
$var wire 32 8" outdata_r_o [31:0] $end
$upscope $end
$upscope $end
$scope begin genblk1[7] $end
$var parameter 4 9" i $end
$scope module multiplier_16x16_i $end
$var wire 16 :" indata_a_i [15:0] $end
$var wire 16 ;" indata_b_i [15:0] $end
$var wire 32 <" outdata_r_o [31:0] $end
$upscope $end
$upscope $end
$scope begin genblk1[8] $end
$var parameter 5 =" i $end
$scope module multiplier_16x16_i $end
$var wire 16 >" indata_a_i [15:0] $end
$var wire 16 ?" indata_b_i [15:0] $end
$var wire 32 @" outdata_r_o [31:0] $end
$upscope $end
$upscope $end
$scope begin genblk1[9] $end
$var parameter 5 A" i $end
$scope module multiplier_16x16_i $end
$var wire 16 B" indata_a_i [15:0] $end
$var wire 16 C" indata_b_i [15:0] $end
$var wire 32 D" outdata_r_o [31:0] $end
$upscope $end
$upscope $end
$scope begin genblk1[10] $end
$var parameter 5 E" i $end
$scope module multiplier_16x16_i $end
$var wire 16 F" indata_a_i [15:0] $end
$var wire 16 G" indata_b_i [15:0] $end
$var wire 32 H" outdata_r_o [31:0] $end
$upscope $end
$upscope $end
$scope begin genblk1[11] $end
$var parameter 5 I" i $end
$scope module multiplier_16x16_i $end
$var wire 16 J" indata_a_i [15:0] $end
$var wire 16 K" indata_b_i [15:0] $end
$var wire 32 L" outdata_r_o [31:0] $end
$upscope $end
$upscope $end
$scope begin genblk1[12] $end
$var parameter 5 M" i $end
$scope module multiplier_16x16_i $end
$var wire 16 N" indata_a_i [15:0] $end
$var wire 16 O" indata_b_i [15:0] $end
$var wire 32 P" outdata_r_o [31:0] $end
$upscope $end
$upscope $end
$scope begin genblk1[13] $end
$var parameter 5 Q" i $end
$scope module multiplier_16x16_i $end
$var wire 16 R" indata_a_i [15:0] $end
$var wire 16 S" indata_b_i [15:0] $end
$var wire 32 T" outdata_r_o [31:0] $end
$upscope $end
$upscope $end
$scope begin genblk1[14] $end
$var parameter 5 U" i $end
$scope module multiplier_16x16_i $end
$var wire 16 V" indata_a_i [15:0] $end
$var wire 16 W" indata_b_i [15:0] $end
$var wire 32 X" outdata_r_o [31:0] $end
$upscope $end
$upscope $end
$scope begin genblk1[15] $end
$var parameter 5 Y" i $end
$scope module multiplier_16x16_i $end
$var wire 16 Z" indata_a_i [15:0] $end
$var wire 16 [" indata_b_i [15:0] $end
$var wire 32 \" outdata_r_o [31:0] $end
$upscope $end
$upscope $end
$scope begin $ivl_for_loop0 $end
$var integer 32 ]" i [31:0] $end
$upscope $end
$upscope $end
$upscope $end
$upscope $end
$enddefinitions $end
$comment Show the parameter values. $end
$dumpall
b1111 Y"
b1110 U"
b1101 Q"
b1100 M"
b1011 I"
b1010 E"
b1001 A"
b1000 ="
b111 9"
b110 5"
b101 1"
b100 -"
b11 )"
b10 %"
b1 !"
b0 {
b1111 s
b1110 o
b1101 k
b1100 g
b1011 c
b1010 _
b1001 [
b1000 W
b111 S
b110 O
b101 K
b100 G
b11 C
b10 ?
b1 ;
b0 7
$end
#0
$dumpvars
b10000 ]"
b0 \"
b0 ["
b0 Z"
b0 X"
b0 W"
b1011010100000 V"
b0 T"
b0 S"
b1001100001100000 R"
b0 P"
b0 O"
b1101110111011000 N"
b0 L"
b0 K"
b0 J"
b0 H"
b0 G"
b1011010100000 F"
b0 D"
b0 C"
b1001100001100000 B"
b0 @"
b0 ?"
b1101110111011000 >"
b0 <"
b10000000 ;"
b0 :"
b10110101000000000000 8"
b10000000 7"
b1011010100000 6"
b10011000011000000000000 4"
b10000000 3"
b1001100001100000 2"
b11011101110110000000000 0"
b10000000 /"
b1101110111011000 ."
b0 ,"
b10000000000111 +"
b0 *"
b10110101001001111001100000 ("
b10000000000111 '"
b1011010100000 &"
b10011000100000010101010100000 $"
b10000000000111 #"
b1001100001100000 ""
b11011110000010001000011101000 ~
b10000000000111 }
b1101110111011000 |
b10110101001100100000111000011101111100110010011000010001000011101000 z
b100000000010000000000111 y
b101101010000010011000011000001101110111011000 x
b10000 w
b0 v
b0 u
b0 t
b0 r
b0 q
b0 p
b0 n
b0 m
b101101 l
b0 j
b0 i
b100110010000011 h
b0 f
b0 e
b0 d
b0 b
b0 a
b0 `
b0 ^
b0 ]
b101101 \
b0 Z
b0 Y
b100110010000011 X
b0 V
b1111111 U
b0 T
b0 R
b1111111 Q
b0 P
b1011001010011 N
b1111111 M
b101101 L
b1001011111010011111101 J
b1111111 I
b100110010000011 H
b0 F
b1110000000000001 E
b0 D
b0 B
b1110000000000001 A
b0 @
b1001110110000000101101 >
b1110000000000001 =
b101101 <
b1000010111100101110110010000011 :
b1110000000000001 9
b100110010000011 8
b101101010000010011000000111001110110010000011 6
b11111111110000000000001 5
b1011010100110010000011 4
b1011010100110010000011 3
b101101010000010011000000111001110110010000011 2
b10000111111000101010101 1
b10000111111000101010101 0
b10110101001100100000111000011101111100110010011000010001000011101000 /
b101101010000010011000011000001101110111011000 .
b100000000010000000000111 -
b11111111110000000000001 ,
b10111 +
b10000000000000000000000000000011 *
0)
0(
bx '
b101101010000010011000011000001101110111011000 &
0%
b10000111111000101010101 $
b100000000010000000000111 #
b11111111110000000000001 "
b10111 !
$end
#5
b10000 w
b1101001000010011011011111010010010010 2
b1101001000010011011011111010010010010 6
b101101111111111111010010010010 :
b11010010010010 8
b0 >
b0 <
b110100001010001101110 J
b11010010010010 H
b0 N
b0 L
b11010010010010 X
b0 \
b11010010010010 h
b0 l
b10010001100100011110111 $
b10010001100100011110111 0
b11010010010010 3
b11010010010010 4
b10000 ]"
b110100100100101001000110110101101111001100000100111010111111 /
b110100100100101001000110110101101111001100000100111010111111 z
b10010001100100011110111 1
b10111101101100100111010111111 ~
b1011110110001001 |
b1000010110001001001011111010 $"
b100001010110110 ""
b110100000010110110 ("
b11010 &"
b10111101100010010000000 0"
b1011110110001001 ."
b1000010101101100000000 4"
b100001010110110 2"
b110100000000 8"
b11010 6"
b1011110110001001 >"
b100001010110110 B"
b11010 F"
b1011110110001001 N"
b100001010110110 R"
b11010 V"
b1101001000010101101101011110110001001 &
b1101001000010101101101011110110001001 .
b1101001000010101101101011110110001001 x
b10000111111000101010101 '
1%
#10
b10000 w
b11011001000000101010001101110110011100011110 2
b11011001000000101010001101110110011100011110 6
b100010001110100110011100011110 :
b10011100011110 8
b101111010000000011011 >
b11011 <
b100110110011111100010 J
b10011100011110 H
b110101100101 N
b11011 L
b10011100011110 X
b11011 \
b10011100011110 h
b11011 l
b11111011010010100010110 $
b11111011010010100010110 0
b110110010011100011110 3
b110110010011100011110 4
b10000 ]"
b1101100100111000111101111101100110111100110011110011101010101101100 /
b1101100100111000111101111101100110111100110011110011101010101101100 z
b11111011010010100010110 1
b1100001101101010101101100 ~
b110000110100 |
b101010101111100101011110011 $"
b10101010110101 ""
b1101100100101111011110000 ("
b110110010000 &"
b1100001101000000000 0"
b110000110100 ."
b101010101101010000000 4"
b10101010110101 2"
b1101100100000000000 8"
b110110010000 6"
b110000110100 >"
b10101010110101 B"
b110110010000 F"
b110000110100 N"
b10101010110101 R"
b110110010000 V"
b11011001000000101010101101010000110000110100 &
b11011001000000101010101101010000110000110100 .
b11011001000000101010101101010000110000110100 x
b10010001100100011110111 '
0%
#15
b10000 w
b100111101110010101110101111100000001101001110 2
b100111101110010101110101111100000001101001110 6
b10101010111001010000001101001110 :
b1100001101001110 8
b1000100010000000100111 >
b100111 <
b11000001110001110110010 J
b1100001101001110 H
b1001101011001 N
b100111 L
b1100001101001110 X
b100111 \
b1100001101001110 h
b100111 l
b11111011000010000001101 $
b11111011000010000001101 0
b1001111100001101001110 3
b1001111100001101001110 4
b10000 ]"
b10011111000011010011101111101011001111101001000011000001001101111101 /
b10011111000011010011101111101011001111101001000011000001001101111101 z
b11111011000010000001101 1
b10000111011110001001101111101 ~
b1000011101011011 |
b10101111011000010101010011101 $"
b1010111100111011 ""
b10011111000000101100000100 ("
b1001111011100 &"
b10000111010110110000000 0"
b1000011101011011 ."
b10101111001110110000000 4"
b1010111100111011 2"
b10011110111000000000 8"
b1001111011100 6"
b1000011101011011 >"
b1010111100111011 B"
b1001111011100 F"
b1000011101011011 N"
b1010111100111011 R"
b1001111011100 V"
b100111101110010101111001110111000011101011011 &
b100111101110010101111001110111000011101011011 .
b100111101110010101111001110111000011101011011 x
b11111011010010100010110 '
1%
#20
b10000 w
b11101100001100010000111011001110110110000101 2
b11101100001100010000111011001110110110000101 6
b1111011110101001110110110000101 :
b1000110110000101 8
b110010110000000011101 >
b11101 <
b10001100011010011111011 J
b1000110110000101 H
b111001100011 N
b11101 L
b1000110110000101 X
b11101 \
b1000110110000101 h
b11101 l
b110110101011011010100 $
b110110101011011010100 0
b111011000110110000101 3
b111011000110110000101 4
b10000 ]"
b1110110001101100001010011011001100010101100010001001111111001101111 /
b1110110001101100001010011011001100010101100010001001111111001101111 z
b110110101011011010100 1
b1000100011001111111001101111 ~
b100010001011001 |
b10001000010111011100111000 $"
b1000100001000 ""
b1110110001100011101010101 ("
b111011000011 &"
b1000100010110010000000 0"
b100010001011001 ."
b10001000010000000000 4"
b1000100001000 2"
b1110110000110000000 8"
b111011000011 6"
b100010001011001 >"
b1000100001000 B"
b111011000011 F"
b100010001011001 N"
b1000100001000 R"
b111011000011 V"
b11101100001100010001000010000100010001011001 &
b11101100001100010001000010000100010001011001 .
b11101100001100010001000010000100010001011001 x
b11111011000010000001101 '
0%
#25
b10000 w
b101111110111000000111101011101100100000001001 2
b101111110111000000111101011101100100000001001 6
b11001011000010001100100000001001 :
b1110100000001001 8
b1010010010000000101111 >
b101111 <
b11100110001110001110111 J
b1110100000001001 H
b1011101010001 N
b101111 L
b1110100000001001 X
b101111 \
b1110100000001001 h
b101111 l
b1111110010111111010000 $
b1111110010111111010000 0
b1011111110100000001001 3
b1011111110100000001001 4
b10000 ]"
b10111111101000000010010111110111101111100010111111001110011011101111 /
b10111111101000000010010111110111101111100010111111001110011011101111 z
b1111110010111111010000 1
b11111000000011110011011101111 ~
b1111011111011001 |
b111111011101011101111011 $"
b11111101101 ""
b10111111100110011110000010 ("
b1011111101110 &"
b11110111110110010000000 0"
b1111011111011001 ."
b111111011010000000 4"
b11111101101 2"
b10111111011100000000 8"
b1011111101110 6"
b1111011111011001 >"
b11111101101 B"
b1011111101110 F"
b1111011111011001 N"
b11111101101 R"
b1011111101110 V"
b101111110111000000111111011011111011111011001 &
b101111110111000000111111011011111011111011001 .
b101111110111000000111111011011111011111011001 x
b110110101011011010100 '
1%
#30
b10000 w
b10001001111100000100110001100000001001011010 2
b10001001111100000100110001100000001001011010 6
b111010000011110000001001011010 :
b100001001011010 8
b11101110000000010001 >
b10001 <
b1000001110101010100110 J
b100001001011010 H
b100001101111 N
b10001 L
b100001001011010 X
b10001 \
b100001001011010 h
b10001 l
b11010111011011000110010 $
b11010111011011000110010 0
b100010100001001011010 3
b100010100001001011010 4
b10000 ]"
b1000101000010010110101101011101101110100001011011011000101111010100 /
b1000101000010010110101101011101101110100001011011011000101111010100 z
b11010111011011000110010 1
b10111000101101000101111010100 ~
b1011100010001100 |
b101001100100010001010111 $"
b10100110001 ""
b1000101000001110001011001 ("
b100010011111 &"
b10111000100011000000000 0"
b1011100010001100 ."
b101001100010000000 4"
b10100110001 2"
b1000100111110000000 8"
b100010011111 6"
b1011100010001100 >"
b10100110001 B"
b100010011111 F"
b1011100010001100 N"
b10100110001 R"
b100010011111 V"
b10001001111100000101001100011011100010001100 &
b10001001111100000101001100011011100010001100 .
b10001001111100000101001100011011100010001100 x
b1111110010111111010000 '
0%
#35
b10000 w
b111000111111000100001011010000110101010000101 2
b111000111111000100001011010000110101010000101 6
b1001001101000110101010000101 :
b101010000101 8
b1100011110000000111001 >
b111001 <
b1010011011111111011 J
b101010000101 H
b1110001000111 N
b111001 L
b101010000101 X
b111001 \
b101010000101 h
b111001 l
b10000011011011111011 $
b10000011011011111011 0
b1110010000101010000101 3
b1110010000101010000101 4
b10000 ]"
b11100100001010100001010000111111000110111110010001000110101010000000 /
b11100100001010100001010000111111000110111110010001000110101010000000 z
b10000011011011111011 1
b10100001101000110101010000000 ~
b1010000110000000 |
b100001011101110101000010000 $"
b10000101110000 ""
b11100100001000011101110010 ("
b1110001111110 &"
b10100001100000000000000 0"
b1010000110000000 ."
b100001011100000000000 4"
b10000101110000 2"
b11100011111100000000 8"
b1110001111110 6"
b1010000110000000 >"
b10000101110000 B"
b1110001111110 F"
b1010000110000000 N"
b10000101110000 R"
b1110001111110 V"
b111000111111000100001011100001010000110000000 &
b111000111111000100001011100001010000110000000 .
b111000111111000100001011100001010000110000000 x
b11010111011011000110010 '
1%
#40
b10000 w
b1101110011101011101110001111101001000110000 2
b1101110011101011101110001111101001000110000 6
b10110111111010101101001000110000 :
b1101001000110000 8
b10110110000000001101 >
b1101 <
b11010000100010111010000 J
b1101001000110000 H
b11001110011 N
b1101 L
b1101001000110000 X
b1101 \
b1101001000110000 h
b1101 l
b1001100110100001011011 $
b1001100110100001011011 0
b11011101001000110000 3
b11011101001000110000 4
b10000 ]"
b110111010010001100000100110010111010011110010101001111100111001101 /
b110111010010001100000100110010111010011110010101001111100111001101 z
b1001100110100001011011 1
b111010100101111100111001101 ~
b11101010001011 |
b1011110000000101000110000010 $"
b101110111101110 ""
b110111010001000001010001 ("
b11011100111 &"
b111010100010110000000 0"
b11101010001011 ."
b1011101111011100000000 4"
b101110111101110 2"
b110111001110000000 8"
b11011100111 6"
b11101010001011 >"
b101110111101110 B"
b11011100111 F"
b11101010001011 N"
b101110111101110 R"
b11011100111 V"
b1101110011101011101111011100011101010001011 &
b1101110011101011101111011100011101010001011 .
b1101110011101011101111011100011101010001011 x
b10000011011011111011 '
0%
#45
b10000 w
b100011100000111110110100010011000110011010000 2
b100011100000111110110100010011000110011010000 6
b1111011001101101000110011010000 :
b1000110011010000 8
b111101010000000100011 >
b100011 <
b10001011101101100110000 J
b1000110011010000 H
b1000101011101 N
b100011 L
b1000110011010000 X
b100011 \
b1000110011010000 h
b100011 l
b1001000100100011010110 $
b1001000100100011010110 0
b1000111000110011010000 3
b1000111000110011010000 4
b10000 ]"
b10001110001100110100000100100000111001001100011101011001011110001010 /
b10001110001100110100000100100000111001001100011101011001011110001010 z
b1001000100100011010110 1
b11010101110101001011110001010 ~
b1101010110100110 |
b11110110111000101111010111011 $"
b1111011010101101 ""
b10001110001001110001000111 ("
b1000111000001 &"
b11010101101001100000000 0"
b1101010110100110 ."
b11110110101011010000000 4"
b1111011010101101 2"
b10001110000010000000 8"
b1000111000001 6"
b1101010110100110 >"
b1111011010101101 B"
b1000111000001 F"
b1101010110100110 N"
b1111011010101101 R"
b1000111000001 V"
b100011100000111110110101011011101010110100110 &
b100011100000111110110101011011101010110100110 .
b100011100000111110110101011011101010110100110 x
b1001100110100001011011 '
1%
#50
b10000 w
b10010011110101010100001010010111111101001 2
b10010011110101010100001010010111111101001 6
b1000101111011000010111111101001 :
b100111111101001 8
b11100000000000010 >
b10 <
b1001111010010010010111 J
b100111111101001 H
b11111110 N
b10 L
b100111111101001 X
b10 \
b100111111101001 h
b10 l
b10100100001000111100001 $
b10100100001000111100001 0
b100100111111101001 3
b100100111111101001 4
b10000 ]"
b1001001111111010011010010001000101111001000111000000110010000110 /
b1001001111111010011010010001000101111001000111000000110010000110 z
b10100100001000111100001 1
b1000001110110000110010000110 ~
b100000111001010 |
b10101010111111000101111100001 $"
b1010101011010111 ""
b1001001110100000010001 ("
b100100111 &"
b1000001110010100000000 0"
b100000111001010 ."
b10101010110101110000000 4"
b1010101011010111 2"
b1001001110000000 8"
b100100111 6"
b100000111001010 >"
b1010101011010111 B"
b100100111 F"
b100000111001010 N"
b1010101011010111 R"
b100100111 V"
b10010011110101010110101110100000111001010 &
b10010011110101010110101110100000111001010 .
b10010011110101010110101110100000111001010 x
b1001000100100011010110 '
0%
#55
b10000 w
b1000110000001010000101011101000001011010010000 2
b1000110000001010000101011101000001011010010000 6
b10011101111100001011010010000 :
b1011010010000 8
b1111010100000001000110 >
b1000110 <
b10110011000101110000 J
b1011010010000 H
b10001010111010 N
b1000110 L
b1011010010000 X
b1000110 \
b1011010010000 h
b1000110 l
b10001001110010100010000 $
b10001001110010100010000 0
b10001100001011010010000 3
b10001100001011010010000 4
b10000 ]"
b100011000010110100100001000100100011010010111100000101110000101100000 /
b100011000010110100100001000100100011010010111100000101110000101100000 z
b10001001110010100010000 1
b11111011110101110000101100000 ~
b1111101110100000 |
b10000101110101010100000001000 $"
b1000010110111000 ""
b100011000010011010100001110 ("
b10001100000010 &"
b11111011101000000000000 0"
b1111101110100000 ."
b10000101101110000000000 4"
b1000010110111000 2"
b100011000000100000000 8"
b10001100000010 6"
b1111101110100000 >"
b1000010110111000 B"
b10001100000010 F"
b1111101110100000 N"
b1000010110111000 R"
b10001100000010 V"
b1000110000001010000101101110001111101110100000 &
b1000110000001010000101101110001111101110100000 .
b1000110000001010000101101110001111101110100000 x
b10100100001000111100001 '
1%
#60
b10000 w
b10111010110111110111110111100110000111001 2
b10111010110111110111110111100110000111001 6
b11001110101100101100110000111001 :
b1110110000111001 8
b11100000000000010 >
b10 <
b11101010011000001000111 J
b1110110000111001 H
b11111110 N
b10 L
b1110110000111001 X
b10 \
b1110110000111001 h
b10 l
b11001010111101101000111 $
b11001010111101101000111 0
b101110110000111001 3
b101110110000111001 4
b10000 ]"
b1011101100001110011100101100100000100100100110001111010010000000 /
b1011101100001110011100101100100000100100100110001111010010000000 z
b11001010111101101000111 1
b1000111100011111010010000000 ~
b100011110000000 |
b10111111100010101101110100111 $"
b1011111101100001 ""
b1011101010101000110011 ("
b101110101 &"
b1000111100000000000000 0"
b100011110000000 ."
b10111111011000010000000 4"
b1011111101100001 2"
b1011101010000000 8"
b101110101 6"
b100011110000000 >"
b1011111101100001 B"
b101110101 F"
b100011110000000 N"
b1011111101100001 R"
b101110101 V"
b10111010110111111011000010100011110000000 &
b10111010110111111011000010100011110000000 .
b10111010110111111011000010100011110000000 x
b10001001110010100010000 '
0%
#65
b10000 w
b10110000101110010100100000000001110010110000 2
b10110000101110010100100000000001110010110000 6
b11001000110100001110010110000 :
b1110010110000 8
b100110100000000010110 >
b10110 <
b11100011101101010000 J
b1110010110000 H
b101011101010 N
b10110 L
b1110010110000 X
b10110 \
b1110010110000 h
b10110 l
b10101010011001001101000 $
b10101010011001001101000 0
b101100001110010110000 3
b101100001110010110000 4
b10000 ]"
b1011000011100101100001010101001001101000111101110000010100110101000 /
b1011000011100101100001010101001001101000111101110000010100110101000 z
b10101010011001001101000 1
b1001111001010010100110101000 ~
b100111100011000 |
b10010100111101011000111010011 $"
b1001010011010101 ""
b1011000011010110101001101 ("
b101100001011 &"
b1001111000110000000000 0"
b100111100011000 ."
b10010100110101010000000 4"
b1001010011010101 2"
b1011000010110000000 8"
b101100001011 6"
b100111100011000 >"
b1001010011010101 B"
b101100001011 F"
b100111100011000 N"
b1001010011010101 R"
b101100001011 V"
b10110000101110010100110101010100111100011000 &
b10110000101110010100110101010100111100011000 .
b10110000101110010100110101010100111100011000 x
b11001010111101101000111 '
1%
#70
b10000 w
b110010110011001100111000000100101100110000100 2
b110010110011001100111000000100101100110000100 6
b10111110010101000101100110000100 :
b1101100110000100 8
b1010111100000000110010 >
b110010 <
b11010111110100001111100 J
b1101100110000100 H
b1100011001110 N
b110010 L
b1101100110000100 X
b110010 \
b1101100110000100 h
b110010 l
b10001100001100111100110 $
b10001100001100111100110 0
b1100101101100110000100 3
b1100101101100110000100 4
b10000 ]"
b11001011011001100001001000101110111110010110011010000110011111100110 /
b11001011011001100001001000101110111110010110011010000110011111100110 z
b10001100001100111100110 1
b1110011100000110011111100110 ~
b111001101101010 |
b1100111010111101001011111000 $"
b110011101001000 ""
b11001011010111000111001010 ("
b1100101100110 &"
b1110011011010100000000 0"
b111001101101010 ."
b1100111010010000000000 4"
b110011101001000 2"
b11001011001100000000 8"
b1100101100110 6"
b111001101101010 >"
b110011101001000 B"
b1100101100110 F"
b111001101101010 N"
b110011101001000 R"
b1100101100110 V"
b110010110011001100111010010000111001101101010 &
b110010110011001100111010010000111001101101010 .
b110010110011001100111010010000111001101101010 x
b10101010011001001101000 '
0%
#75
b10000 w
b11100101000011110001011110110000100100001101 2
b11100101000011110001011110110000100100001101 6
b10010011111011000000100100001101 :
b1010100100001101 8
b110001000000000011100 >
b11100 <
b10100111101110101110011 J
b1010100100001101 H
b110111100100 N
b11100 L
b1010100100001101 X
b11100 \
b1010100100001101 h
b11100 l
b10100110011011011010101 $
b10100110011011011010101 0
b111001010100100001101 3
b111001010100100001101 4
b10000 ]"
b1110010101001000011011010011001000001010101100111111111111100101110 /
b1110010101001000011011010011001000001010101100111111111111100101110 z
b10100110011011011010101 1
b111111111011111111100101110 ~
b11111111100010 |
b11110010000000101110010100010 $"
b1111000111001110 ""
b1110010100110010000110000 ("
b111001010000 &"
b111111111000100000000 0"
b11111111100010 ."
b11110001110011100000000 4"
b1111000111001110 2"
b1110010100000000000 8"
b111001010000 6"
b11111111100010 >"
b1111000111001110 B"
b111001010000 F"
b11111111100010 N"
b1111000111001110 R"
b111001010000 V"
b11100101000011110001110011100011111111100010 &
b11100101000011110001110011100011111111100010 .
b11100101000011110001110011100011111111100010 x
b10001100001100111100110 '
1%
#80
b10000 w
b1100110100001100110000011001011010000000001 2
b1100110100001100110000011001011010000000001 6
b10111001100000011011010000000001 :
b1101010000000001 8
b10101000000000001100 >
b1100 <
b11010010010110001111111 J
b1101010000000001 H
b10111110100 N
b1100 L
b1101010000000001 X
b1100 \
b1101010000000001 h
b1100 l
b10100111100110100001111 $
b10100111100110100001111 0
b11001101010000000001 3
b11001101010000000001 4
b10000 ]"
b110011010100000000011010011110011101100100110001011000011101110000 /
b110011010100000000011010011110011101100100110001011000011101110000 z
b10100111100110100001111 1
b10000001001011000011101110000 ~
b1000000100010000 |
b1100110011101100110010100000 $"
b110011001100000 ""
b110011010010110011011000 ("
b11001101000 &"
b10000001000100000000000 0"
b1000000100010000 ."
b1100110011000000000000 4"
b110011001100000 2"
b110011010000000000 8"
b11001101000 6"
b1000000100010000 >"
b110011001100000 B"
b11001101000 F"
b1000000100010000 N"
b110011001100000 R"
b11001101000 V"
b1100110100001100110011000001000000100010000 &
b1100110100001100110011000001000000100010000 .
b1100110100001100110011000001000000100010000 x
b10100110011011011010101 '
0%
