algorithms_sv/montgomery_serial/montgomery_tb.vcd
$date
	Mon Apr 21 11:59:18 2025
$end
$version
	Icarus Verilog
$end
$timescale
	1s
$end
$scope module montgomery_tb $end
$var wire 64 ! outdata_r_o [63:0] $end
$var wire 1 " finish_o $end
$var reg 1 # clk_i $end
$var reg 64 $ indata_m_i [63:0] $end
$var reg 64 % indata_x [63:0] $end
$var reg 64 & indata_x_i [63:0] $end
$var reg 64 ' reference_o [63:0] $end
$var reg 1 ( rst_ni $end
$var reg 1 ) start_i $end
$var integer 32 * inp_file [31:0] $end
$scope module uut $end
$var wire 1 # clk_i $end
$var wire 64 + m_i [63:0] $end
$var wire 1 ( rst_ni $end
$var wire 1 ) start_i $end
$var wire 64 , x_i [63:0] $end
$var wire 1 " valid_o $end
$var wire 64 - result_o [63:0] $end
$var reg 64 . accumulator_n [63:0] $end
$var reg 64 / accumulator_p [63:0] $end
$var reg 3 0 curr_state [2:0] $end
$var reg 9 1 idx_n [8:0] $end
$var reg 9 2 idx_p [8:0] $end
$var reg 3 3 next_state [2:0] $end
$upscope $end
$upscope $end
$enddefinitions $end
$comment Show the parameter values. $end
$dumpall
$end
#0
$dumpvars
b0 3
bx 2
bx 1
bx 0
bx /
bx .
bx -
b101000001010110000101001110010000011101001110111001000100110 ,
b11101000110010111001001100010011000111101010001100001000011011 +
b10000000000000000000000000000011 *
0)
0(
bx '
b101000001010110000101001110010000011101001110111001000100110 &
b1111101000000010111110110101000110111111010100101111010001011001 %
b11101000110010111001001100010011000111101010001100001000011011 $
0#
x"
bx !
$end
#5
b0 1
b101000001010110000101001110010000011101001110111001000100110 .
b0 !
b0 -
b0 2
0"
b0 0
b101000001010110000101001110010000011101001110111001000100110 /
1#
#10
0#
#15
1#
#20
0#
1(
#25
1#
#30
b1 3
0#
1)
b1000100110111011010000011111010100000101011111110101111101101 '
#35
b1 1
b10100000101011000010100111001000001110100111011100100010011 .
b1 0
1#
#40
b1 1
b10100000101011000010100111001000001110100111011100100010011 .
0#
0)
#45
b10 1
b1111110011100001000110000100110000100101111100011110110010111 .
b1 2
b10100000101011000010100111001000001110100111011100100010011 /
1#
#50
0#
#55
b11 1
b10110011100111100000111110011100100110001100110111111111011001 .
b10 2
b1111110011100001000110000100110000100101111100011110110010111 /
1#
#60
0#
#65
b100 1
b11001110001101001101000101010111110110111011100010000011111010 .
b11 2
b10110011100111100000111110011100100110001100110111111111011001 /
1#
#70
0#
#75
b101 1
b1100111000110100110100010101011111011011101110001000001111101 .
b100 2
b11001110001101001101000101010111110110111011100010000011111010 /
1#
#80
0#
#85
b110 1
b10100111111100101111110111011111100001100011111110100101001100 .
b101 2
b1100111000110100110100010101011111011011101110001000001111101 /
1#
#90
0#
#95
b111 1
b1010011111110010111111011101111110000110001111111010010100110 .
b110 2
b10100111111100101111110111011111100001100011111110100101001100 /
1#
#100
0#
#105
b1000 1
b101001111111001011111101110111111000011000111111101001010011 .
b111 2
b1010011111110010111111011101111110000110001111111010010100110 /
1#
#110
0#
#115
b1001 1
b10001001011001000010100101000101100000000001100101111000110111 .
b1000 2
b101001111111001011111101110111111000011000111111101001010011 /
1#
#120
0#
#125
b1010 1
b10111001000101111101111000101100010011110101111001000000101001 .
b1001 2
b10001001011001000010100101000101100000000001100101111000110111 /
1#
#130
0#
#135
b1011 1
b11010000111100011011100010011111101101110000000010100100100010 .
b1010 2
b10111001000101111101111000101100010011110101111001000000101001 /
1#
#140
0#
#145
b1100 1
b1101000011110001101110001001111110110111000000001010010010001 .
b1011 2
b11010000111100011011100010011111101101110000000010100100100010 /
1#
#150
0#
#155
b1101 1
b10101000101000100011011110110001011111010001000110101101010110 .
b1100 2
b1101000011110001101110001001111110110111000000001010010010001 /
1#
#160
0#
#165
b1110 1
b1010100010100010001101111011000101111101000100011010110101011 .
b1101 2
b10101000101000100011011110110001011111010001000110101101010110 /
1#
#170
0#
#175
b1111 1
b10011110100011100101011101110101111011101001010111101111100011 .
b1110 2
b1010100010100010001101111011000101111101000100011010110101011 /
1#
#180
0#
#185
b10000 1
b11000011101011001111010101000100100001101001110001111011111111 .
b1111 2
b10011110100011100101011101110101111011101001010111101111100011 /
1#
#190
0#
#195
b10001 1
b11010110001111000100010000101011110100101001111111000010001101 .
b10000 2
b11000011101011001111010101000100100001101001110001111011111111 /
1#
#200
0#
#205
b10010 1
b11011111100000111110101110011111011110001010000101100101010100 .
b10001 2
b11010110001111000100010000101011110100101001111111000010001101 /
1#
#210
0#
#215
b10011 1
b1101111110000011111010111001111101111000101000010110010101010 .
b10010 2
b11011111100000111110101110011111011110001010000101100101010100 /
1#
#220
0#
#225
b10100 1
b110111111000001111101011100111110111100010100001011001010101 .
b10011 2
b1101111110000011111010111001111101111000101000010110010101010 /
1#
#230
0#
#235
b10101 1
b10010000010101100100011011111101011111100110010110110000111000 .
b10100 2
b110111111000001111101011100111110111100010100001011001010101 /
1#
#240
0#
#245
b10110 1
b1001000001010110010001101111110101111110011001011011000011100 .
b10101 2
b10010000010101100100011011111101011111100110010110110000111000 /
1#
#250
0#
#255
b10111 1
b100100000101011001000110111111010111111001100101101100001110 .
b10110 2
b1001000001010110010001101111110101111110011001011011000011100 /
1#
#260
0#
#265
b11000 1
b10010000010101100100011011111101011111100110010110110000111 .
b10111 2
b100100000101011001000110111111010111111001100101101100001110 /
1#
#270
0#
#275
b11001 1
b1111101011010110010110111111001011001110011011111011111010001 .
b11000 2
b10010000010101100100011011111101011111100110010110110000111 /
1#
#280
0#
#285
b11010 1
b10110011000110110110000010000110010000101110110101110011110110 .
b11001 2
b1111101011010110010110111111001011001110011011111011111010001 /
1#
#290
0#
#295
b11011 1
b1011001100011011011000001000011001000010111011010111001111011 .
b11010 2
b10110011000110110110000010000110010000101110110101110011110110 /
1#
#300
0#
#305
b11100 1
b10100001001011001010000110101011001000000000110011100001001011 .
b11011 2
b1011001100011011011000001000011001000010111011010111001111011 /
1#
#310
0#
#315
b11101 1
b11000100111111000001101001011111000111110101011111110100110011 .
b11100 2
b10100001001011001010000110101011001000000000110011100001001011 /
1#
#320
0#
#325
b11110 1
b11010110111000111101011010111001000111101111110101111110100111 .
b11101 2
b11000100111111000001101001011111000111110101011111110100110011 /
1#
#330
0#
#335
b11111 1
b11011111110101111011010011100110000111101101000001000011100001 .
b11110 2
b11010110111000111101011010111001000111101111110101111110100111 /
1#
#340
0#
#345
b100000 1
b11100100010100011010001111111100100111101011100110100101111110 .
b11111 2
b11011111110101111011010011100110000111101101000001000011100001 /
1#
#350
0#
#355
b100001 1
b1110010001010001101000111111110010011110101110011010010111111 .
b100000 2
b11100100010100011010001111111100100111101011100110100101111110 /
1#
#360
0#
#365
b100010 1
b10101101011110100011001010001000101101101111111111101101101101 .
b100001 2
b1110010001010001101000111111110010011110101110011010010111111 /
1#
#370
0#
#375
b100011 1
b11001011001000101110001011001101111010101101000101111011000100 .
b100010 2
b10101101011110100011001010001000101101101111111111101101101101 /
1#
#380
0#
#385
b100100 1
b1100101100100010111000101100110111101010110100010111101100010 .
b100011 2
b11001011001000101110001011001101111010101101000101111011000100 /
1#
#390
0#
#395
b100101 1
b110010110010001011100010110011011110101011010001011110110001 .
b100100 2
b1100101100100010111000101100110111101010110100010111101100010 /
1#
#400
0#
#405
b100110 1
b10001101110010100010010111100011010011001010101110110011100110 .
b100101 2
b110010110010001011100010110011011110101011010001011110110001 /
1#
#410
0#
#415
b100111 1
b1000110111001010001001011110001101001100101010111011001110011 .
b100110 2
b10001101110010100010010111100011010011001010101110110011100110 /
1#
#420
0#
#425
b101000 1
b10010111110110000101001100000010011000100111110001110001000111 .
b100111 2
b1000110111001010001001011110001101001100101010111011001110011 /
1#
#430
0#
#435
b101001 1
b11000000010100011111001100001010110000001000111110111100110001 .
b101000 2
b10010111110110000101001100000010011000100111110001110001000111 /
1#
#440
0#
#445
b101010 1
b11010100100011101100001100001110111011111001100101100010100110 .
b101001 2
b11000000010100011111001100001010110000001000111110111100110001 /
1#
#450
0#
#455
b101011 1
b1101010010001110110000110000111011101111100110010110001010011 .
b101010 2
b11010100100011101100001100001110111011111001100101100010100110 /
1#
#460
0#
#465
b101100 1
b10101001100010010111101001001101010010110011011111011100110111 .
b101011 2
b1101010010001110110000110000111011101111100110010110001010011 /
1#
#470
0#
#475
b101101 1
b11001001001010101000011010110000001101001110110101110010101001 .
b101100 2
b10101001100010010111101001001101010010110011011111011100110111 /
1#
#480
0#
#485
b101110 1
b11011000111110110000110011100001101010011100100000111101100010 .
b101101 2
b11001001001010101000011010110000001101001110110101110010101001 /
1#
#490
0#
#495
b101111 1
b1101100011111011000011001110000110101001110010000011110110001 .
b101110 2
b11011000111110110000110011100001101010011100100000111101100010 /
1#
#500
0#
#505
b110000 1
b10101010101001001000110011000001111110011100001110010011100110 .
b101111 2
b1101100011111011000011001110000110101001110010000011110110001 /
1#
#510
0#
#515
b110001 1
b1010101010100100100011001100000111111001110000111001001110011 .
b110000 2
b10101010101001001000110011000001111110011100001110010011100110 /
1#
#520
0#
#525
b110010 1
b10011111000011101110110010111010000011011100001001101001000111 .
b110001 2
b1010101010100100100011001100000111111001110000111001001110011 /
1#
#530
0#
#535
b110011 1
b11000011111011010011111111100110100101100011001010111000110001 .
b110010 2
b10011111000011101110110010111010000011011100001001101001000111 /
1#
#540
0#
#545
b110100 1
b11010110010111000110100101111100110110100110101011100000100110 .
b110011 2
b11000011111011010011111111100110100101100011001010111000110001 /
1#
#550
0#
#555
b110101 1
b1101011001011100011010010111110011011010011010101110000010011 .
b110100 2
b11010110010111000110100101111100110110100110101011100000100110 /
1#
#560
0#
#565
b110110 1
b10101001111111001110001111101000110001011110110000111100010111 .
b110101 2
b1101011001011100011010010111110011011010011010101110000010011 /
1#
#570
0#
#575
b110111 1
b11001001011001000011101101111101111100100100011110100010011001 .
b110110 2
b10101001111111001110001111101000110001011110110000111100010111 /
1#
#580
0#
#585
b111000 1
b11011001000101111110011101001000100010000111010101010101011010 .
b110111 2
b11001001011001000011101101111101111100100100011110100010011001 /
1#
#590
0#
#595
b111001 1
b1101100100010111111001110100100010001000011101010101010101101 .
b111000 2
b11011001000101111110011101001000100010000111010101010101011010 /
1#
#600
0#
#605
b111010 1
b10101010101010111100001101011011101100010110111011011001100100 .
b111001 2
b1101100100010111111001110100100010001000011101010101010101101 /
1#
#610
0#
#615
b111011 1
b1010101010101011110000110101101110110001011011101101100110010 .
b111010 2
b10101010101010111100001101011011101100010110111011011001100100 /
1#
#620
0#
#625
b111100 1
b101010101010101111000011010110111011000101101110110110011001 .
b111011 2
b1010101010101011110000110101101110110001011011101101100110010 /
1#
#630
0#
#635
b111101 1
b10001001101110110100000111110101000001010111111101011111011010 .
b111100 2
b101010101010101111000011010110111011000101101110110110011001 /
1#
#640
0#
#645
b111110 1
b1000100110111011010000011111010100000101011111110101111101101 .
b111101 2
b10001001101110110100000111110101000001010111111101011111011010 /
1#
#650
0#
#655
b10 3
b111110 2
b1000100110111011010000011111010100000101011111110101111101101 /
1#
#660
0#
#665
b1010110101010110110011001110000100111000111101011011111101 &
b1010110101010110110011001110000100111000111101011011111101 ,
b111100011010000011001110000111001111111011000110011101101101000 %
0(
b1000100110111011010000011111010100000101011111110101111101101 !
b1000100110111011010000011111010100000101011111110101111101101 -
1"
b10 0
1#
#670
0#
#675
b0 1
b1010110101010110110011001110000100111000111101011011111101 .
b0 3
b0 !
b0 -
b0 2
0"
b0 0
b1010110101010110110011001110000100111000111101011011111101 /
1#
#680
0#
#685
1#
1(
#690
0#
#695
b1 1
b1111001110100000111111111110000100110010001100100110010001100 .
b1 0
b1 3
1#
1)
b10001101010100111011000010011110000000100011011011100110010 '
#700
0#
#705
b1 2
b1111001110100000111111111110000100110010001100100110010001100 /
b10 1
b111100111010000011111111111000010011001000110010011001000110 .
1#
0)
#710
0#
#715
b11 1
b11110011101000001111111111100001001100100011001001100100011 .
b10 2
b111100111010000011111111111000010011001000110010011001000110 /
1#
#720
0#
#725
b100 1
b10000011100111111101100110000111101000100111010010101010011111 .
b11 2
b11110011101000001111111111100001001100100011001001100100011 /
1#
#730
0#
#735
b101 1
b10110110001101011011011001001101011000001000101111011001011101 .
b100 2
b10000011100111111101100110000111101000100111010010101010011111 /
1#
#740
0#
#745
b110 1
b11001111100000001010010010110000001111111001011101110000111100 .
b101 2
b10110110001101011011011001001101011000001000101111011001011101 /
1#
#750
0#
#755
b111 1
b1100111110000000101001001011000000111111100101110111000011110 .
b110 2
b11001111100000001010010010110000001111111001011101110000111100 /
1#
#760
0#
#765
b1000 1
b110011111000000010100100101100000011111110010111011100001111 .
b111 2
b1100111110000000101001001011000000111111100101110111000011110 /
1#
#770
0#
#775
b1001 1
b10001110010101011101111000011111100101110100010001110010010101 .
b1000 2
b110011111000000010100100101100000011111110010111011100001111 /
1#
#780
0#
#785
b1010 1
b10111011100100001011100010011001010110101111001110111101011000 .
b1001 2
b10001110010101011101111000011111100101110100010001110010010101 /
1#
#790
0#
#795
b1011 1
b1011101110010000101110001001100101011010111100111011110101100 .
b1010 2
b10111011100100001011100010011001010110101111001110111101011000 /
1#
#800
0#
#805
b1100 1
b101110111001000010111000100110010101101011110011101111010110 .
b1011 2
b1011101110010000101110001001100101011010111100111011110101100 /
1#
#810
0#
#815
b1101 1
b10111011100100001011100010011001010110101111001110111101011 .
b1100 2
b101110111001000010111000100110010101101011110011101111010110 /
1#
#820
0#
#825
b1110 1
b10000000000111101101010100010011001001010000000011000000000011 .
b1101 2
b10111011100100001011100010011001010110101111001110111101011 /
1#
#830
0#
#835
b1111 1
b10110100011101010011010000010011001000011101000111100100001111 .
b1110 2
b10000000000111101101010100010011001001010000000011000000000011 /
1#
#840
0#
#845
b10000 1
b11001110101000000110001110010011001000000011101001110110010101 .
b1111 2
b10110100011101010011010000010011001000011101000111100100001111 /
1#
#850
0#
#855
b10001 1
b11011011101101011111101101010011000111110110111010111111011000 .
b10000 2
b11001110101000000110001110010011001000000011101001110110010101 /
1#
#860
0#
#865
b10010 1
b1101101110110101111110110101001100011111011011101011111101100 .
b10001 2
b11011011101101011111101101010011000111110110111010111111011000 /
1#
#870
0#
#875
b10011 1
b110110111011010111111011010100110001111101101110101111110110 .
b10010 2
b1101101110110101111110110101001100011111011011101011111101100 /
1#
#880
0#
#885
b10100 1
b11011011101101011111101101010011000111110110111010111111011 .
b10011 2
b110110111011010111111011010100110001111101101110101111110110 /
1#
#890
0#
#895
b10101 1
b10000010001000010010100100111110110000010100100001110000001011 .
b10100 2
b11011011101101011111101101010011000111110110111010111111011 /
1#
#900
0#
#905
b10110 1
b10110101011101100101111000101000111011111111010110111100010011 .
b10101 2
b10000010001000010010100100111110110000010100100001110000001011 /
1#
#910
0#
#915
b10111 1
b11001111001000001111100010011110000001110100110001100010010111 .
b10110 2
b10110101011101100101111000101000111011111111010110111100010011 /
1#
#920
0#
#925
b11000 1
b11011011111101100100010111011000100100101111011110110101011001 .
b10111 2
b11001111001000001111100010011110000001110100110001100010010111 /
1#
#930
0#
#935
b11001 1
b11100010011000001110110001110101110110001100110101011110111010 .
b11000 2
b11011011111101100100010111011000100100101111011110110101011001 /
1#
#940
0#
#945
b11010 1
b1110001001100000111011000111010111011000110011010101111011101 .
b11001 2
b11100010011000001110110001110101110110001100110101011110111010 /
1#
#950
0#
#955
b11011 1
b10101100111111100000010010100111000001011000010011011011111100 .
b11010 2
b1110001001100000111011000111010111011000110011010101111011101 /
1#
#960
0#
#965
b11100 1
b1010110011111110000001001010011100000101100001001101101111110 .
b11011 2
b10101100111111100000010010100111000001011000010011011011111100 /
1#
#970
0#
#975
b11101 1
b101011001111111000000100101001110000010110000100110110111111 .
b11100 2
b1010110011111110000001001010011100000101100001001101101111110 /
1#
#980
0#
#985
b11110 1
b10001010000001011000101000011110011100000000001000011111101101 .
b11101 2
b101011001111111000000100101001110000010110000100110110111111 /
1#
#990
0#
#995
b11111 1
b10111001011010001000111010011000110001110101001010010100000100 .
b11110 2
b10001010000001011000101000011110011100000000001000011111101101 /
1#
#1000
0#
#1005
b100000 1
b1011100101101000100011101001100011000111010100101001010000010 .
b11111 2
b10111001011010001000111010011000110001110101001010010100000100 /
1#
#1010
0#
#1015
b100001 1
b101110010110100010001110100110001100011101010010100101000001 .
b100000 2
b1011100101101000100011101001100011000111010100101001010000010 /
1#
#1020
0#
#1025
b100010 1
b10001011100100101101101101011100101010000011101111010110101110 .
b100001 2
b101110010110100010001110100110001100011101010010100101000001 /
1#
#1030
0#
#1035
b100011 1
b1000101110010010110110110101110010101000001110111101011010111 .
b100010 2
b10001011100100101101101101011100101010000011101111010110101110 /
1#
#1040
0#
#1045
b100100 1
b10010111010010101000000001100000101110010110000001111001111001 .
b100011 2
b1000101110010010110110110101110010101000001110111101011010111 /
1#
#1050
0#
#1055
b100101 1
b11000000000010110000100110111001111011000000000111000001001010 .
b100100 2
b10010111010010101000000001100000101110010110000001111001111001 /
1#
#1060
0#
#1065
b100110 1
b1100000000001011000010011011100111101100000000011100000100101 .
b100101 2
b11000000000010110000100110111001111011000000000111000001001010 /
1#
#1070
0#
#1075
b100111 1
b10100100011010001000101111111000000010100101000111110100100000 .
b100110 2
b1100000000001011000010011011100111101100000000011100000100101 /
1#
#1080
0#
#1085
b101000 1
b1010010001101000100010111111100000001010010100011111010010000 .
b100111 2
b10100100011010001000101111111000000010100101000111110100100000 /
1#
#1090
0#
#1095
b101001 1
b101001000110100010001011111110000000101001010001111101001000 .
b101000 2
b1010010001101000100010111111100000001010010100011111010010000 /
1#
#1100
0#
#1105
b101010 1
b10100100011010001000101111111000000010100101000111110100100 .
b101001 2
b101001000110100010001011111110000000101001010001111101001000 /
1#
#1110
0#
#1115
b101011 1
b1010010001101000100010111111100000001010010100011111010010 .
b101010 2
b10100100011010001000101111111000000010100101000111110100100 /
1#
#1120
0#
#1125
b101100 1
b101001000110100010001011111110000000101001010001111101001 .
b101011 2
b1010010001101000100010111111100000001010010100011111010010 /
1#
#1130
0#
#1135
b101101 1
b1110110111101110110101110111001011011110111101011001100000010 .
b101100 2
b101001000110100010001011111110000000101001010001111101001 /
1#
#1140
0#
#1145
b101110 1
b111011011110111011010111011100101101111011110101100110000001 .
b101101 2
b1110110111101110110101110111001011011110111101011001100000010 /
1#
#1150
0#
#1155
b101111 1
b10010010001000111010010001110111111010110011000000110111001110 .
b101110 2
b111011011110111011010111011100101101111011110101100110000001 /
1#
#1160
0#
#1165
b110000 1
b1001001000100011101001000111011111101011001100000011011100111 .
b101111 2
b10010010001000111010010001110111111010110011000000110111001110 /
1#
#1170
0#
#1175
b110001 1
b10011000111011101011001010100111100010100001110110010010000001 .
b110000 2
b1001001000100011101001000111011111101011001100000011011100111 /
1#
#1180
0#
#1185
b110010 1
b11000000110111010010001011011101010101000110000001001101001110 .
b110001 2
b10011000111011101011001010100111100010100001110110010010000001 /
1#
#1190
0#
#1195
b110011 1
b1100000011011101001000101101110101010100011000000100110100111 .
b110010 2
b11000000110111010010001011011101010101000110000001001101001110 /
1#
#1200
0#
#1205
b110100 1
b10100100100111010001001001000000111001000110100110010111100001 .
b110011 2
b1100000011011101001000101101110101010100011000000100110100111 /
1#
#1210
0#
#1215
b110101 1
b11000110101101000101001010101010000000011000011001001111111110 .
b110100 2
b10100100100111010001001001000000111001000110100110010111100001 /
1#
#1220
0#
#1225
b110110 1
b1100011010110100010100101010101000000001100001100100111111111 .
b110101 2
b11000110101101000101001010101010000000011000011001001111111110 /
1#
#1230
0#
#1235
b110111 1
b10100110000100101101111000110100000011111011001100011000001101 .
b110110 2
b1100011010110100010100101010101000000001100001100100111111111 /
1#
#1240
0#
#1245
b111000 1
b11000111011011110011100010100011100101110010101100010000010100 .
b110111 2
b10100110000100101101111000110100000011111011001100011000001101 /
1#
#1250
0#
#1255
b111001 1
b1100011101101111001110001010001110010111001010110001000001010 .
b111000 2
b11000111011011110011100010100011100101110010101100010000010100 /
1#
#1260
0#
#1265
b111010 1
b110001110110111100111000101000111001011100101011000100000101 .
b111001 2
b1100011101101111001110001010001110010111001010110001000001010 /
1#
#1270
0#
#1275
b111011 1
b10001101010100111011000010011110000000100011011011100110010000 .
b111010 2
b110001110110111100111000101000111001011100101011000100000101 /
1#
#1280
0#
#1285
b111100 1
b1000110101010011101100001001111000000010001101101110011001000 .
b111011 2
b10001101010100111011000010011110000000100011011011100110010000 /
1#
#1290
0#
#1295
b111101 1
b100011010101001110110000100111100000001000110110111001100100 .
b111100 2
b1000110101010011101100001001111000000010001101101110011001000 /
1#
#1300
0#
#1305
b111110 1
b10001101010100111011000010011110000000100011011011100110010 .
b111101 2
b100011010101001110110000100111100000001000110110111001100100 /
1#
#1310
0#
#1315
b10 3
b111110 2
b10001101010100111011000010011110000000100011011011100110010 /
1#
#1320
0#
#1325
b100010100100001101011001000100101101001010111111110001010010 &
b100010100100001101011001000100101101001010111111110001010010 ,
b111101001111110001010101010001110111011101100110011110001110010 %
0(
b10001101010100111011000010011110000000100011011011100110010 !
b10001101010100111011000010011110000000100011011011100110010 -
1"
b10 0
1#
#1330
0#
#1335
b0 1
b100010100100001101011001000100101101001010111111110001010010 .
b0 3
b0 !
b0 -
b0 2
0"
b0 0
b100010100100001101011001000100101101001010111111110001010010 /
1#
#1340
0#
#1345
1#
1(
#1350
0#
#1355
b1 1
b10001010010000110101100100010010110100101011111111000101001 .
b1 0
b1 3
1#
1)
b11000011000011000010001101000101100011000011011100000111100 '
#1360
0#
#1365
b1 2
b10001010010000110101100100010010110100101011111111000101001 /
b10 1
b1111101000010011111111100011010101111000111110110000000100010 .
1#
0)
#1370
0#
#1375
b11 1
b111110100001001111111110001101010111100011111011000000010001 .
b10 2
b1111101000010011111111100011010101111000111110110000000100010 /
1#
#1380
0#
#1385
b100 1
b10010011101010000100100101010000001111100111000011100100010110 .
b11 2
b111110100001001111111110001101010111100011111011000000010001 /
1#
#1390
0#
#1395
b101 1
b1001001110101000010010010101000000111110011100001110010001011 .
b100 2
b10010011101010000100100101010000001111100111000011100100010110 /
1#
#1400
0#
#1405
b110 1
b10011001010011111101101111011101100111101110110110111101010011 .
b101 2
b1001001110101000010010010101000000111110011100001110010001011 /
1#
#1410
0#
#1415
b111 1
b11000001000011011011011101111000010111101100100001100010110111 .
b110 2
b10011001010011111101101111011101100111101110110110111101010011 /
1#
#1420
0#
#1425
b1000 1
b11010100111011001010010101000101101111101011010110110101101001 .
b111 2
b11000001000011011011011101111000010111101100100001100010110111 /
1#
#1430
0#
#1435
b1001 1
b11011110110111000001110000101100011011101010110001011111000010 .
b1000 2
b11010100111011001010010101000101101111101011010110110101101001 /
1#
#1440
0#
#1445
b1010 1
b1101111011011100000111000010110001101110101011000101111100001 .
b1001 2
b11011110110111000001110000101100011011101010110001011111000010 /
1#
#1450
0#
#1455
b1011 1
b10101100000111001101000010010100101010101111110010011011111110 .
b1010 2
b1101111011011100000111000010110001101110101011000101111100001 /
1#
#1460
0#
#1465
b1100 1
b1010110000011100110100001001010010101010111111001001101111111 .
b1011 2
b10101100000111001101000010010100101010101111110010011011111110 /
1#
#1470
0#
#1475
b1101 1
b10011111011011001111110110101110101110100001000010101011001101 .
b1100 2
b1010110000011100110100001001010010101010111111001001101111111 /
1#
#1480
0#
#1485
b1110 1
b11000100000111000100100001100000111011000101100111011001110100 .
b1101 2
b10011111011011001111110110101110101110100001000010101011001101 /
1#
#1490
0#
#1495
b1111 1
b1100010000011100010010000110000011101100010110011101100111010 .
b1110 2
b11000100000111000100100001100000111011000101100111011001110100 /
1#
#1500
0#
#1505
b10000 1
b110001000001110001001000011000001110110001011001110110011101 .
b1111 2
b1100010000011100010010000110000011101100010110011101100111010 /
1#
#1510
0#
#1515
b10001 1
b10001100111010010101001010010101101011001101110010111111011100 .
b10000 2
b110001000001110001001000011000001110110001011001110110011101 /
1#
#1520
0#
#1525
b10010 1
b1000110011101001010100101001010110101100110111001011111101110 .
b10001 2
b10001100111010010101001010010101101011001101110010111111011100 /
1#
#1530
0#
#1535
b10011 1
b100011001110100101010010100101011010110011011100101111110111 .
b10010 2
b1000110011101001010100101001010110101100110111001011111101110 /
1#
#1540
0#
#1545
b10100 1
b10000110000000101111001111011100010001001110110100011100001001 .
b10011 2
b100011001110100101010010100101011010110011011100101111110111 /
1#
#1550
0#
#1555
b10101 1
b10110111011001110100001101110111101100011100100000010010010010 .
b10100 2
b10000110000000101111001111011100010001001110110100011100001001 /
1#
#1560
0#
#1565
b10110 1
b1011011101100111010000110111011110110001110010000001001001001 .
b10101 2
b10110111011001110100001101110111101100011100100000010010010010 /
1#
#1570
0#
#1575
b10111 1
b10100010001111111001101001100111011110111100001110001000110010 .
b10110 2
b1011011101100111010000110111011110110001110010000001001001001 /
1#
#1580
0#
#1585
b11000 1
b1010001000111111100110100110011101111011110000111000100011001 .
b10111 2
b10100010001111111001101001100111011110111100001110001000110010 /
1#
#1590
0#
#1595
b11001 1
b10011100111101011011000000100011011011100100001001100110011010 .
b11000 2
b1010001000111111100110100110011101111011110000111000100011001 /
1#
#1600
0#
#1605
b11010 1
b1001110011110101101100000010001101101110010000100110011001101 .
b11001 2
b10011100111101011011000000100011011011100100001001100110011010 /
1#
#1610
0#
#1615
b11011 1
b10011011101000110011010110010010011010101110001000011101110100 .
b11010 2
b1001110011110101101100000010001101101110010000100110011001101 /
1#
#1620
0#
#1625
b11100 1
b1001101110100011001101011001001001101010111000100001110111010 .
b11011 2
b10011011101000110011010110010010011010101110001000011101110100 /
1#
#1630
0#
#1635
b11101 1
b100110111010001100110101100100100110101011100010000111011101 .
b11100 2
b1001101110100011001101011001001001101010111000100001110111010 /
1#
#1640
0#
#1645
b11110 1
b10000111110110100011000000111011110111001010110111000111111100 .
b11101 2
b100110111010001100110101100100100110101011100010000111011101 /
1#
#1650
0#
#1655
b11111 1
b1000011111011010001100000011101111011100101011011100011111110 .
b11110 2
b10000111110110100011000000111011110111001010110111000111111100 /
1#
#1660
0#
#1665
b100000 1
b100001111101101000110000001110111101110010101101110001111111 .
b11111 2
b1000011111011010001100000011101111011100101011011100011111110 /
1#
#1670
0#
#1675
b100001 1
b10000101011000010000111110010001000010101110011100111101001101 .
b100000 2
b100001111101101000110000001110111101110010101101110001111111 /
1#
#1680
0#
#1685
b100010 1
b10110111000101100101000101010010000101001100010100100010110100 .
b100001 2
b10000101011000010000111110010001000010101110011100111101001101 /
1#
#1690
0#
#1695
b100011 1
b1011011100010110010100010101001000010100110001010010001011010 .
b100010 2
b10110111000101100101000101010010000101001100010100100010110100 /
1#
#1700
0#
#1705
b100100 1
b101101110001011001010001010100100001010011000101001000101101 .
b100011 2
b1011011100010110010100010101001000010100110001010010001011010 /
1#
#1710
0#
#1715
b100101 1
b10001011010010001001001110110011110100011110101000101000100100 .
b100100 2
b101101110001011001010001010100100001010011000101001000101101 /
1#
#1720
0#
#1725
b100110 1
b1000101101001000100100111011001111010001111010100010100010010 .
b100101 2
b10001011010010001001001110110011110100011110101000101000100100 /
1#
#1730
0#
#1735
b100111 1
b100010110100100010010011101100111101000111101010001010001001 .
b100110 2
b1000101101001000100100111011001111010001111010100010100010010 /
1#
#1740
0#
#1745
b101000 1
b10000101110011101101110000000000000010011000111011001001010010 .
b100111 2
b100010110100100010010011101100111101000111101010001010001001 /
1#
#1750
0#
#1755
b101001 1
b1000010111001110110111000000000000001001100011101100100101001 .
b101000 2
b10000101110011101101110000000000000010011000111011001001010010 /
1#
#1760
0#
#1765
b101010 1
b10010101110110011000000010001001100100011011010100110110100010 .
b101001 2
b1000010111001110110111000000000000001001100011101100100101001 /
1#
#1770
0#
#1775
b101011 1
b1001010111011001100000001000100110010001101101010011011010001 .
b101010 2
b10010101110110011000000010001001100100011011010100110110100010 /
1#
#1780
0#
#1785
b101100 1
b10011001110111000010100110101011111100111011111011010001110110 .
b101011 2
b1001010111011001100000001000100110010001101101010011011010001 /
1#
#1790
0#
#1795
b101101 1
b1001100111011100001010011010101111110011101111101101000111011 .
b101100 2
b10011001110111000010100110101011111100111011111011010001110110 /
1#
#1800
0#
#1805
b101110 1
b10011010110111001101001111110100100011000100000100111000101011 .
b101101 2
b1001100111011100001010011010101111110011101111101101000111011 /
1#
#1810
0#
#1815
b101111 1
b11000001110101000011001110000011110101010111001000100000100011 .
b101110 2
b10011010110111001101001111110100100011000100000100111000101011 /
1#
#1820
0#
#1825
b110000 1
b11010101010011111110001101001011011110100000101010010100011111 .
b101111 2
b11000001110101000011001110000011110101010111001000100000100011 /
1#
#1830
0#
#1835
b110001 1
b11011111000011011011101100101111010011000101011011001110011101 .
b110000 2
b11010101010011111110001101001011011110100000101010010100011111 /
1#
#1840
0#
#1845
b110010 1
b11100011111011001010011100100001001101010111110011101011011100 .
b110001 2
b11011111000011011011101100101111010011000101011011001110011101 /
1#
#1850
0#
#1855
b110011 1
b1110001111101100101001110010000100110101011111001110101101110 .
b110010 2
b11100011111011001010011100100001001101010111110011101011011100 /
1#
#1860
0#
#1865
b110100 1
b111000111110110010100111001000010011010101111100111010110111 .
b110011 2
b1110001111101100101001110010000100110101011111001110101101110 /
1#
#1870
0#
#1875
b110101 1
b10010000111000110101111001101101101101100000000100100001101001 .
b110100 2
b111000111110110010100111001000010011010101111100111010110111 /
1#
#1880
0#
#1885
b110110 1
b10111100110101110111100011000000011010100101001000010101000010 .
b110101 2
b10010000111000110101111001101101101101100000000100100001101001 /
1#
#1890
0#
#1895
b110111 1
b1011110011010111011110001100000001101010010100100001010100001 .
b110110 2
b10111100110101110111100011000000011010100101001000010101000010 /
1#
#1900
0#
#1905
b111000 1
b10100011100110111010011110111001101010011110011000001001011110 .
b110111 2
b1011110011010111011110001100000001101010010100100001010100001 /
1#
#1910
0#
