algorithms_sv/src/shiftadd_pipelined/shiftadd_tb.vcd
$date
	Sun Jun 22 15:52:12 2025
$end
$version
	Icarus Verilog
$end
$timescale
	1s
$end
$scope module shiftadd_tb $end
$var wire 64 ! outdata_r_o [63:0] $end
$var wire 64 " indata_m_bl_i [63:0] $end
$var wire 1 # finish_o $end
$var reg 1 $ clk_i $end
$var reg 64 % indata_m_i [63:0] $end
$var reg 64 & indata_x [63:0] $end
$var reg 1 ' rst_ni $end
$var reg 1 ( start_i $end
$var integer 32 ) NUM_DATA [31:0] $end
$scope module uut $end
$var wire 1 $ clk_i $end
$var wire 64 * inner_mask [63:0] $end
$var wire 1 + is_fermat $end
$var wire 64 , m_bl_i [63:0] $end
$var wire 64 - m_i [63:0] $end
$var wire 64 . result_o [63:0] $end
$var wire 1 ' rst_ni $end
$var wire 1 ( start_i $end
$var wire 1 # valid_o $end
$var wire 64 / x_i [63:0] $end
$var wire 64 0 msb_mask [63:0] $end
$var wire 64 1 mask [63:0] $end
$var wire 1 2 is_mersenne $end
$var wire 1 3 d_finish $end
$var wire 64 4 bitlength [63:0] $end
$var parameter 32 5 CHUNK_LENGTH $end
$var parameter 32 6 DATA_LENGTH $end
$var parameter 32 7 NUM_CHUNKS $end
$var reg 3 8 curr_state [2:0] $end
$var reg 3 9 next_state [2:0] $end
$scope begin genblk1[0] $end
$var parameter 2 : i $end
$scope begin genblk1 $end
$upscope $end
$upscope $end
$scope begin genblk1[1] $end
$var parameter 2 ; i $end
$scope begin genblk1 $end
$upscope $end
$upscope $end
$scope begin genblk1[2] $end
$var parameter 3 < i $end
$scope begin genblk1 $end
$upscope $end
$upscope $end
$scope begin genblk2[0] $end
$var parameter 2 = i $end
$upscope $end
$scope begin genblk2[1] $end
$var parameter 2 > i $end
$upscope $end
$scope begin genblk2[2] $end
$var parameter 3 ? i $end
$upscope $end
$scope begin genblk3[0] $end
$var parameter 2 @ i $end
$upscope $end
$scope begin genblk3[1] $end
$var parameter 2 A i $end
$upscope $end
$scope begin genblk3[2] $end
$var parameter 3 B i $end
$upscope $end
$scope begin genblk4[0] $end
$var parameter 2 C i $end
$upscope $end
$scope begin genblk4[1] $end
$var parameter 2 D i $end
$upscope $end
$scope begin genblk4[2] $end
$var parameter 3 E i $end
$upscope $end
$scope module shift_finish $end
$var wire 1 $ clk_i $end
$var wire 1 ( data_i $end
$var parameter 32 F DATA $end
$var parameter 33 G SHIFT $end
$var reg 1 3 data_o $end
$scope begin DELAY_BLOCK[0] $end
$var parameter 2 H shft $end
$upscope $end
$scope begin DELAY_BLOCK[1] $end
$var parameter 2 I shft $end
$upscope $end
$scope begin DELAY_BLOCK[2] $end
$var parameter 3 J shft $end
$upscope $end
$upscope $end
$scope begin $ivl_for_loop0 $end
$var integer 32 K i [31:0] $end
$upscope $end
$upscope $end
$scope begin $ivl_for_loop1 $end
$var integer 32 L i [31:0] $end
$upscope $end
$scope begin $ivl_for_loop2 $end
$var integer 32 M i [31:0] $end
$upscope $end
$scope begin $unm_blk_34 $end
$var integer 32 N fp [31:0] $end
$upscope $end
$upscope $end
$enddefinitions $end
$comment Show the parameter values. $end
$dumpall
b10 J
b1 I
b0 H
b100 G
b1 F
b10 E
b1 D
b0 C
b10 B
b1 A
b0 @
b10 ?
b1 >
b0 =
b10 <
b1 ;
b0 :
b11 7
b1000000 6
b100000 5
$end
#0
$dumpvars
b10000000000000000000000000000011 N
bx M
bx L
b11 K
b0 9
bx 8
b11111 4
x3
12
b1111111111111111111111111111111 1
b1000000000000000000000000000000 0
bx /
bx .
b1111111111111111111111111111111 -
b11111 ,
0+
b111111111111111111111111111110 *
b110000 )
0(
1'
bx &
b1111111111111111111111111111111 %
0$
x#
b11111 "
bx !
$end
#5
b11 K
b0 8
1$
#10
0$
#15
1$
#20
0$
b0 L
#25
1$
#30
b10 9
0$
b1 L
1(
b1111101000000010111110110101000110111111010100101111010001011001 &
b1111101000000010111110110101000110111111010100101111010001011001 /
#35
0#
03
b10 8
1$
#40
0$
b10 L
b111100011010000011001110000111001111111011000110011101101101000 &
b111100011010000011001110000111001111111011000110011101101101000 /
#45
b11 K
1$
#50
0$
b11 L
b111101001111110001010101010001110111011101100110011110001110010 &
b111101001111110001010101010001110111011101100110011110001110010 /
#55
b11 K
1$
#60
0$
b100 L
b100111111110101101100101001110010010111111010001100000111000 &
b100111111110101101100101001110010010111111010001100000111000 /
#65
b100 9
b110011010110001110101100000000 !
b110011010110001110101100000000 .
b11 K
1#
13
1$
#66
b0 M
#70
0$
b101 L
b1110011101111111111011011001110111011111100110101101110111000 &
b1110011101111111111011011001110111011111100110101101110111000 /
#75
b1110001000001000000100110000110 !
b1110001000001000000100110000110 .
b11 K
b100 8
1$
#76
b1 M
#80
0$
b110 L
b11011001011010010100100100011001000001111111110010101011010000 &
b11011001011010010100100100011001000001111111110010101011010000 /
#85
b110000101011111001000110111011 !
b110000101011111001000110111011 .
b11 K
1$
#86
b10 M
#90
0$
b111 L
b100111101100011110101000100110110110001101100000010001100001100 &
b100111101100011110101000100110110110001101100000010001100001100 /
#95
b100110111110101000010011011111 !
b100110111110101000010011011111 .
b11 K
1$
#96
b11 M
#100
0$
b1000 L
b111100101011000110100101110110010100010001100110000111000111000 &
b111100101011000110100101110110010100010001100110000111000111000 /
#105
b1110101110100110101011100011111 !
b1110101110100110101011100011111 .
b11 K
1$
#106
b100 M
#110
0$
b1001 L
b1000100101100101010111001000011111000110000111101010000100110011 &
b1000100101100101010111001000011111000110000111101010000100110011 /
#115
b101110101100111100111101011101 !
b101110101100111100111101011101 .
b11 K
1$
#116
b101 M
#120
0$
b1010 L
b1100010101100000000001110110000011100110100011111101011100011100 &
b1100010101100000000001110110000011100110100011111101011100011100 /
#125
b1010000011101111100101110101000 !
b1010000011101111100101110101000 .
b11 K
1$
#126
b110 M
#130
0$
b1011 L
b100110011011101010101011011101010010011100000001001011000000 &
b100110011011101010101011011101010010011100000001001011000000 /
#135
b10100111001001011010000010011 !
b10100111001001011010000010011 .
b11 K
1$
#136
b111 M
#140
0$
b1100 L
b10100001110001100101111101110000010110000111100001110010001010 &
b10100001110001100101111101110000010110000111100001110010001010 /
#145
b1011000111010010101101001000100 !
b1011000111010010101101001000100 .
b11 K
1$
#146
b1000 M
#150
0$
b1101 L
b1000100110100101010001001000011000011110001011001000100001100011 &
b1000100110100101010001001000011000011110001011001000100001100011 /
#155
b1110001010011111110010111100000 !
b1110001010011111110010111100000 .
b11 K
1$
#156
b1001 M
#160
0$
b1110 L
b100000110111001110101011010100110101100110101010111110010100100 &
b100000110111001110101011010100110101100110101010111110010100100 /
#165
b1100101101001110110100000101110 !
b1100101101001110110100000101110 .
b11 K
1$
#166
b1010 M
#170
0$
b1111 L
b1010000011111100100101100100110000110110011000101011101101110111 &
b1010000011111100100101100100110000110110011000101011101101110111 /
#175
b1100111000000010100110001000010 !
b1100111000000010100110001000010 .
b11 K
1$
#176
b1011 M
#180
0$
b10000 L
b1010111000101011011110010101111110000010010111110101111101100000 &
b1010111000101011011110010101111110000010010111110101111101100000 /
#185
b110001011101110001000101110001 !
b110001011101110001000101110001 .
b11 K
1$
#186
b1100 M
#190
0$
b10001 L
b1101111010010111111011011100001000100011000110010011001011101 &
b1101111010010111111011011100001000100011000110010011001011101 /
#195
b110000010010010010011111111000 !
b110000010010010010011111111000 .
b11 K
1$
#196
b1101 M
#200
0$
b10010 L
b101101100101110010111111000000011000101111111110111010010011 &
b101101100101110010111111000000011000101111111110111010010011 /
#205
b1111000010110111110100000010001 !
b1111000010110111110100000010001 .
b11 K
1$
#206
b1110 M
#210
0$
b10011 L
b11011010010100110111011011011001001100111011010010001010000000 &
b11011010010100110111011011011001001100111011010010001010000000 /
#215
b1011110101101100101001000100001 !
b1011110101101100101001000100001 .
b11 K
1$
#216
b1111 M
#220
0$
b10100 L
b1100111000100011001010111101101101101111001010000001001101111000 &
b1100111000100011001010111101101101101111001010000001001101111000 /
#225
b1111100000010010010000111001101 !
b1111100000010010010000111001101 .
b11 K
1$
#226
b10000 M
#230
0$
b10101 L
b10100000110101011100101111111000110101010100001111111000101110 &
b10100000110101011100101111111000110101010100001111111000101110 /
#235
b101111100010111000011001110011 !
b101111100010111000011001110011 .
b11 K
1$
#236
b10001 M
#240
0$
b10110 L
b1101111010101110101000001000000100110010110010110011010111100 &
b1101111010101110101000001000000100110010110010110011010111100 /
#245
b111010000101101101110111101101 !
b111010000101101101110111101101 .
b11 K
1$
#246
b10010 M
#250
0$
b10111 L
b1010011011011100010010000100110000011010011001010101011011010110 &
b1010011011011100010010000100110000011010011001010101011011010110 /
#255
b1011011011100110101100110010 !
b1011011011100110101100110010 .
b11 K
1$
#256
b10011 M
#260
0$
b11000 L
b1110100100100010111000101001001111000010001101011001011001010110 &
b1110100100100010111000101001001111000010001101011001011001010110 /
#265
b101101110111110010000101011 !
b101101110111110010000101011 .
b11 K
1$
#266
b10100 M
#270
0$
b11001 L
b1010100101001100101110111100011001111110110111000101010100110000 &
b1010100101001100101110111100011001111110110111000101010100110000 /
#275
b1011110000001010000111011011100 !
b1011110000001010000111011011100 .
b11 K
1$
#276
b10101 M
#280
0$
b11010 L
b1000100000010001111110101010101101111100011000000001001010110000 &
b1000100000010001111110101010101101111100011000000001001010110000 /
#285
b1101000000111011110011101110000 !
b1101000000111011110011101110000 .
b11 K
1$
#286
b10110 M
#290
0$
b11011 L
b101011011011001000001001100001100101010111001111000110000000000 &
b101011011011001000001001100001100101010111001111000110000000000 /
#295
b10100011110110101101110000001 !
b10100011110110101101110000001 .
b11 K
1$
#296
b10111 M
#300
0$
b11100 L
b111001001010111110110000001101001111100111101111100010101001110 &
b111001001010111110110000001101001111100111101111100010101001110 /
#305
b1010001011101011100110010111111 !
b1010001011101011100110010111111 .
b11 K
1$
#306
b11000 M
#310
0$
b11101 L
b1100110111111101110011100011100001011110110010101111000000100 &
b1100110111111101110011100011100001011110110010101111000000100 /
#315
b1100100001000000100000001001 !
b1100100001000000100000001001 .
b11 K
1$
#316
b11001 M
#320
0$
b11110 L
b101101000001110000011110111010010010001011100011010100001001100 &
b101101000001110000011110111010010010001011100011010100001001100 /
#325
b1011000100110011001010110000111 !
b1011000100110011001010110000111 .
b11 K
1$
#326
b11010 M
#330
0$
b11111 L
b1111101000011101111010110000111001101000111000101101011100010100 &
b1111101000011101111010110000111001101000111000101101011100010100 /
#335
b1100001101001110111010110000100 !
b1100001101001110111010110000100 .
b11 K
1$
#336
b11011 M
#340
0$
b100000 L
b111111101001101001000110010011110011000100000010001110111000011 &
b111111101001101001000110010011110011000100000010001110111000011 /
#345
b111111010110001101000110010010 !
b111111010110001101000110010010 .
b11 K
1$
#346
b11100 M
#350
0$
b100001 L
b110101110111100111101001110011011100010010101100001110100100111 &
b110101110111100111101001110011011100010010101100001110100100111 /
#355
b1000101100011011100011100110110 !
b1000101100011011100011100110110 .
b11 K
1$
#356
b11101 M
#360
0$
b100010 L
b1001110110000110110111101100101111111001110011000011101001101000 &
b1001110110000110110111101100101111111001110011000011101001101000 /
#365
b1011101000111101010110100110100 !
b1011101000111101010110100110100 .
b11 K
1$
#366
b11110 M
#370
0$
b100011 L
b10001111101100011000001111010100101010011011110100100100011010 &
b10001111101100011000001111010100101010011011110100100100011010 /
#375
b10111000110110110010000010100 !
b10111000110110110010000010100 .
b11 K
1$
#376
b11111 M
#380
0$
b100100 L
b1110000000000010101010100001101101111000101110001001010101010000 &
b1110000000000010101010100001101101111000101110001001010101010000 /
#385
b111001110100000000011011110110 !
b111001110100000000011011110110 .
b11 K
1$
#386
b100000 M
#390
0$
b100101 L
b101111101110000010101111110100001101111101011001000000110100000 &
b101111101110000010101111110100001101111101011001000000110100000 /
#395
b110100110110011111100000000010 !
b110100110110011111100000000010 .
b11 K
1$
#396
b100001 M
#400
0$
b100110 L
b111000011101000010011011011010010010100111110001100101000011001 &
b111000011101000010011011011010010010100111110001100101000011001 /
#405
b1110010010010000000101100000100 !
b1110010010010000000101100000100 .
b11 K
1$
#406
b100010 M
#410
0$
b100111 L
b111110000001010011001110010010100101001011000110100111000011110 &
b111110000001010011001110010010100101001011000110100111000011110 /
#415
b111000101111011110100110001010 !
b111000101111011110100110001010 .
b11 K
1$
#416
b100011 M
#420
0$
b101000 L
b10001010010111101100011110101001100101100010101101101001010110 &
b10001010010111101100011110101001100101100010101101101001010110 /
#425
b101110100011010011000101110010 !
b101110100011010011000101110010 .
b11 K
1$
#426
b100100 M
#430
0$
b101001 L
b1000000000000000100111111111010011110001010011100000011101001000 &
b1000000000000000100111111111010011110001010011100000011101001000 /
#435
b1110110110010010110010110000011 !
b1110110110010010110010110000011 .
b11 K
1$
#436
b100101 M
#440
0$
b101010 L
b1101001010110001111000110100001101001101111001100010010000000000 &
b1101001010110001111000110100001101001101111001100010010000000000 /
#445
b100001011110000001110001101010 !
b100001011110000001110001101010 .
b11 K
1$
#446
b100110 M
#450
0$
b101011 L
b1111000000111010000011101110010101000001010010110111000101101000 &
b1111000000111010000011101110010101000001010010110111000101101000 /
#455
b101010101110100011111000101011 !
b101010101110100011111000101011 .
b11 K
1$
#456
b100111 M
#460
0$
b101100 L
b1001010000001111010111010111001011101011100110001111111000100001 &
b1001010000001111010111010111001011101011100110001111111000100001 /
#465
b1110001010011110100011100110011 !
b1110001010011110100011100110011 .
b11 K
1$
#466
b101000 M
#470
0$
b101101 L
b1011101000101000010110101111101011000111001001111011100001010010 &
b1011101000101000010110101111101011000111001001111011100001010010 /
#475
b1110011010010011110101010001001 !
b1110011010010011110101010001001 .
b11 K
1$
#476
b101001 M
#480
0$
b101110 L
b101001110111101010100101111101011000011110100110101110110011110 &
b101001110111101010100101111101011000011110100110101110110011110 /
#485
b100001101111111000111100110110 !
b100001101111111000111100110110 .
b11 K
1$
#486
b101010 M
#490
0$
b101111 L
b101000011000110010011000100010100011111000000111110101111010100 &
b101000011000110010011000100010100011111000000111110101111010100 /
#495
b10011101101111011100100001001 !
b10011101101111011100100001001 .
b11 K
1$
#496
b101011 M
#500
0$
b110000 L
b1100011100111001100011000010101000001101110011110100001111 &
b1100011100111001100011000010101000001101110011110100001111 /
#505
b111011011110000110111001001010 !
b111011011110000110111001001010 .
b11 K
1$
#506
b101100 M
#510
0$
0(
#515
b1101011010011100000001110010100 !
b1101011010011100000001110010100 .
b11 K
1$
#516
b101101 M
#520
0$
#525
b1000000100100001000010001011111 !
b1000000100100001000010001011111 .
b11 K
1$
#526
b101110 M
#530
0$
#535
b101110011100010000100101110000 !
b101110011100010000100101110000 .
b11 K
1$
#536
b101111 M
#540
0$
#545
0#
03
1$
#546
b110000 M
