algorithms_sv/montgomery/montgomery_tb.vcd
$date
	Sun Apr 20 19:20:44 2025
$end
$version
	Icarus Verilog
$end
$timescale
	1s
$end
$scope module montgomery_tb $end
$var wire 64 ! outdata_r_o [63:0] $end
$var wire 1 " finish_o $end
$var reg 1 # clk_i $end
$var reg 64 $ indata_m_i [63:0] $end
$var reg 64 % indata_x_i [63:0] $end
$var reg 64 & reference_o [63:0] $end
$var reg 1 ' rst_ni $end
$var reg 1 ( start_i $end
$scope module uut $end
$var wire 1 # clk_i $end
$var wire 64 ) m_i [63:0] $end
$var wire 1 ' rst_ni $end
$var wire 1 ( start_i $end
$var wire 64 * x_i [63:0] $end
$var wire 1 " valid_o $end
$var wire 64 + result_o [63:0] $end
$var reg 64 , accumulator_n [63:0] $end
$var reg 64 - accumulator_p [63:0] $end
$var reg 3 . curr_state [2:0] $end
$var reg 9 / idx_n [8:0] $end
$var reg 9 0 idx_p [8:0] $end
$var reg 3 1 next_state [2:0] $end
$upscope $end
$upscope $end
$enddefinitions $end
$comment Show the parameter values. $end
$dumpall
$end
#0
$dumpvars
b0 1
bx 0
bx /
bx .
bx -
bx ,
bx +
b101000001010110000101001110010000011101001110111001000100110 *
b11101000110010111001001100010011000111101010001100001000011011 )
0(
0'
bx &
b101000001010110000101001110010000011101001110111001000100110 %
b11101000110010111001001100010011000111101010001100001000011011 $
0#
x"
bx !
$end
#5
b0 /
b101000001010110000101001110010000011101001110111001000100110 ,
b0 !
b0 +
b0 0
0"
b0 .
b101000001010110000101001110010000011101001110111001000100110 -
1#
#10
0#
#15
1#
#20
0#
1'
#25
1#
#30
b1 1
0#
1(
b1000100110111011010000011111010100000101011111110101111101101 &
#35
b1 /
b10100000101011000010100111001000001110100111011100100010011 ,
b1 .
1#
#40
b1 /
b10100000101011000010100111001000001110100111011100100010011 ,
0#
0(
#45
b10 /
b1111110011100001000110000100110000100101111100011110110010111 ,
b1 0
b10100000101011000010100111001000001110100111011100100010011 -
1#
#50
0#
#55
b11 /
b10110011100111100000111110011100100110001100110111111111011001 ,
b10 0
b1111110011100001000110000100110000100101111100011110110010111 -
1#
#60
0#
#65
b100 /
b11001110001101001101000101010111110110111011100010000011111010 ,
b11 0
b10110011100111100000111110011100100110001100110111111111011001 -
1#
#70
0#
#75
b101 /
b1100111000110100110100010101011111011011101110001000001111101 ,
b100 0
b11001110001101001101000101010111110110111011100010000011111010 -
1#
#80
0#
#85
b110 /
b10100111111100101111110111011111100001100011111110100101001100 ,
b101 0
b1100111000110100110100010101011111011011101110001000001111101 -
1#
#90
0#
#95
b111 /
b1010011111110010111111011101111110000110001111111010010100110 ,
b110 0
b10100111111100101111110111011111100001100011111110100101001100 -
1#
#100
0#
#105
b1000 /
b101001111111001011111101110111111000011000111111101001010011 ,
b111 0
b1010011111110010111111011101111110000110001111111010010100110 -
1#
#110
0#
#115
b1001 /
b10001001011001000010100101000101100000000001100101111000110111 ,
b1000 0
b101001111111001011111101110111111000011000111111101001010011 -
1#
#120
0#
#125
b1010 /
b10111001000101111101111000101100010011110101111001000000101001 ,
b1001 0
b10001001011001000010100101000101100000000001100101111000110111 -
1#
#130
0#
#135
b1011 /
b11010000111100011011100010011111101101110000000010100100100010 ,
b1010 0
b10111001000101111101111000101100010011110101111001000000101001 -
1#
#140
0#
#145
b1100 /
b1101000011110001101110001001111110110111000000001010010010001 ,
b1011 0
b11010000111100011011100010011111101101110000000010100100100010 -
1#
#150
0#
#155
b1101 /
b10101000101000100011011110110001011111010001000110101101010110 ,
b1100 0
b1101000011110001101110001001111110110111000000001010010010001 -
1#
#160
0#
#165
b1110 /
b1010100010100010001101111011000101111101000100011010110101011 ,
b1101 0
b10101000101000100011011110110001011111010001000110101101010110 -
1#
#170
0#
#175
b1111 /
b10011110100011100101011101110101111011101001010111101111100011 ,
b1110 0
b1010100010100010001101111011000101111101000100011010110101011 -
1#
#180
0#
#185
b10000 /
b11000011101011001111010101000100100001101001110001111011111111 ,
b1111 0
b10011110100011100101011101110101111011101001010111101111100011 -
1#
#190
0#
#195
b10001 /
b11010110001111000100010000101011110100101001111111000010001101 ,
b10000 0
b11000011101011001111010101000100100001101001110001111011111111 -
1#
#200
0#
#205
b10010 /
b11011111100000111110101110011111011110001010000101100101010100 ,
b10001 0
b11010110001111000100010000101011110100101001111111000010001101 -
1#
#210
0#
#215
b10011 /
b1101111110000011111010111001111101111000101000010110010101010 ,
b10010 0
b11011111100000111110101110011111011110001010000101100101010100 -
1#
#220
0#
#225
b10100 /
b110111111000001111101011100111110111100010100001011001010101 ,
b10011 0
b1101111110000011111010111001111101111000101000010110010101010 -
1#
#230
0#
#235
b10101 /
b10010000010101100100011011111101011111100110010110110000111000 ,
b10100 0
b110111111000001111101011100111110111100010100001011001010101 -
1#
#240
0#
#245
b10110 /
b1001000001010110010001101111110101111110011001011011000011100 ,
b10101 0
b10010000010101100100011011111101011111100110010110110000111000 -
1#
#250
0#
#255
b10111 /
b100100000101011001000110111111010111111001100101101100001110 ,
b10110 0
b1001000001010110010001101111110101111110011001011011000011100 -
1#
#260
0#
#265
b11000 /
b10010000010101100100011011111101011111100110010110110000111 ,
b10111 0
b100100000101011001000110111111010111111001100101101100001110 -
1#
#270
0#
#275
b11001 /
b1111101011010110010110111111001011001110011011111011111010001 ,
b11000 0
b10010000010101100100011011111101011111100110010110110000111 -
1#
#280
0#
#285
b11010 /
b10110011000110110110000010000110010000101110110101110011110110 ,
b11001 0
b1111101011010110010110111111001011001110011011111011111010001 -
1#
#290
0#
#295
b11011 /
b1011001100011011011000001000011001000010111011010111001111011 ,
b11010 0
b10110011000110110110000010000110010000101110110101110011110110 -
1#
#300
0#
#305
b11100 /
b10100001001011001010000110101011001000000000110011100001001011 ,
b11011 0
b1011001100011011011000001000011001000010111011010111001111011 -
1#
#310
0#
#315
b11101 /
b11000100111111000001101001011111000111110101011111110100110011 ,
b11100 0
b10100001001011001010000110101011001000000000110011100001001011 -
1#
#320
0#
#325
b11110 /
b11010110111000111101011010111001000111101111110101111110100111 ,
b11101 0
b11000100111111000001101001011111000111110101011111110100110011 -
1#
#330
0#
#335
b11111 /
b11011111110101111011010011100110000111101101000001000011100001 ,
b11110 0
b11010110111000111101011010111001000111101111110101111110100111 -
1#
#340
0#
#345
b100000 /
b11100100010100011010001111111100100111101011100110100101111110 ,
b11111 0
b11011111110101111011010011100110000111101101000001000011100001 -
1#
#350
0#
#355
b100001 /
b1110010001010001101000111111110010011110101110011010010111111 ,
b100000 0
b11100100010100011010001111111100100111101011100110100101111110 -
1#
#360
0#
#365
b100010 /
b10101101011110100011001010001000101101101111111111101101101101 ,
b100001 0
b1110010001010001101000111111110010011110101110011010010111111 -
1#
#370
0#
#375
b100011 /
b11001011001000101110001011001101111010101101000101111011000100 ,
b100010 0
b10101101011110100011001010001000101101101111111111101101101101 -
1#
#380
0#
#385
b100100 /
b1100101100100010111000101100110111101010110100010111101100010 ,
b100011 0
b11001011001000101110001011001101111010101101000101111011000100 -
1#
#390
0#
#395
b100101 /
b110010110010001011100010110011011110101011010001011110110001 ,
b100100 0
b1100101100100010111000101100110111101010110100010111101100010 -
1#
#400
0#
#405
b100110 /
b10001101110010100010010111100011010011001010101110110011100110 ,
b100101 0
b110010110010001011100010110011011110101011010001011110110001 -
1#
#410
0#
#415
b100111 /
b1000110111001010001001011110001101001100101010111011001110011 ,
b100110 0
b10001101110010100010010111100011010011001010101110110011100110 -
1#
#420
0#
#425
b101000 /
b10010111110110000101001100000010011000100111110001110001000111 ,
b100111 0
b1000110111001010001001011110001101001100101010111011001110011 -
1#
#430
0#
#435
b101001 /
b11000000010100011111001100001010110000001000111110111100110001 ,
b101000 0
b10010111110110000101001100000010011000100111110001110001000111 -
1#
#440
0#
#445
b101010 /
b11010100100011101100001100001110111011111001100101100010100110 ,
b101001 0
b11000000010100011111001100001010110000001000111110111100110001 -
1#
#450
0#
#455
b101011 /
b1101010010001110110000110000111011101111100110010110001010011 ,
b101010 0
b11010100100011101100001100001110111011111001100101100010100110 -
1#
#460
0#
#465
b101100 /
b10101001100010010111101001001101010010110011011111011100110111 ,
b101011 0
b1101010010001110110000110000111011101111100110010110001010011 -
1#
#470
0#
#475
b101101 /
b11001001001010101000011010110000001101001110110101110010101001 ,
b101100 0
b10101001100010010111101001001101010010110011011111011100110111 -
1#
#480
0#
#485
b101110 /
b11011000111110110000110011100001101010011100100000111101100010 ,
b101101 0
b11001001001010101000011010110000001101001110110101110010101001 -
1#
#490
0#
#495
b101111 /
b1101100011111011000011001110000110101001110010000011110110001 ,
b101110 0
b11011000111110110000110011100001101010011100100000111101100010 -
1#
#500
0#
#505
b110000 /
b10101010101001001000110011000001111110011100001110010011100110 ,
b101111 0
b1101100011111011000011001110000110101001110010000011110110001 -
1#
#510
0#
#515
b110001 /
b1010101010100100100011001100000111111001110000111001001110011 ,
b110000 0
b10101010101001001000110011000001111110011100001110010011100110 -
1#
#520
0#
#525
b110010 /
b10011111000011101110110010111010000011011100001001101001000111 ,
b110001 0
b1010101010100100100011001100000111111001110000111001001110011 -
1#
#530
0#
#535
b110011 /
b11000011111011010011111111100110100101100011001010111000110001 ,
b110010 0
b10011111000011101110110010111010000011011100001001101001000111 -
1#
#540
0#
#545
b110100 /
b11010110010111000110100101111100110110100110101011100000100110 ,
b110011 0
b11000011111011010011111111100110100101100011001010111000110001 -
1#
#550
0#
#555
b110101 /
b1101011001011100011010010111110011011010011010101110000010011 ,
b110100 0
b11010110010111000110100101111100110110100110101011100000100110 -
1#
#560
0#
#565
b110110 /
b10101001111111001110001111101000110001011110110000111100010111 ,
b110101 0
b1101011001011100011010010111110011011010011010101110000010011 -
1#
#570
0#
#575
b110111 /
b11001001011001000011101101111101111100100100011110100010011001 ,
b110110 0
b10101001111111001110001111101000110001011110110000111100010111 -
1#
#580
0#
#585
b111000 /
b11011001000101111110011101001000100010000111010101010101011010 ,
b110111 0
b11001001011001000011101101111101111100100100011110100010011001 -
1#
#590
0#
#595
b111001 /
b1101100100010111111001110100100010001000011101010101010101101 ,
b111000 0
b11011001000101111110011101001000100010000111010101010101011010 -
1#
#600
0#
#605
b111010 /
b10101010101010111100001101011011101100010110111011011001100100 ,
b111001 0
b1101100100010111111001110100100010001000011101010101010101101 -
1#
#610
0#
#615
b111011 /
b1010101010101011110000110101101110110001011011101101100110010 ,
b111010 0
b10101010101010111100001101011011101100010110111011011001100100 -
1#
#620
0#
#625
b111100 /
b101010101010101111000011010110111011000101101110110110011001 ,
b111011 0
b1010101010101011110000110101101110110001011011101101100110010 -
1#
#630
0#
#635
b111101 /
b10001001101110110100000111110101000001010111111101011111011010 ,
b111100 0
b101010101010101111000011010110111011000101101110110110011001 -
1#
#640
0#
#645
b111110 /
b1000100110111011010000011111010100000101011111110101111101101 ,
b111101 0
b10001001101110110100000111110101000001010111111101011111011010 -
1#
#650
0#
#655
b10 1
b111110 0
b1000100110111011010000011111010100000101011111110101111101101 -
1#
#660
0#
#665
b1000100110111011010000011111010100000101011111110101111101101 !
b1000100110111011010000011111010100000101011111110101111101101 +
1"
b10 .
1#
