algorithms_sv/src/montgomery_parallel/montgomery_bp_tb.vcd
$date
	Sat Jun 21 13:58:00 2025
$end
$version
	Icarus Verilog
$end
$timescale
	1s
$end
$scope module montgomery_bp_tb $end
$var wire 64 ! indata_m_bl_i [63:0] $end
$var wire 64 " indata_m_i [63:0] $end
$var wire 64 # indata_minv_i [63:0] $end
$var wire 64 $ outdata_r_o [63:0] $end
$var reg 1 % clk_i $end
$var reg 64 & indata_x_i [63:0] $end
$var reg 64 ' indata_xm_i [63:0] $end
$var reg 64 ( reference_o [63:0] $end
$var reg 1 ) rst_ni $end
$var reg 1 * start_i $end
$var integer 32 + inp_file [31:0] $end
$scope module uut $end
$var wire 64 , m_bl_i [63:0] $end
$var wire 64 - m_i [63:0] $end
$var wire 64 . minv_i [63:0] $end
$var wire 64 / x_i [63:0] $end
$var wire 64 0 result_o [63:0] $end
$var wire 64 1 res [63:0] $end
$var wire 128 2 m_rescaled [127:0] $end
$var wire 64 3 m [63:0] $end
$var wire 128 4 lsb_scaled [127:0] $end
$scope module multiplier_approx $end
$var wire 64 5 indata_a_i [63:0] $end
$var wire 64 6 indata_b_i [63:0] $end
$var reg 128 7 outdata_r_o [127:0] $end
$scope begin genblk1[0] $end
$var parameter 2 8 i $end
$scope module multiplier_16x16_i $end
$var wire 16 9 indata_a_i [15:0] $end
$var wire 16 : indata_b_i [15:0] $end
$var wire 32 ; outdata_r_o [31:0] $end
$upscope $end
$upscope $end
$scope begin genblk1[1] $end
$var parameter 2 < i $end
$scope module multiplier_16x16_i $end
$var wire 16 = indata_a_i [15:0] $end
$var wire 16 > indata_b_i [15:0] $end
$var wire 32 ? outdata_r_o [31:0] $end
$upscope $end
$upscope $end
$scope begin genblk1[2] $end
$var parameter 3 @ i $end
$scope module multiplier_16x16_i $end
$var wire 16 A indata_a_i [15:0] $end
$var wire 16 B indata_b_i [15:0] $end
$var wire 32 C outdata_r_o [31:0] $end
$upscope $end
$upscope $end
$scope begin genblk1[3] $end
$var parameter 3 D i $end
$scope module multiplier_16x16_i $end
$var wire 16 E indata_a_i [15:0] $end
$var wire 16 F indata_b_i [15:0] $end
$var wire 32 G outdata_r_o [31:0] $end
$upscope $end
$upscope $end
$scope begin genblk1[4] $end
$var parameter 4 H i $end
$scope module multiplier_16x16_i $end
$var wire 16 I indata_a_i [15:0] $end
$var wire 16 J indata_b_i [15:0] $end
$var wire 32 K outdata_r_o [31:0] $end
$upscope $end
$upscope $end
$scope begin genblk1[5] $end
$var parameter 4 L i $end
$scope module multiplier_16x16_i $end
$var wire 16 M indata_a_i [15:0] $end
$var wire 16 N indata_b_i [15:0] $end
$var wire 32 O outdata_r_o [31:0] $end
$upscope $end
$upscope $end
$scope begin genblk1[6] $end
$var parameter 4 P i $end
$scope module multiplier_16x16_i $end
$var wire 16 Q indata_a_i [15:0] $end
$var wire 16 R indata_b_i [15:0] $end
$var wire 32 S outdata_r_o [31:0] $end
$upscope $end
$upscope $end
$scope begin genblk1[7] $end
$var parameter 4 T i $end
$scope module multiplier_16x16_i $end
$var wire 16 U indata_a_i [15:0] $end
$var wire 16 V indata_b_i [15:0] $end
$var wire 32 W outdata_r_o [31:0] $end
$upscope $end
$upscope $end
$scope begin genblk1[8] $end
$var parameter 5 X i $end
$scope module multiplier_16x16_i $end
$var wire 16 Y indata_a_i [15:0] $end
$var wire 16 Z indata_b_i [15:0] $end
$var wire 32 [ outdata_r_o [31:0] $end
$upscope $end
$upscope $end
$scope begin genblk1[9] $end
$var parameter 5 \ i $end
$scope module multiplier_16x16_i $end
$var wire 16 ] indata_a_i [15:0] $end
$var wire 16 ^ indata_b_i [15:0] $end
$var wire 32 _ outdata_r_o [31:0] $end
$upscope $end
$upscope $end
$scope begin genblk1[10] $end
$var parameter 5 ` i $end
$scope module multiplier_16x16_i $end
$var wire 16 a indata_a_i [15:0] $end
$var wire 16 b indata_b_i [15:0] $end
$var wire 32 c outdata_r_o [31:0] $end
$upscope $end
$upscope $end
$scope begin genblk1[11] $end
$var parameter 5 d i $end
$scope module multiplier_16x16_i $end
$var wire 16 e indata_a_i [15:0] $end
$var wire 16 f indata_b_i [15:0] $end
$var wire 32 g outdata_r_o [31:0] $end
$upscope $end
$upscope $end
$scope begin genblk1[12] $end
$var parameter 5 h i $end
$scope module multiplier_16x16_i $end
$var wire 16 i indata_a_i [15:0] $end
$var wire 16 j indata_b_i [15:0] $end
$var wire 32 k outdata_r_o [31:0] $end
$upscope $end
$upscope $end
$scope begin genblk1[13] $end
$var parameter 5 l i $end
$scope module multiplier_16x16_i $end
$var wire 16 m indata_a_i [15:0] $end
$var wire 16 n indata_b_i [15:0] $end
$var wire 32 o outdata_r_o [31:0] $end
$upscope $end
$upscope $end
$scope begin genblk1[14] $end
$var parameter 5 p i $end
$scope module multiplier_16x16_i $end
$var wire 16 q indata_a_i [15:0] $end
$var wire 16 r indata_b_i [15:0] $end
$var wire 32 s outdata_r_o [31:0] $end
$upscope $end
$upscope $end
$scope begin genblk1[15] $end
$var parameter 5 t i $end
$scope module multiplier_16x16_i $end
$var wire 16 u indata_a_i [15:0] $end
$var wire 16 v indata_b_i [15:0] $end
$var wire 32 w outdata_r_o [31:0] $end
$upscope $end
$upscope $end
$scope begin $ivl_for_loop0 $end
$var integer 32 x i [31:0] $end
$upscope $end
$upscope $end
$scope module multiplier_precomp $end
$var wire 64 y indata_a_i [63:0] $end
$var wire 64 z indata_b_i [63:0] $end
$var reg 128 { outdata_r_o [127:0] $end
$scope begin genblk1[0] $end
$var parameter 2 | i $end
$scope module multiplier_16x16_i $end
$var wire 16 } indata_a_i [15:0] $end
$var wire 16 ~ indata_b_i [15:0] $end
$var wire 32 !" outdata_r_o [31:0] $end
$upscope $end
$upscope $end
$scope begin genblk1[1] $end
$var parameter 2 "" i $end
$scope module multiplier_16x16_i $end
$var wire 16 #" indata_a_i [15:0] $end
$var wire 16 $" indata_b_i [15:0] $end
$var wire 32 %" outdata_r_o [31:0] $end
$upscope $end
$upscope $end
$scope begin genblk1[2] $end
$var parameter 3 &" i $end
$scope module multiplier_16x16_i $end
$var wire 16 '" indata_a_i [15:0] $end
$var wire 16 (" indata_b_i [15:0] $end
$var wire 32 )" outdata_r_o [31:0] $end
$upscope $end
$upscope $end
$scope begin genblk1[3] $end
$var parameter 3 *" i $end
$scope module multiplier_16x16_i $end
$var wire 16 +" indata_a_i [15:0] $end
$var wire 16 ," indata_b_i [15:0] $end
$var wire 32 -" outdata_r_o [31:0] $end
$upscope $end
$upscope $end
$scope begin genblk1[4] $end
$var parameter 4 ." i $end
$scope module multiplier_16x16_i $end
$var wire 16 /" indata_a_i [15:0] $end
$var wire 16 0" indata_b_i [15:0] $end
$var wire 32 1" outdata_r_o [31:0] $end
$upscope $end
$upscope $end
$scope begin genblk1[5] $end
$var parameter 4 2" i $end
$scope module multiplier_16x16_i $end
$var wire 16 3" indata_a_i [15:0] $end
$var wire 16 4" indata_b_i [15:0] $end
$var wire 32 5" outdata_r_o [31:0] $end
$upscope $end
$upscope $end
$scope begin genblk1[6] $end
$var parameter 4 6" i $end
$scope module multiplier_16x16_i $end
$var wire 16 7" indata_a_i [15:0] $end
$var wire 16 8" indata_b_i [15:0] $end
$var wire 32 9" outdata_r_o [31:0] $end
$upscope $end
$upscope $end
$scope begin genblk1[7] $end
$var parameter 4 :" i $end
$scope module multiplier_16x16_i $end
$var wire 16 ;" indata_a_i [15:0] $end
$var wire 16 <" indata_b_i [15:0] $end
$var wire 32 =" outdata_r_o [31:0] $end
$upscope $end
$upscope $end
$scope begin genblk1[8] $end
$var parameter 5 >" i $end
$scope module multiplier_16x16_i $end
$var wire 16 ?" indata_a_i [15:0] $end
$var wire 16 @" indata_b_i [15:0] $end
$var wire 32 A" outdata_r_o [31:0] $end
$upscope $end
$upscope $end
$scope begin genblk1[9] $end
$var parameter 5 B" i $end
$scope module multiplier_16x16_i $end
$var wire 16 C" indata_a_i [15:0] $end
$var wire 16 D" indata_b_i [15:0] $end
$var wire 32 E" outdata_r_o [31:0] $end
$upscope $end
$upscope $end
$scope begin genblk1[10] $end
$var parameter 5 F" i $end
$scope module multiplier_16x16_i $end
$var wire 16 G" indata_a_i [15:0] $end
$var wire 16 H" indata_b_i [15:0] $end
$var wire 32 I" outdata_r_o [31:0] $end
$upscope $end
$upscope $end
$scope begin genblk1[11] $end
$var parameter 5 J" i $end
$scope module multiplier_16x16_i $end
$var wire 16 K" indata_a_i [15:0] $end
$var wire 16 L" indata_b_i [15:0] $end
$var wire 32 M" outdata_r_o [31:0] $end
$upscope $end
$upscope $end
$scope begin genblk1[12] $end
$var parameter 5 N" i $end
$scope module multiplier_16x16_i $end
$var wire 16 O" indata_a_i [15:0] $end
$var wire 16 P" indata_b_i [15:0] $end
$var wire 32 Q" outdata_r_o [31:0] $end
$upscope $end
$upscope $end
$scope begin genblk1[13] $end
$var parameter 5 R" i $end
$scope module multiplier_16x16_i $end
$var wire 16 S" indata_a_i [15:0] $end
$var wire 16 T" indata_b_i [15:0] $end
$var wire 32 U" outdata_r_o [31:0] $end
$upscope $end
$upscope $end
$scope begin genblk1[14] $end
$var parameter 5 V" i $end
$scope module multiplier_16x16_i $end
$var wire 16 W" indata_a_i [15:0] $end
$var wire 16 X" indata_b_i [15:0] $end
$var wire 32 Y" outdata_r_o [31:0] $end
$upscope $end
$upscope $end
$scope begin genblk1[15] $end
$var parameter 5 Z" i $end
$scope module multiplier_16x16_i $end
$var wire 16 [" indata_a_i [15:0] $end
$var wire 16 \" indata_b_i [15:0] $end
$var wire 32 ]" outdata_r_o [31:0] $end
$upscope $end
$upscope $end
$scope begin $ivl_for_loop0 $end
$var integer 32 ^" i [31:0] $end
$upscope $end
$upscope $end
$upscope $end
$upscope $end
$enddefinitions $end
$comment Show the parameter values. $end
$dumpall
b1111 Z"
b1110 V"
b1101 R"
b1100 N"
b1011 J"
b1010 F"
b1001 B"
b1000 >"
b111 :"
b110 6"
b101 2"
b100 ."
b11 *"
b10 &"
b1 ""
b0 |
b1111 t
b1110 p
b1101 l
b1100 h
b1011 d
b1010 `
b1001 \
b1000 X
b111 T
b110 P
b101 L
b100 H
b11 D
b10 @
b1 <
b0 8
$end
#0
$dumpvars
b10000 ^"
b0 ]"
b1111111111111111 \"
b0 ["
b0 Y"
b1111111111111111 X"
b0 W"
b1011111111111111010 U"
b1111111111111111 T"
b110 S"
b10011101101010100110001001010101 Q"
b1111111111111111 P"
b1001110110101011 O"
b0 M"
b1111111111111111 L"
b0 K"
b0 I"
b1111111111111111 H"
b0 G"
b1011111111111111010 E"
b1111111111111111 D"
b110 C"
b10011101101010100110001001010101 A"
b1111111111111111 @"
b1001110110101011 ?"
b0 ="
b1111111111111111 <"
b0 ;"
b0 9"
b1111111111111111 8"
b0 7"
b1011111111111111010 5"
b1111111111111111 4"
b110 3"
b10011101101010100110001001010101 1"
b1111111111111111 0"
b1001110110101011 /"
b0 -"
b1101111111111111 ,"
b0 +"
b0 )"
b1101111111111111 ("
b0 '"
b1010011111111111010 %"
b1101111111111111 $"
b110 #"
b10001001111101010000001001010101 !"
b1101111111111111 ~
b1001110110101011 }
b11010011101101010101111111111111111111111111111111100101100010001000000001001010101 {
b1111111111111111111111111111111111111111111111111101111111111111 z
b1101001110110101011 y
b10000 x
b0 w
b0 v
b0 u
b0 s
b0 r
b0 q
b0 o
b0 n
b1000100 m
b0 k
b0 j
b1001010101 i
b0 g
b0 f
b0 e
b0 c
b0 b
b0 a
b0 _
b0 ^
b1000100 ]
b0 [
b0 Z
b1001010101 Y
b0 W
b1111111 V
b0 U
b0 S
b1111111 R
b0 Q
b10000110111100 O
b1111111 N
b1000100 M
b10010100000101011 K
b1111111 J
b1001010101 I
b0 G
b1110000000000001 F
b0 E
b0 C
b1110000000000001 B
b0 A
b1110111000000001000100 ?
b1110000000000001 >
b1000100 =
b10000010100110001001010101 ;
b1110000000000001 :
b1001010101 9
b1000011111100010101010011110010110001001010101 7
b11111111110000000000001 6
b10001000000001001010101 5
b11010011101101010101111111111111111111111111111111100101100010001000000001001010101 4
b10001000000001001010101 3
b1000011111100010101010011110010110001001010101 2
b10000111111000101010101 1
b10000111111000101010101 0
b1101001110110101011 /
b1111111111111111111111111111111111111111111111111101111111111111 .
b11111111110000000000001 -
b10111 ,
b10000000000000000000000000000011 +
0*
0)
bx (
b1101001110110101011 '
b101101010000010011000011000001101110111011000 &
0%
b10000111111000101010101 $
b1111111111111111111111111111111111111111111111111101111111111111 #
b11111111110000000000001 "
b10111 !
$end
#5
b10010001100100011110111 $
b10010001100100011110111 0
b10010001100100011110111 1
b10000 x
b1001000110010001111011011000110011101100101101 2
b1001000110010001111011011000110011101100101101 7
b10111111110010000011101100101101 ;
b1101101100101101 9
b1111110000000001001000 ?
b1001000 =
b11011001011101101010011 K
b1101101100101101 I
b10001110111000 O
b1001000 M
b1101101100101101 Y
b1001000 ]
b1101101100101101 i
b1001000 m
b10010001101101100101101 3
b10010001101101100101101 5
b10000 ^"
b1110011000100110100101111111111111111111111111111110001100111010010001101101100101101 4
b1110011000100110100101111111111111111111111111111110001100111010010001101101100101101 {
b10101100001101111101101100101101 !"
b1100010011010011 }
b110000111111111100100 %"
b11100 #"
b11000100110100100011101100101101 1"
b1100010011010011 /"
b110111111111111100100 5"
b11100 3"
b11000100110100100011101100101101 A"
b1100010011010011 ?"
b110111111111111100100 E"
b11100 C"
b11000100110100100011101100101101 Q"
b1100010011010011 O"
b110111111111111100100 U"
b11100 S"
b111001100010011010011 y
b111001100010011010011 '
b111001100010011010011 /
b1101001000010101101101011110110001001 &
b10000111111000101010101 (
1%
#10
b10000 x
b1111101101001010001010111011010000010010000110 2
b1111101101001010001010111011010000010010000110 7
b10101011111101100000010010000110 ;
b1100010010000110 9
b11011010110000001111101 ?
b1111101 =
b11000010111111001111010 K
b1100010010000110 I
b11111000000011 O
b1111101 M
b1100010010000110 Y
b1111101 ]
b1100010010000110 i
b1111101 m
b11111011100010010000110 3
b11111011100010010000110 5
b10000 ^"
b1001011111011011110011111111111111111111111111111110110100000011111011100010010000110 4
b1001011111011011110011111111111111111111111111111110110100000011111011100010010000110 {
b11011100000010011100010010000110 !"
b1111101101111010 }
b11111011111111101110 %"
b10010 #"
b11111011011110010000010010000110 1"
b1111101101111010 /"
b100011111111111101110 5"
b10010 3"
b11111011011110010000010010000110 A"
b1111101101111010 ?"
b100011111111111101110 E"
b10010 C"
b11111011011110010000010010000110 Q"
b1111101101111010 O"
b100011111111111101110 U"
b10010 S"
b11111011010010100010110 $
b11111011010010100010110 0
b100101111101101111010 y
b11111011010010100010110 1
b100101111101101111010 '
b100101111101101111010 /
b11011001000000101010101101010000110000110100 &
b10010001100100011110111 (
0%
#15
b11111011000010000001101 $
b11111011000010000001101 0
b11111011000010000001101 1
b10000 x
b1111101100001000000110000011110010001101110100 2
b1111101100001000000110000011110010001101110100 7
b10001111000001100010001101110100 ;
b1010001101110100 9
b10100010001011010001100 K
b1010001101110100 I
b1010001101110100 Y
b1010001101110100 i
b11111011010001101110100 3
b11111011010001101110100 5
b10000 ^"
b111000011011100100010111111111111111111111111111111000111100011111111011010001101110100 4
b111000011011100100010111111111111111111111111111111000111100011111111011010001101110100 {
b11000000111110011010001101110100 !"
b1101110010001100 }
b11000011111111110010000 %"
b1110000 #"
b11011100100010110010001101110100 1"
b1101110010001100 /"
b11011111111111110010000 5"
b1110000 3"
b11011100100010110010001101110100 A"
b1101110010001100 ?"
b11011111111111110010000 E"
b1110000 C"
b11011100100010110010001101110100 Q"
b1101110010001100 O"
b11011111111111110010000 U"
b1110000 S"
b11100001101110010001100 y
b11100001101110010001100 '
b11100001101110010001100 /
b100111101110010101111001110111000011101011011 &
b11111011010010100010110 (
1%
#20
b10000 x
b11011010101101101001111001011111110110101011 2
b11011010101101101001111001011111110110101011 7
b1010001111101011111110110101011 ;
b101110110101011 9
b101111010000000011011 ?
b11011 =
b1011100111011111010101 K
b101110110101011 I
b110101100101 O
b11011 M
b101110110101011 Y
b11011 ]
b101110110101011 i
b11011 m
b110110101110110101011 3
b110110101110110101011 5
b10000 ^"
b1101000000010010101001111111111111111111111111111110010111111100110110101110110101011 4
b1101000000010010101001111111111111111111111111111110010111111100110110101110110101011 {
b10000010100101110110101011 !"
b1001010101 }
b101101011111111100110 %"
b11010 #"
b10010101001111110110101011 1"
b1001010101 /"
b110011111111111100110 5"
b11010 3"
b10010101001111110110101011 A"
b1001010101 ?"
b110011111111111100110 E"
b11010 C"
b10010101001111110110101011 Q"
b1001010101 O"
b110011111111111100110 U"
b11010 S"
b110110101011011010100 $
b110110101011011010100 0
b110100000001001010101 y
b110110101011011010100 1
b110100000001001010101 '
b110100000001001010101 /
b11101100001100010001000010000100010001011001 &
b11111011000010000001101 (
0%
#25
b1111110010111111010000 $
b1111110010111111010000 0
b1111110010111111010000 1
b10000 x
b111111001011111100111110010110101111110011111 2
b111111001011111100111110010110101111110011111 7
b110111101010110101111110011111 ;
b11111110011111 9
b1101110010000000111111 ?
b111111 =
b111111000111111100001 K
b11111110011111 I
b1111101000001 O
b111111 M
b11111110011111 Y
b111111 ]
b11111110011111 i
b111111 m
b1111110011111110011111 3
b1111110011111110011111 5
b10000 ^"
b11010010100000011000001111111111111111111111111111100101101011101111110011111110011111 4
b11010010100000011000001111111111111111111111111111100101101011101111110011111110011111 {
b10001100010101000011111110011111 !"
b1010000001100001 }
b1011010111111111001100 %"
b110100 #"
b10100000011000000101111110011111 1"
b1010000001100001 /"
b1100111111111111001100 5"
b110100 3"
b10100000011000000101111110011111 A"
b1010000001100001 ?"
b1100111111111111001100 E"
b110100 C"
b10100000011000000101111110011111 Q"
b1010000001100001 O"
b1100111111111111001100 U"
b110100 S"
b1101001010000001100001 y
b1101001010000001100001 '
b1101001010000001100001 /
b101111110111000000111111011011111011111011001 &
b110110101011011010100 (
1%
#30
b11010111011011000110010 $
b11010111011011000110010 0
b11010111011011000110010 1
b10000 x
b1101011101101100011000110001110011000100100101 2
b1101011101101100011000110001110011000100100101 7
b10110111000000010011000100100101 ;
b1101000100100101 9
b10111011010000001101011 ?
b1101011 =
b11001111100000101011011 K
b1101000100100101 I
b11010100010101 O
b1101011 M
b1101000100100101 Y
b1101011 ]
b1101000100100101 i
b1101011 m
b11010111101000100100101 3
b11010111101000100100101 5
b10000 ^"
b11100011001110110110101111111111111111111111111111100011100101111010111101000100100101 4
b11100011001110110110101111111111111111111111111111100011100101111010111101000100100101 {
b10110100111111101101000100100101 !"
b1100111011011011 }
b1100001111111111001000 %"
b111000 #"
b11001110110110100011000100100101 1"
b1100111011011011 /"
b1101111111111111001000 5"
b111000 3"
b11001110110110100011000100100101 A"
b1100111011011011 ?"
b1101111111111111001000 E"
b111000 C"
b11001110110110100011000100100101 Q"
b1100111011011011 O"
b1101111111111111001000 U"
b111000 S"
b1110001100111011011011 y
b1110001100111011011011 '
b1110001100111011011011 /
b10001001111100000101001100011011100010001100 &
b1111110010111111010000 (
0%
#35
b10000 x
b1000001101101111101011001110001100100001001 2
b1000001101101111101011001110001100100001001 7
b110001111010000001100100001001 ;
b11100100001001 9
b1110000000000001000 ?
b1000 =
b111000100101101110111 K
b11100100001001 I
b1111111000 O
b1000 M
b11100100001001 Y
b1000 ]
b11100100001001 i
b1000 m
b10000011100100001001 3
b10000011100100001001 5
b10000 ^"
b1100011100110111101101111111111111111111111111111110011100011000010000011100100001001 4
b1100011100110111101101111111111111111111111111111110011100011000010000011100100001001 {
b11001010000101110011100100001001 !"
b1110011011110111 }
b101001111111111101000 %"
b11000 #"
b11100110111101100001100100001001 1"
b1110011011110111 /"
b101111111111111101000 5"
b11000 3"
b11100110111101100001100100001001 A"
b1110011011110111 ?"
b101111111111111101000 E"
b11000 C"
b11100110111101100001100100001001 Q"
b1110011011110111 O"
b101111111111111101000 U"
b11000 S"
b10000011011011111011 $
b10000011011011111011 0
b110001110011011110111 y
b10000011011011111011 1
b110001110011011110111 '
b110001110011011110111 /
b111000111111000100001011100001010000110000000 &
b11010111011011000110010 (
1%
#40
b10000 x
b100110011010000101101011001111001000111110111 2
b100110011010000101101011001111001000111110111 7
b1100011101110001001000111110111 ;
b111000111110111 9
b1000010100000000100110 ?
b100110 =
b1110001000100110001001 K
b111000111110111 I
b1001011011010 O
b100110 M
b111000111110111 Y
b100110 ]
b111000111110111 i
b100110 m
b1001100111000111110111 3
b1001100111000111110111 5
b10000 ^"
b1100001101110000010001111111111111111111111111111110011110010001001100111000111110111 4
b1100001101110000010001111111111111111111111111111110011110010001001100111000111110111 {
b1100000010001110111000111110111 !"
b110111000001001 }
b1101110000010001001000111110111 1"
b110111000001001 /"
b1101110000010001001000111110111 A"
b110111000001001 ?"
b1101110000010001001000111110111 Q"
b110111000001001 O"
b1001100110100001011011 $
b1001100110100001011011 0
b110000110111000001001 y
b1001100110100001011011 1
b110000110111000001001 '
b110000110111000001001 /
b1101110011101011101111011100011101010001011 &
b10000011011011111011 (
0%
#45
b1001000100100011010110 $
b1001000100100011010110 0
b1001000100100011010110 1
b10000 x
b100100010010001101010111001110001000111101010 2
b100100010010001101010111001110001000111101010 7
b1000111101011010001000111101010 ;
b101000111101010 9
b111111000000000100100 ?
b100100 =
b1010001010001100010110 K
b101000111101010 I
b1000111011100 O
b100100 M
b101000111101010 Y
b100100 ]
b101000111101010 i
b100100 m
b1001000101000111101010 3
b1001000101000111101010 5
b10000 ^"
b1100011101110000101011111111111111111111111111111110011100010001001000101000111101010 4
b1100011101110000101011111111111111111111111111111110011100010001001000101000111101010 {
b11010000010100100101000111101010 !"
b1110111000010110 }
b11101110000101010001000111101010 1"
b1110111000010110 /"
b11101110000101010001000111101010 A"
b1110111000010110 ?"
b11101110000101010001000111101010 Q"
b1110111000010110 O"
b110001110111000010110 y
b110001110111000010110 '
b110001110111000010110 /
b100011100000111110110101011011101010110100110 &
b1001100110100001011011 (
1%
#50
b10100100001000111100001 $
b10100100001000111100001 0
b10100100001000111100001 1
b10000 x
b1010010000100011110000000001010000011001101001 2
b1010010000100011110000000001010000011001101001 7
b100001100111000000011001101001 ;
b10011001101001 9
b10001111100000001010010 ?
b1010010 =
b100110000111000010111 K
b10011001101001 I
b10100010101110 O
b1010010 M
b10011001101001 Y
b1010010 ]
b10011001101001 i
b1010010 m
b10100100010011001101001 3
b10100100010011001101001 5
b10000 ^"
b111101011111001100101101111111111111111111111111111000010100000010100100010011001101001 4
b111101011111001100101101111111111111111111111111111000010100000010100100010011001101001 {
b11011010011000110010011001101001 !"
b1111100110010111 }
b11010101011111110000110 %"
b1111010 #"
b11111001100101100000011001101001 1"
b1111100110010111 /"
b11110011111111110000110 5"
b1111010 3"
b11111001100101100000011001101001 A"
b1111100110010111 ?"
b11110011111111110000110 E"
b1111010 C"
b11111001100101100000011001101001 Q"
b1111100110010111 O"
b11110011111111110000110 U"
b1111010 S"
b11110101111100110010111 y
b11110101111100110010111 '
b11110101111100110010111 /
b10010011110101010110101110100000111001010 &
b1001000100100011010110 (
0%
#55
b10000 x
b1000100111001010000111111110110101011001001101 2
b1000100111001010000111111110110101011001001101 7
b11010111100001000101011001001101 ;
b1111011001001101 9
b1110111000000001000100 ?
b1000100 =
b11110100011000000110011 K
b1111011001001101 I
b10000110111100 O
b1000100 M
b1111011001001101 Y
b1000100 ]
b1111011001001101 i
b1000100 m
b10001001111011001001101 3
b10001001111011001001101 5
b10000 ^"
b10010101001101100101111111111111111111111111111111101101010110001001111011001001101 4
b10010101001101100101111111111111111111111111111111101101010110001001111011001001101 {
b10010100011110111111011001001101 !"
b1010100110110011 }
b110111111111111100 %"
b100 #"
b10101001101100100101011001001101 1"
b1010100110110011 /"
b111111111111111100 5"
b100 3"
b10101001101100100101011001001101 A"
b1010100110110011 ?"
b111111111111111100 E"
b100 C"
b10101001101100100101011001001101 Q"
b1010100110110011 O"
b111111111111111100 U"
b100 S"
b10001001110010100010000 $
b10001001110010100010000 0
b1001010100110110011 y
b10001001110010100010000 1
b1001010100110110011 '
b1001010100110110011 /
b1000110000001010000101101110001111101110100000 &
b10100100001000111100001 (
1%
#60
b11001010111101101000111 $
b11001010111101101000111 0
b11001010111101101000111 1
b10000 x
b1100101011110110100011010100000011010010101011 2
b1100101011110110100011010100000011010010101011 7
b10000010000101100011010010101011 ;
b1001010010101011 9
b10110000110000001100101 ?
b1100101 =
b10010011100000011010101 K
b1001010010101011 I
b11001000011011 O
b1100101 M
b1001010010101011 Y
b1100101 ]
b1001010010101011 i
b1100101 m
b11001011001010010101011 3
b11001011001010010101011 5
b10000 ^"
b10111111001011010101001111111111111111111111111111101000000110011001011001010010101011 4
b10111111001011010101001111111111111111111111111111101000000110011001011001010010101011 {
b10110001111010011001010010101011 !"
b1100101101010101 }
b1010010001111111010001 %"
b101111 #"
b11001011010101000011010010101011 1"
b1100101101010101 /"
b1011101111111111010001 5"
b101111 3"
b11001011010101000011010010101011 A"
b1100101101010101 ?"
b1011101111111111010001 E"
b101111 C"
b11001011010101000011010010101011 Q"
b1100101101010101 O"
b1011101111111111010001 U"
b101111 S"
b1011111100101101010101 y
b1011111100101101010101 '
b1011111100101101010101 /
b10111010110111111011000010100011110000000 &
b10001001110010100010000 (
0%
#65
b10000 x
b1010101001100100110011110111100010011110111001 2
b1010101001100100110011110111100010011110111001 7
b111110110000100010011110111001 ;
b100011110111001 9
b10010100110000001010101 ?
b1010101 =
b1000111001010011000111 K
b100011110111001 I
b10101000101011 O
b1010101 M
b100011110111001 Y
b1010101 ]
b100011110111001 i
b1010101 m
b10101010100011110111001 3
b10101010100011110111001 5
b10000 ^"
b10000111011000010001101111111111111111111111111111101111000100110101010100011110111001 4
b10000111011000010001101111111111111111111111111111101111000100110101010100011110111001 {
b10111101001111010100011110111001 !"
b1101100001000111 }
b111001101111111011111 %"
b100001 #"
b11011000010001100010011110111001 1"
b1101100001000111 /"
b1000001111111111011111 5"
b100001 3"
b11011000010001100010011110111001 A"
b1101100001000111 ?"
b1000001111111111011111 E"
b100001 C"
b11011000010001100010011110111001 Q"
b1101100001000111 O"
b1000001111111111011111 U"
b100001 S"
b10101010011001001101000 $
b10101010011001001101000 0
b1000011101100001000111 y
b10101010011001001101000 1
b1000011101100001000111 '
b1000011101100001000111 /
b10110000101110010100110101010100111100011000 &
b11001010111101101000111 (
1%
#70
b10001100001100111100110 $
b10001100001100111100110 0
b10001100001100111100110 1
b10000 x
b1000110000110011110010110110000010101101110000 2
b1000110000110011110010110110000010101101110000 7
b100110000000100010101101110000 ;
b10101101110000 9
b1111010100000001000110 ?
b1000110 =
b101011000110010010000 K
b10101101110000 I
b10001010111010 O
b1000110 M
b10101101110000 Y
b1000110 ]
b10101101110000 i
b1000110 m
b10001100010101101110000 3
b10001100010101101110000 5
b10000 ^"
b10011111010100100011111111111111111111111111111111101100000101010001100010101101110000 4
b10011111010100100011111111111111111111111111111111101100000101010001100010101101110000 {
b10111001111111010010101101110000 !"
b1101010010010000 }
b1000100001111111011001 %"
b100111 #"
b11010100100011110010101101110000 1"
b1101010010010000 /"
b1001101111111111011001 5"
b100111 3"
b11010100100011110010101101110000 A"
b1101010010010000 ?"
b1001101111111111011001 E"
b100111 C"
b11010100100011110010101101110000 Q"
b1101010010010000 O"
b1001101111111111011001 U"
b100111 S"
b1001111101010010010000 y
b1001111101010010010000 '
b1001111101010010010000 /
b110010110011001100111010010000111001101101010 &
b10101010011001001101000 (
0%
#75
b10000 x
b1010011001101101101010010111100110101110100111 2
b1010011001101101101010010111100110101110100111 7
b1000010001100100110101110100111 ;
b100101110100111 9
b10010001010000001010011 ?
b1010011 =
b1001011000011111011001 K
b100101110100111 I
b10100100101101 O
b1010011 M
b100101110100111 Y
b1010011 ]
b100101110100111 i
b1010011 m
b10100110100101110100111 3
b10100110100101110100111 5
b10000 ^"
b10000110010100010110001111111111111111111111111111101111001101010100110100101110100111 4
b10000110010100010110001111111111111111111111111111101111001101010100110100101110100111 {
b10000001110011010100101110100111 !"
b1001010001011001 }
b111001101111111011111 %"
b100001 #"
b10010100010110000110101110100111 1"
b1001010001011001 /"
b1000001111111111011111 5"
b100001 3"
b10010100010110000110101110100111 A"
b1001010001011001 ?"
b1000001111111111011111 E"
b100001 C"
b10010100010110000110101110100111 Q"
b1001010001011001 O"
b1000001111111111011111 U"
b100001 S"
b10100110011011011010101 $
b10100110011011011010101 0
b1000011001010001011001 y
b10100110011011011010101 1
b1000011001010001011001 '
b1000011001010001011001 /
b11100101000011110001110011100011111111100010 &
b10001100001100111100110 (
1%
#80
b10100111100110100001111 $
b10100111100110100001111 0
b10100111100110100001111 1
b10000 x
b1010011110011010000111000100110010001000000110 2
b1010011110011010000111000100110010001000000110 7
b11000101110001100010001000000110 ;
b1110001000000110 9
b11100000010000011111010 K
b1110001000000110 I
b1110001000000110 Y
b1110001000000110 i
b10100111110001000000110 3
b10100111110001000000110 5
b10000 ^"
b110110011011101111110011111111111111111111111111111001001100011110100111110001000000110 4
b110110011011101111110011111111111111111111111111111001001100011110100111110001000000110 {
b11000010001110011110001000000110 !"
b1101110111111010 }
b10111100111111110010100 %"
b1101100 #"
b11011101111110010010001000000110 1"
b1101110111111010 /"
b11010111111111110010100 5"
b1101100 3"
b11011101111110010010001000000110 A"
b1101110111111010 ?"
b11010111111111110010100 E"
b1101100 C"
b11011101111110010010001000000110 Q"
b1101110111111010 O"
b11010111111111110010100 U"
b1101100 S"
b11011001101110111111010 y
b11011001101110111111010 '
b11011001101110111111010 /
b1100110100001100110011000001000000100010000 &
b10100110011011011010101 (
0%
